%!PS-Adobe-3.0 EPSF-3.0
%%BoundingBox: 0 0 1800 720
%%LanguageLevel: 2
%%Creator: OriginLab Corporation
%%Title: (C:\Users\Administrator\Documents\PACT'15\data\eval-gc-sense.eps)
%%CreationDate: Sun Mar 22 18:31:47 2015
%%EndComments

/OriginLab::PSL1 128 dict dup begin def
/Save0 save def
%%BeginResource: procset OriginLab::PSL1
/wd{1 index where{pop pop pop}{bind def}ifelse}bind def
/setcmykcolor{1 sub 4 1 roll 3{3 index add neg dup 0 lt{pop 0}if 3 1 roll}repeat setrgbcolor pop}wd
/selectfont{dup type/arraytype eq{exch findfont exch makefont setfont}{exch findfont exch scalefont setfont}ifelse}wd
/xshow{1 index length 0 le{}{currentpoint exch 3 index length 1 sub 0 exch 1 exch{dup 5 index exch 1 getinterval show 3 index exch get add 2 copy exch moveto}for pop pop}ifelse pop pop}wd
/glyphshow{matrix currentmatrix exch currentfont dup/FontMatrix get concat currentpoint translate
 dup/Metrics get 2 index get 0 4 2 roll gsave/CharProcs get exch 2 copy known not{pop/.notdef}if
 get exec fill grestore moveto setmatrix}wd
/grayimage/image load def/rgbtogray{cvx exec dup length 3 idiv 1 sub 0 exch 1 exch{dup 3 mul dup 3 index exch get 255 div .3 mul exch
 1 add dup 4 index exch get 255 div .59 mul exch 1 add 4 index exch get 255 div .11 mul add add
 255 mul dup 255 gt{255}if round cvi 2 index 3 1 roll put}for dup length 3 idiv 0 exch getinterval}bind def
/colorimage{0 setgray pop pop cvlit/rgbtogray cvx 2 packedarray cvx grayimage}wd
/bd{bind def}bind def/ld{load def}bd/ed{exch def}bd/xd{cvx def}bd
/np/newpath ld/a/arc ld/m/moveto ld/l/lineto ld/c/curveto ld/rm/rmoveto ld/rl/rlineto ld/rc/rcurveto ld/cp/closepath ld/cpt/currentpoint ld
/tr/translate ld/sc/scale ld/ro/rotate ld/t/transform ld/it/itransform ld/dt/dtransform ld/idt/idtransform ld
/mtx/matrix ld/cmtx/currentmatrix ld/dmtx/defaultmatrix ld/smtx/setmatrix ld/catmtx/concatmatrix ld
/sw/setlinewidth ld/scap/setlinecap ld/sj/setlinejoin ld/sm/setmiterlimit ld/sd/setdash ld/rgb/setrgbcolor ld/crgb/currentrgbcolor ld/cmyk/setcmykcolor ld/gs/gsave ld/gr/grestore ld
/st/stroke ld/fi/fill ld/eofi/eofill ld/cl/clip ld/eocl/eoclip ld
/df/definefont ld/ff/findfont ld/sf/setfont ld/scf/scalefont ld/self/selectfont ld/cf/currentfont ld
/s/show ld/xs/xshow ld/gls/glyphshow ld/xgls{cpt 3 1 roll add exch 3 -1 roll gls m}bd
/cd/currentdict ld/i/index ld
/DrawBox{4 2 roll m 1 index 0 rl 0 exch rl neg 0 rl cp}bd
/plus.re { 6 { 3 index } repeat moveto 0 exch rlineto 0 rlineto pop pop neg 0 exch rlineto pop lineto closepath } def
/DrawBcc{4 2 roll m 2 copy 0 lt exch 0 lt xor{dup 0 exch rl exch 0 rl neg 0 exch rl}{exch dup 0 rl exch 0 exch rl neg 0 rl}ifelse cp}bd
/rectline{dup type/arraytype eq{dup length 0 exch 4 exch 4 sub{0 1 3{3 copy add get 4 1 roll pop}for pop 5 1 roll DrawBox}for pop}{DrawBox}ifelse}bd
/rectpath{dup type/arraytype eq{dup length 0 exch 4 exch 4 sub{0 1 3{3 copy add get 4 1 roll pop}for pop 5 1 roll DrawBcc}for pop}{DrawBcc}ifelse}bd
/pathproc{[{/m cvx}{/l cvx}{/c cvx}{/cp cvx}pathforall]cvx}bd
/L1img/image ld/L1idx[{0}
 {dup 7 and 3 1 roll -3 bitshift get exch 7 sub 1 mul bitshift  1 and}bind 1 index dup
 {dup 1 and 3 1 roll -1 bitshift get exch 1 sub 4 mul bitshift 15 and}bind 1 index dup dup
 {get}bind]def
/image{dup type/dicttype eq {dup/ImgCS get 0 get/Indexed eq}{false}ifelse
 {begin Width Height 8 ImageMatrix {rgb_string rgb_lookup
 cd/DataSource get dup type/filetype eq
 {mystring readstring pop}{exec}ifelse
 dup length 0 ne
 {L1idx BitsPerComponent get 0 1 Width 1 sub
 {3 copy exch exec exch 3 mul exch
 3 mul dup 5 index exch get exch 1 add dup 6 index exch get exch 1 add 6 index exch get
 7 index exch 4 index 2 add exch put 6 index exch 3 index 1 add exch put 5 index exch 2 index exch put pop
 }for pop pop pop }{pop pop pop ()}ifelse }false 3 colorimage end} {dup type/dicttype eq
 {{dup mark exch L1img pop pop}stopped{cleartomark begin Width Height BitsPerComponent ImageMatrix
 {cd/DataSource get dup type/filetype eq {mystring readstring pop}{exec}ifelse
 }false 3 colorimage end} if}{L1img}ifelse}ifelse
 }bd
/L1imgmask/imagemask ld/imagemask{dup type/dicttype eq
 {{dup mark exch L1imgmask pop pop}stopped {cleartomark begin Width Height polarityflag ImageMatrix
 {cd/DataSource get dup type/filetype eq {mystring readstring pop}{exec}ifelse
 }L1imgmask end}if}{L1imgmask}ifelse
 }bd
% Gradient function
/GradientStep 1 150 div def
/GradientStartRGB { /R1 exch def /G1 exch def /B1 exch def } def
/GradientEndRGB { /R2 exch def /G2 exch def /B2 exch def
/GradientSteps GradientLength GradientStep div def
/GradientRStep R2 R1 sub GradientSteps div def
/GradientGStep G2 G1 sub GradientSteps div def
/GradientBStep B2 B1 sub GradientSteps div def
} def
/GradientStepRGB { /R1 R1 GradientRStep add def
/G1 G1 GradientGStep add def
/B1 B1 GradientBStep add def
R1 G1 B1 setrgbcolor
} def
%%EndResource
/rectclip{np rectpath clip np}wd
/rectfill{gs np rectpath fi gr}wd
/rectstroke{gs np dup type/arraytype eq{dup length 6 eq}{false}ifelse{1 index type/arraytype eq{exch}{5 1 roll}ifelse rectline concat st}{rectline st}ifelse gr}wd
%%BeginResource: procset OriginLab::Image
/OriginLab::Image 32 dict dup begin
/BinProc{[currentfile mystring /readstring cvx /pop cvx] cvx bind}bd
/HexProc{[currentfile mystring /readhexstring cvx /pop cvx] cvx bind}bd
/Ascii85Proc{currentfile /ASCII85Decode filter}bd
/LZWA85{currentfile /ASCII85Decode filter /LZWDecode filter}bd
/ImgProcArray[/BinProc /HexProc /Ascii85Proc /LZWA85]def
/ImgDict{/ImgDict 16 dict def ImgDict dup begin /ImageType 1 def /MultipleDataSource false def end}bd
/L2Dec{{[1 0]}{[0 1]}ifelse}bd
/BegImg{ /Img_sv save def
 /ImgDir ed ImgProcArray exch get /ImgProc exch ld
 dup /polarityflag ed L2Dec /polarity ed /smoothflag ed
 tr /dx 2 index def /dy 1 index abs def sc
 string /mystring ed /bpc ed /ih ed /iw ed
 }bd
/EndImg {Img_sv restore}bd
/DoXImg{ /rgb_lookup ed /hival ed ImgDict dup begin
 [/Indexed /DeviceRGB hival rgb_lookup] /L1img where{pop/ImgCS ed}{setcolorspace}ifelse
 /rgb_string iw 3 mul string def
 /Width iw def
 /Height ih def
 /Decode [0 1 bpc{2 mul}repeat 1 sub] def
 /ImageMatrix
  ImgDir 0 eq{[iw 0 0 ih 0 0]}if
  ImgDir 1 eq{[iw neg 0 0 ih iw 0]}if
  ImgDir 2 eq{[iw 0 0 ih neg 0 ih]}if
  ImgDir 3 eq{[iw neg 0 0 ih neg iw ih]}if
  def
 /DataSource ImgProc def
 /BitsPerComponent bpc def
 /Interpolate smoothflag def
 end image}bd
/DoImg{ ImgDict dup begin
 [/DeviceRGB] /L1img where{pop/ImgCS ed}{setcolorspace}ifelse
 /rgb_string iw 3 mul string def
 /Width iw def
 /Height ih def
 /Decode [0 1 0 1 0 1] def
 /ImageMatrix
  ImgDir 0 eq{[iw 0 0 ih 0 0]}if
  ImgDir 1 eq{[iw neg 0 0 ih iw 0]}if
  ImgDir 2 eq{[iw 0 0 ih neg 0 ih]}if
  ImgDir 3 eq{[iw neg 0 0 ih neg iw ih]}if
  def
 /DataSource ImgProc def
 /BitsPerComponent 8 def
 /Interpolate smoothflag def
 end image}bd
end def
%%EndResource
%%BeginFont: /MC1_Arial
12 dict begin
/FontInfo 8 dict dup begin
/ItalicAngle 0 def
/UnderlinePosition -217.00 def
/UnderlineThickness 150.00 def
/StrikeoutPosition 530.00 def
/StrikeoutThickness 102.00 def
/isFixedPitch false def
end readonly def
/FontName /MC1_Arial def
/FontType 3 def
/FontMatrix [1 2048 div 0 0 1 2048 div 0 0] def
/FontBBox [-1361 -665 4096 2060] def
/Encoding 256 array def 0 1 255{Encoding exch/.notdef put}for
Encoding 32/s32 put
Encoding 46/s46 put
Encoding 48/s48 put
Encoding 49/s49 put
Encoding 50/s50 put
Encoding 51/s51 put
Encoding 52/s52 put
Encoding 53/s53 put
Encoding 54/s54 put
Encoding 55/s55 put
Encoding 56/s56 put
Encoding 57/s57 put
Encoding 99/s99 put
Encoding 100/s100 put
Encoding 102/s102 put
Encoding 104/s104 put
Encoding 105/s105 put
Encoding 106/s106 put
Encoding 109/s109 put
Encoding 110/s110 put
Encoding 111/s111 put
Encoding 112/s112 put
Encoding 114/s114 put
Encoding 115/s115 put
Encoding 117/s117 put
Encoding 120/s120 put
Encoding 121/s121 put
/BoundingBoxes 28 dict def
BoundingBoxes begin
/s32 [0 -434 569 1854] def
/s46 [0 -434 569 1854] def
/s48 [0 -434 1139 1854] def
/s49 [0 -434 1139 1854] def
/s50 [0 -434 1139 1854] def
/s51 [0 -434 1139 1854] def
/s52 [0 -434 1139 1854] def
/s53 [0 -434 1139 1854] def
/s54 [0 -434 1139 1854] def
/s55 [0 -434 1139 1854] def
/s56 [0 -434 1139 1854] def
/s57 [0 -434 1139 1854] def
/s99 [0 -434 1024 1854] def
/s100 [0 -434 1139 1854] def
/s102 [0 -434 569 1854] def
/s104 [0 -434 1139 1854] def
/s105 [0 -434 455 1854] def
/s106 [-94 -434 455 1854] def
/s109 [0 -434 1706 1854] def
/s110 [0 -434 1139 1854] def
/s111 [0 -434 1139 1854] def
/s112 [0 -434 1139 1854] def
/s114 [0 -434 682 1854] def
/s115 [0 -434 1024 1854] def
/s117 [0 -434 1139 1854] def
/s120 [0 -434 1024 1854] def
/s121 [0 -434 1024 1854] def
end
/Metrics 28 dict def
 Metrics begin
/s32 569 def
/s46 569 def
/s48 1139 def
/s49 1139 def
/s50 1139 def
/s51 1139 def
/s52 1139 def
/s53 1139 def
/s54 1139 def
/s55 1139 def
/s56 1139 def
/s57 1139 def
/s99 1024 def
/s100 1139 def
/s102 569 def
/s104 1139 def
/s105 455 def
/s106 455 def
/s109 1706 def
/s110 1139 def
/s111 1139 def
/s112 1139 def
/s114 682 def
/s115 1024 def
/s117 1139 def
/s120 1024 def
/s121 1024 def
end
/CharProcs 28 dict def
CharProcs begin
/.notdef {} def
/s46 {
186 0 m
186 205 186 0 186 205 c
391 205 186 205 391 205 c
391 0 391 205 391 0 c
186 0 391 0 186 0 c
closepath } bind def
/s48 {
85 723 m
85 896.33 102.83 1035.83 138.5 1141.5 c
174.17 1247.17 227.17 1328.67 297.5 1386 c
367.83 1443.33 456.33 1472 563 1472 c
641.67 1472 710.67 1456.17 770 1424.5 c
829.33 1392.83 878.33 1347.17 917 1287.5 c
955.67 1227.83 986 1155.17 1008 1069.5 c
1030 983.83 1041 868.33 1041 723 c
1041 551 1023.33 412.17 988 306.5 c
952.67 200.83 899.83 119.17 829.5 61.5 c
759.17 3.83 670.33 -25 563 -25 c
421.67 -25 310.67 25.67 230 127 c
133.33 249 85 447.67 85 723 c
closepath 270 723 m
270 482.33 298.17 322.17 354.5 242.5 c
410.83 162.83 480.33 123 563 123 c
645.67 123 715.17 163 771.5 243 c
827.83 323 856 483 856 723 c
856 964.33 827.83 1124.67 771.5 1204 c
715.17 1283.33 645 1323 561 1323 c
478.33 1323 412.33 1288 363 1218 c
301 1128.67 270 963.67 270 723 c
closepath } bind def
/s49 {
763 0 m
583 0 763 0 583 0 c
583 1147 583 0 583 1147 c
539.67 1105.67 482.83 1064.33 412.5 1023 c
342.17 981.67 279 950.67 223 930 c
223 1104 223 930 223 1104 c
323.67 1151.33 411.67 1208.67 487 1276 c
562.33 1343.33 615.67 1408.67 647 1472 c
763 1472 647 1472 763 1472 c
763 0 763 1472 763 0 c
closepath } bind def
/s50 {
1031 173 m
1031 0 1031 173 1031 0 c
62 0 1031 0 62 0 c
60.67 43.33 67.67 85 83 125 c
107.67 191 147.17 256 201.5 320 c
255.83 384 334.33 458 437 542 c
596.33 672.67 704 776.17 760 852.5 c
816 928.83 844 1001 844 1069 c
844 1140.33 818.5 1200.5 767.5 1249.5 c
716.5 1298.5 650 1323 568 1323 c
481.33 1323 412 1297 360 1245 c
308 1193 281.67 1121 281 1029 c
96 1048 281 1029 96 1048 c
108.67 1186 156.33 1291.17 239 1363.5 c
321.67 1435.83 432.67 1472 572 1472 c
712.67 1472 824 1433 906 1355 c
988 1277 1029 1180.33 1029 1065 c
1029 1006.33 1017 948.67 993 892 c
969 835.33 929.17 775.67 873.5 713 c
817.83 650.33 725.33 564.33 596 455 c
488 364.33 418.67 302.83 388 270.5 c
357.33 238.17 332 205.67 312 173 c
1031 173 312 173 1031 173 c
closepath } bind def
/s51 {
86 387 m
266 411 86 387 266 411 c
286.67 309 321.83 235.5 371.5 190.5 c
421.17 145.5 481.67 123 553 123 c
637.67 123 709.17 152.33 767.5 211 c
825.83 269.67 855 342.33 855 429 c
855 511.67 828 579.83 774 633.5 c
720 687.17 651.33 714 568 714 c
534 714 491.67 707.33 441 694 c
461 852 441 694 461 852 c
473 850.67 482.67 850 490 850 c
566.67 850 635.67 870 697 910 c
758.33 950 789 1011.67 789 1095 c
789 1161 766.67 1215.67 722 1259 c
677.33 1302.33 619.67 1324 549 1324 c
479 1324 420.67 1302 374 1258 c
327.33 1214 297.33 1148 284 1060 c
104 1092 284 1060 104 1092 c
126 1212.67 176 1306.17 254 1372.5 c
332 1438.83 429 1472 545 1472 c
625 1472 698.67 1454.83 766 1420.5 c
833.33 1386.17 884.83 1339.33 920.5 1280 c
956.17 1220.67 974 1157.67 974 1091 c
974 1027.67 957 970 923 918 c
889 866 838.67 824.67 772 794 c
858.67 774 926 732.5 974 669.5 c
1022 606.5 1046 527.67 1046 433 c
1046 305 999.33 196.5 906 107.5 c
812.67 18.5 694.67 -26 552 -26 c
423.33 -26 316.5 12.33 231.5 89 c
146.5 165.67 98 265 86 387 c
closepath } bind def
/s52 {
662 0 m
662 351 662 0 662 351 c
26 351 662 351 26 351 c
26 516 26 351 26 516 c
695 1466 26 516 695 1466 c
842 1466 695 1466 842 1466 c
842 516 842 1466 842 516 c
1040 516 842 516 1040 516 c
1040 351 1040 516 1040 351 c
842 351 1040 351 842 351 c
842 0 842 351 842 0 c
662 0 842 0 662 0 c
closepath 662 516 m
662 1177 662 516 662 1177 c
203 516 662 1177 203 516 c
662 516 203 516 662 516 c
closepath } bind def
/s53 {
85 384 m
274 400 85 384 274 400 c
288 308 320.5 238.83 371.5 192.5 c
422.5 146.17 484 123 556 123 c
642.67 123 716 155.67 776 221 c
836 286.33 866 373 866 481 c
866 583.67 837.17 664.67 779.5 724 c
721.83 783.33 646.33 813 553 813 c
495 813 442.67 799.83 396 773.5 c
349.33 747.17 312.67 713 286 671 c
117 693 286 671 117 693 c
259 1446 117 693 259 1446 c
988 1446 259 1446 988 1446 c
988 1274 988 1446 988 1274 c
403 1274 988 1274 403 1274 c
324 880 403 1274 324 880 c
412 941.33 504.33 972 601 972 c
729 972 837 927.67 925 839 c
1013 750.33 1057 636.33 1057 497 c
1057 364.33 1018.33 249.67 941 153 c
847 34.33 718.67 -25 556 -25 c
422.67 -25 313.83 12.33 229.5 87 c
145.17 161.67 97 260.67 85 384 c
closepath } bind def
/s54 {
1019 1107 m
840 1093 1019 1107 840 1093 c
824 1163.67 801.33 1215 772 1247 c
723.33 1298.33 663.33 1324 592 1324 c
534.67 1324 484.33 1308 441 1276 c
384.33 1234.67 339.67 1174.33 307 1095 c
274.33 1015.67 257.33 902.67 256 756 c
299.33 822 352.33 871 415 903 c
477.67 935 543.33 951 612 951 c
732 951 834.17 906.83 918.5 818.5 c
1002.83 730.17 1045 616 1045 476 c
1045 384 1025.17 298.5 985.5 219.5 c
945.83 140.5 891.33 80 822 38 c
752.67 -4 674 -25 586 -25 c
436 -25 313.67 30.17 219 140.5 c
124.33 250.83 77 432.67 77 686 c
77 969.33 129.33 1175.33 234 1304 c
325.33 1416 448.33 1472 603 1472 c
718.33 1472 812.83 1439.67 886.5 1375 c
960.17 1310.33 1004.33 1221 1019 1107 c
closepath 284 475 m
284 413 297.17 353.67 323.5 297 c
349.83 240.33 386.67 197.17 434 167.5 c
481.33 137.83 531 123 583 123 c
659 123 724.33 153.67 779 215 c
833.67 276.33 861 359.67 861 465 c
861 566.33 834 646.17 780 704.5 c
726 762.83 658 792 576 792 c
494.67 792 425.67 762.83 369 704.5 c
312.33 646.17 284 569.67 284 475 c
closepath } bind def
/s55 {
97 1274 m
97 1447 97 1274 97 1447 c
1046 1447 97 1447 1046 1447 c
1046 1307 1046 1447 1046 1307 c
952.67 1207.67 860.17 1075.67 768.5 911 c
676.83 746.33 606 577 556 403 c
520 280.33 497 146 487 0 c
302 0 487 0 302 0 c
304 115.33 326.67 254.67 370 418 c
413.33 581.33 475.5 738.83 556.5 890.5 c
637.5 1042.17 723.67 1170 815 1274 c
97 1274 815 1274 97 1274 c
closepath } bind def
/s56 {
362 795 m
287.33 822.33 232 861.33 196 912 c
160 962.67 142 1023.33 142 1094 c
142 1200.67 180.33 1290.33 257 1363 c
333.67 1435.67 435.67 1472 563 1472 c
691 1472 794 1434.83 872 1360.5 c
950 1286.17 989 1195.67 989 1089 c
989 1021 971.17 961.83 935.5 911.5 c
899.83 861.17 845.67 822.33 773 795 c
863 765.67 931.5 718.33 978.5 653 c
1025.5 587.67 1049 509.67 1049 419 c
1049 293.67 1004.67 188.33 916 103 c
827.33 17.67 710.67 -25 566 -25 c
421.33 -25 304.67 17.83 216 103.5 c
127.33 189.17 83 296 83 424 c
83 519.33 107.17 599.17 155.5 663.5 c
203.83 727.83 272.67 771.67 362 795 c
closepath 326 1100 m
326 1030.67 348.33 974 393 930 c
437.67 886 495.67 864 567 864 c
636.33 864 693.17 885.83 737.5 929.5 c
781.83 973.17 804 1026.67 804 1090 c
804 1156 781.17 1211.5 735.5 1256.5 c
689.83 1301.5 633 1324 565 1324 c
496.33 1324 439.33 1302 394 1258 c
348.67 1214 326 1161.33 326 1100 c
closepath 268 423 m
268 371.67 280.17 322 304.5 274 c
328.83 226 365 188.83 413 162.5 c
461 136.17 512.67 123 568 123 c
654 123 725 150.67 781 206 c
837 261.33 865 331.67 865 417 c
865 503.67 836.17 575.33 778.5 632 c
720.83 688.67 648.67 717 562 717 c
477.33 717 407.17 689 351.5 633 c
295.83 577 268 507 268 423 c
closepath } bind def
/s57 {
112 339 m
285 355 112 339 285 355 c
299.67 273.67 327.67 214.67 369 178 c
410.33 141.33 463.33 123 528 123 c
583.33 123 631.83 135.67 673.5 161 c
715.17 186.33 749.33 220.17 776 262.5 c
802.67 304.83 825 362 843 434 c
861 506 870 579.33 870 654 c
870 662 869.67 674 869 690 c
833 632.67 783.83 586.17 721.5 550.5 c
659.17 514.83 591.67 497 519 497 c
397.67 497 295 541 211 629 c
127 717 85 833 85 977 c
85 1125.67 128.83 1245.33 216.5 1336 c
304.17 1426.67 414 1472 546 1472 c
641.33 1472 728.5 1446.33 807.5 1395 c
886.5 1343.67 946.5 1270.5 987.5 1175.5 c
1028.5 1080.5 1049 943 1049 763 c
1049 575.67 1028.67 426.5 988 315.5 c
947.33 204.5 886.83 120 806.5 62 c
726.17 4 632 -25 524 -25 c
409.33 -25 315.67 6.83 243 70.5 c
170.33 134.17 126.67 223.67 112 339 c
closepath 849 986 m
849 1089.33 821.5 1171.33 766.5 1232 c
711.5 1292.67 645.33 1323 568 1323 c
488 1323 418.33 1290.33 359 1225 c
299.67 1159.67 270 1075 270 971 c
270 877.67 298.17 801.83 354.5 743.5 c
410.83 685.17 480.33 656 563 656 c
646.33 656 714.83 685.17 768.5 743.5 c
822.17 801.83 849 882.67 849 986 c
closepath } bind def
/s99 {
828 389 m
1005 366 828 389 1005 366 c
985.67 244 936.17 148.5 856.5 79.5 c
776.83 10.5 679 -24 563 -24 c
417.67 -24 300.83 23.5 212.5 118.5 c
124.17 213.5 80 349.67 80 527 c
80 641.67 99 742 137 828 c
175 914 232.83 978.5 310.5 1021.5 c
388.17 1064.5 472.67 1086 564 1086 c
679.33 1086 773.67 1056.83 847 998.5 c
920.33 940.17 967.33 857.33 988 750 c
813 723 988 750 813 723 c
796.33 794.33 766.83 848 724.5 884 c
682.17 920 631 938 571 938 c
480.33 938 406.67 905.5 350 840.5 c
293.33 775.5 265 672.67 265 532 c
265 389.33 292.33 285.67 347 221 c
401.67 156.33 473 124 561 124 c
631.67 124 690.67 145.67 738 189 c
785.33 232.33 815.33 299 828 389 c
closepath } bind def
/s100 {
824 0 m
824 134 824 0 824 134 c
756.67 28.67 657.67 -24 527 -24 c
442.33 -24 364.5 -0.67 293.5 46 c
222.5 92.67 167.5 157.83 128.5 241.5 c
89.5 325.17 70 421.33 70 530 c
70 636 87.67 732.17 123 818.5 c
158.33 904.83 211.33 971 282 1017 c
352.67 1063 431.67 1086 519 1086 c
583 1086 640 1072.5 690 1045.5 c
740 1018.5 780.67 983.33 812 940 c
812 1466 812 940 812 1466 c
991 1466 812 1466 991 1466 c
991 0 991 1466 991 0 c
824 0 991 0 824 0 c
closepath 255 530 m
255 394 283.67 292.33 341 225 c
398.33 157.67 466 124 544 124 c
622.67 124 689.5 156.17 744.5 220.5 c
799.5 284.83 827 383 827 515 c
827 660.33 799 767 743 835 c
687 903 618 937 536 937 c
456 937 389.17 904.33 335.5 839 c
281.83 773.67 255 670.67 255 530 c
closepath } bind def
/s102 {
178 0 m
178 922 178 0 178 922 c
19 922 178 922 19 922 c
19 1062 19 922 19 1062 c
178 1062 19 1062 178 1062 c
178 1175 178 1062 178 1175 c
178 1246.33 184.33 1299.33 197 1334 c
214.33 1380.67 244.83 1418.5 288.5 1447.5 c
332.17 1476.5 393.33 1491 472 1491 c
522.67 1491 578.67 1485 640 1473 c
613 1316 640 1473 613 1316 c
575.67 1322.67 540.33 1326 507 1326 c
452.33 1326 413.67 1314.33 391 1291 c
368.33 1267.67 357 1224 357 1160 c
357 1062 357 1160 357 1062 c
564 1062 357 1062 564 1062 c
564 922 564 1062 564 922 c
357 922 564 922 357 922 c
357 0 357 922 357 0 c
178 0 357 0 178 0 c
closepath } bind def
/s104 {
135 0 m
135 1466 135 0 135 1466 c
315 1466 135 1466 315 1466 c
315 940 315 1466 315 940 c
399 1037.33 505 1086 633 1086 c
711.67 1086 780 1070.5 838 1039.5 c
896 1008.5 937.5 965.67 962.5 911 c
987.5 856.33 1000 777 1000 673 c
1000 0 1000 673 1000 0 c
820 0 1000 0 820 0 c
820 673 820 0 820 673 c
820 763 800.5 828.5 761.5 869.5 c
722.5 910.5 667.33 931 596 931 c
542.67 931 492.5 917.17 445.5 889.5 c
398.5 861.83 365 824.33 345 777 c
325 729.67 315 664.33 315 581 c
315 0 315 581 315 0 c
135 0 315 0 135 0 c
closepath } bind def
/s105 {
136 1259 m
136 1466 136 1259 136 1466 c
316 1466 136 1466 316 1466 c
316 1259 316 1466 316 1259 c
136 1259 316 1259 136 1259 c
closepath 136 0 m
136 1062 136 0 136 1062 c
316 1062 136 1062 316 1062 c
316 0 316 1062 316 0 c
136 0 316 0 136 0 c
closepath } bind def
/s106 {
134 1257 m
134 1466 134 1257 134 1466 c
314 1466 134 1466 314 1466 c
314 1257 314 1466 314 1257 c
134 1257 314 1257 134 1257 c
closepath -94 -412 m
-60 -259 -94 -412 -60 -259 c
-24 -268.33 4.33 -273 25 -273 c
61.67 -273 89 -260.83 107 -236.5 c
125 -212.17 134 -151.33 134 -54 c
134 1062 134 -54 134 1062 c
314 1062 134 1062 314 1062 c
314 -58 314 1062 314 -58 c
314 -188.67 297 -279.67 263 -331 c
219.67 -397.67 147.67 -431 47 -431 c
-1.67 -431 -48.67 -424.67 -94 -412 c
closepath } bind def
/s109 {
135 0 m
135 1062 135 0 135 1062 c
296 1062 135 1062 296 1062 c
296 913 296 1062 296 913 c
329.33 965 373.67 1006.83 429 1038.5 c
484.33 1070.17 547.33 1086 618 1086 c
696.67 1086 761.17 1069.67 811.5 1037 c
861.83 1004.33 897.33 958.67 918 900 c
1002 1024 1111.33 1086 1246 1086 c
1351.33 1086 1432.33 1056.83 1489 998.5 c
1545.67 940.17 1574 850.33 1574 729 c
1574 0 1574 729 1574 0 c
1395 0 1574 0 1395 0 c
1395 669 1395 0 1395 669 c
1395 741 1389.17 792.83 1377.5 824.5 c
1365.83 856.17 1344.67 881.67 1314 901 c
1283.33 920.33 1247.33 930 1206 930 c
1131.33 930 1069.33 905.17 1020 855.5 c
970.67 805.83 946 726.33 946 617 c
946 0 946 617 946 0 c
766 0 946 0 766 0 c
766 690 766 0 766 690 c
766 770 751.33 830 722 870 c
692.67 910 644.67 930 578 930 c
527.33 930 480.5 916.67 437.5 890 c
394.5 863.33 363.33 824.33 344 773 c
324.67 721.67 315 647.67 315 551 c
315 0 315 551 315 0 c
135 0 315 0 135 0 c
closepath } bind def
/s110 {
135 0 m
135 1062 135 0 135 1062 c
297 1062 135 1062 297 1062 c
297 911 297 1062 297 911 c
375 1027.67 487.67 1086 635 1086 c
699 1086 757.83 1074.5 811.5 1051.5 c
865.17 1028.5 905.33 998.33 932 961 c
958.67 923.67 977.33 879.33 988 828 c
994.67 794.67 998 736.33 998 653 c
998 0 998 653 998 0 c
818 0 998 0 818 0 c
818 646 818 0 818 646 c
818 719.33 811 774.17 797 810.5 c
783 846.83 758.17 875.83 722.5 897.5 c
686.83 919.17 645 930 597 930 c
520.33 930 454.17 905.67 398.5 857 c
342.83 808.33 315 716 315 580 c
315 0 315 580 315 0 c
135 0 315 0 135 0 c
closepath } bind def
/s111 {
68 531 m
68 727.67 122.67 873.33 232 968 c
323.33 1046.67 434.67 1086 566 1086 c
712 1086 831.33 1038.17 924 942.5 c
1016.67 846.83 1063 714.67 1063 546 c
1063 409.33 1042.5 301.83 1001.5 223.5 c
960.5 145.17 900.83 84.33 822.5 41 c
744.17 -2.33 658.67 -24 566 -24 c
417.33 -24 297.17 23.67 205.5 119 c
113.83 214.33 68 351.67 68 531 c
closepath 253 531 m
253 395 282.67 293.17 342 225.5 c
401.33 157.83 476 124 566 124 c
655.33 124 729.67 158 789 226 c
848.33 294 878 397.67 878 537 c
878 668.33 848.17 767.83 788.5 835.5 c
728.83 903.17 654.67 937 566 937 c
476 937 401.33 903.33 342 836 c
282.67 768.67 253 667 253 531 c
closepath } bind def
/s112 {
135 -407 m
135 1062 135 -407 135 1062 c
299 1062 135 1062 299 1062 c
299 924 299 1062 299 924 c
337.67 978 381.33 1018.5 430 1045.5 c
478.67 1072.5 537.67 1086 607 1086 c
697.67 1086 777.67 1062.67 847 1016 c
916.33 969.33 968.67 903.5 1004 818.5 c
1039.33 733.5 1057 640.33 1057 539 c
1057 430.33 1037.5 332.5 998.5 245.5 c
959.5 158.5 902.83 91.83 828.5 45.5 c
754.17 -0.83 676 -24 594 -24 c
534 -24 480.17 -11.33 432.5 14 c
384.83 39.33 345.67 71.33 315 110 c
315 -407 315 110 315 -407 c
135 -407 315 -407 135 -407 c
closepath 298 525 m
298 388.33 325.67 287.33 381 222 c
436.33 156.67 503.33 124 582 124 c
662 124 730.5 157.83 787.5 225.5 c
844.5 293.17 873 398 873 540 c
873 675.33 845.17 776.67 789.5 844 c
733.83 911.33 667.33 945 590 945 c
513.33 945 445.5 909.17 386.5 837.5 c
327.5 765.83 298 661.67 298 525 c
closepath } bind def
/s114 {
133 0 m
133 1062 133 0 133 1062 c
295 1062 133 1062 295 1062 c
295 901 295 1062 295 901 c
336.33 976.33 374.5 1026 409.5 1050 c
444.5 1074 483 1086 525 1086 c
585.67 1086 647.33 1066.67 710 1028 c
648 861 710 1028 648 861 c
604 887 560 900 516 900 c
476.67 900 441.33 888.17 410 864.5 c
378.67 840.83 356.33 808 343 766 c
323 702 313 632 313 556 c
313 0 313 556 313 0 c
133 0 313 0 133 0 c
closepath } bind def
/s115 {
63 317 m
241 345 63 317 241 345 c
251 273.67 278.83 219 324.5 181 c
370.17 143 434 124 516 124 c
598.67 124 660 140.83 700 174.5 c
740 208.17 760 247.67 760 293 c
760 333.67 742.33 365.67 707 389 c
682.33 405 621 425.33 523 450 c
391 483.33 299.5 512.17 248.5 536.5 c
197.5 560.83 158.83 594.5 132.5 637.5 c
106.17 680.5 93 728 93 780 c
93 827.33 103.83 871.17 125.5 911.5 c
147.17 951.83 176.67 985.33 214 1012 c
242 1032.67 280.17 1050.17 328.5 1064.5 c
376.83 1078.83 428.67 1086 484 1086 c
567.33 1086 640.5 1074 703.5 1050 c
766.5 1026 813 993.5 843 952.5 c
873 911.5 893.67 856.67 905 788 c
729 764 905 788 729 764 c
721 818.67 697.83 861.33 659.5 892 c
621.17 922.67 567 938 497 938 c
414.33 938 355.33 924.33 320 897 c
284.67 869.67 267 837.67 267 801 c
267 777.67 274.33 756.67 289 738 c
303.67 718.67 326.67 702.67 358 690 c
376 683.33 429 668 517 644 c
644.33 610 733.17 582.17 783.5 560.5 c
833.83 538.83 873.33 507.33 902 466 c
930.67 424.67 945 373.33 945 312 c
945 252 927.5 195.5 892.5 142.5 c
857.5 89.5 807 48.5 741 19.5 c
675 -9.5 600.33 -24 517 -24 c
379 -24 273.83 4.67 201.5 62 c
129.17 119.33 83 204.33 63 317 c
closepath } bind def
/s117 {
831 0 m
831 156 831 0 831 156 c
748.33 36 636 -24 494 -24 c
431.33 -24 372.83 -12 318.5 12 c
264.17 36 223.83 66.17 197.5 102.5 c
171.17 138.83 152.67 183.33 142 236 c
134.67 271.33 131 327.33 131 404 c
131 1062 131 404 131 1062 c
311 1062 131 1062 311 1062 c
311 473 311 1062 311 473 c
311 379 314.67 315.67 322 283 c
333.33 235.67 357.33 198.5 394 171.5 c
430.67 144.5 476 131 530 131 c
584 131 634.67 144.83 682 172.5 c
729.33 200.17 762.83 237.83 782.5 285.5 c
802.17 333.17 812 402.33 812 493 c
812 1062 812 493 812 1062 c
992 1062 812 1062 992 1062 c
992 0 992 1062 992 0 c
831 0 992 0 831 0 c
closepath } bind def
/s120 {
15 0 m
403 552 15 0 403 552 c
44 1062 403 552 44 1062 c
269 1062 44 1062 269 1062 c
432 813 269 1062 432 813 c
462.67 765.67 487.33 726 506 694 c
535.33 738 562.33 777 587 811 c
766 1062 587 811 766 1062 c
981 1062 766 1062 981 1062 c
614 562 981 1062 614 562 c
1009 0 614 562 1009 0 c
788 0 1009 0 788 0 c
570 330 788 0 570 330 c
512 419 570 330 512 419 c
233 0 512 419 233 0 c
15 0 233 0 15 0 c
closepath } bind def
/s121 {
127 -409 m
107 -240 127 -409 107 -240 c
146.33 -250.67 180.67 -256 210 -256 c
250 -256 282 -249.33 306 -236 c
330 -222.67 349.67 -204 365 -180 c
376.33 -162 394.67 -117.33 420 -46 c
423.33 -36 428.67 -21.33 436 -2 c
33 1062 436 -2 33 1062 c
227 1062 33 1062 227 1062 c
448 447 227 1062 448 447 c
476.67 369 502.33 287 525 201 c
545.67 283.67 570.33 364.33 599 443 c
826 1062 599 443 826 1062 c
1006 1062 826 1062 1006 1062 c
602 -18 1006 1062 602 -18 c
558.67 -134.67 525 -215 501 -259 c
469 -318.33 432.33 -361.83 391 -389.5 c
349.67 -417.17 300.33 -431 243 -431 c
208.33 -431 169.67 -423.67 127 -409 c
closepath } bind def
end
/BuildGlyph {
 exch dup /Metrics get 2 index get 0 setcharwidth
/CharProcs get exch 2 copy known not{pop/.notdef}if get exec fill}bind def
/BuildChar {
1 index /Encoding get exch get
1 index /BuildGlyph get exec
} bind def
currentdict end /MC1_Arial exch definefont pop
%%EndFont
%%BeginFont: /MC2_Arial
12 dict begin
/FontInfo 8 dict dup begin
/ItalicAngle 0 def
/UnderlinePosition -217.00 def
/UnderlineThickness 150.00 def
/StrikeoutPosition 530.00 def
/StrikeoutThickness 102.00 def
/isFixedPitch false def
end readonly def
/FontName /MC2_Arial def
/FontType 3 def
/FontMatrix [1 2048 div 0 0 1 2048 div 0 0] def
/FontBBox [-1361 -665 4096 2060] def
/Encoding 256 array def 0 1 255{Encoding exch/.notdef put}for
Encoding 32/s32 put
Encoding 67/s67 put
Encoding 71/s71 put
Encoding 78/s78 put
Encoding 97/s97 put
Encoding 100/s100 put
Encoding 101/s101 put
Encoding 104/s104 put
Encoding 105/s105 put
Encoding 108/s108 put
Encoding 109/s109 put
Encoding 111/s111 put
Encoding 114/s114 put
Encoding 118/s118 put
Encoding 122/s122 put
/BoundingBoxes 16 dict def
BoundingBoxes begin
/s32 [0 -434 569 1854] def
/s67 [0 -434 1479 1854] def
/s71 [0 -434 1593 1854] def
/s78 [0 -434 1479 1854] def
/s97 [0 -434 1139 1854] def
/s100 [0 -434 1139 1854] def
/s101 [0 -434 1139 1854] def
/s104 [0 -434 1139 1854] def
/s105 [0 -434 455 1854] def
/s108 [0 -434 455 1854] def
/s109 [0 -434 1706 1854] def
/s111 [0 -434 1139 1854] def
/s114 [0 -434 682 1854] def
/s118 [0 -434 1024 1854] def
/s122 [0 -434 1024 1854] def
end
/Metrics 16 dict def
 Metrics begin
/s32 569 def
/s67 1479 def
/s71 1593 def
/s78 1479 def
/s97 1139 def
/s100 1139 def
/s101 1139 def
/s104 1139 def
/s105 455 def
/s108 455 def
/s109 1706 def
/s111 1139 def
/s114 682 def
/s118 1024 def
/s122 1024 def
end
/CharProcs 16 dict def
CharProcs begin
/.notdef {} def
/s67 {
1204 514 m
1398 465 1204 514 1398 465 c
1357.33 305.67 1284.17 184.17 1178.5 100.5 c
1072.83 16.83 943.67 -25 791 -25 c
633 -25 504.5 7.17 405.5 71.5 c
306.5 135.83 231.17 229 179.5 351 c
127.83 473 102 604 102 744 c
102 896.67 131.17 1029.83 189.5 1143.5 c
247.83 1257.17 330.83 1343.5 438.5 1402.5 c
546.17 1461.5 664.67 1491 794 1491 c
940.67 1491 1064 1453.67 1164 1379 c
1264 1304.33 1333.67 1199.33 1373 1064 c
1182 1019 1373 1064 1182 1019 c
1148 1125.67 1098.67 1203.33 1034 1252 c
969.33 1300.67 888 1325 790 1325 c
677.33 1325 583.17 1298 507.5 1244 c
431.83 1190 378.67 1117.5 348 1026.5 c
317.33 935.5 302 841.67 302 745 c
302 620.33 320.17 511.5 356.5 418.5 c
392.83 325.5 449.33 256 526 210 c
602.67 164 685.67 141 775 141 c
883.67 141 975.67 172.33 1051 235 c
1126.33 297.67 1177.33 390.67 1204 514 c
closepath } bind def
/s71 {
844 575 m
844 747 844 575 844 747 c
1465 748 844 747 1465 748 c
1465 204 1465 748 1465 204 c
1369.67 128 1271.33 70.83 1170 32.5 c
1068.67 -5.83 964.67 -25 858 -25 c
714 -25 583.17 5.83 465.5 67.5 c
347.83 129.17 259 218.33 199 335 c
139 451.67 109 582 109 726 c
109 868.67 138.83 1001.83 198.5 1125.5 c
258.17 1249.17 344 1341 456 1401 c
568 1461 697 1491 843 1491 c
949 1491 1044.83 1473.83 1130.5 1439.5 c
1216.17 1405.17 1283.33 1357.33 1332 1296 c
1380.67 1234.67 1417.67 1154.67 1443 1056 c
1268 1008 1443 1056 1268 1008 c
1246 1082.67 1218.67 1141.33 1186 1184 c
1153.33 1226.67 1106.67 1260.83 1046 1286.5 c
985.33 1312.17 918 1325 844 1325 c
755.33 1325 678.67 1311.5 614 1284.5 c
549.33 1257.5 497.17 1222 457.5 1178 c
417.83 1134 387 1085.67 365 1033 c
327.67 942.33 309 844 309 738 c
309 607.33 331.5 498 376.5 410 c
421.5 322 487 256.67 573 214 c
659 171.33 750.33 150 847 150 c
931 150 1013 166.17 1093 198.5 c
1173 230.83 1233.67 265.33 1275 302 c
1275 575 1275 302 1275 575 c
844 575 1275 575 844 575 c
closepath } bind def
/s78 {
156 0 m
156 1466 156 0 156 1466 c
355 1466 156 1466 355 1466 c
1125 315 355 1466 1125 315 c
1125 1466 1125 315 1125 1466 c
1311 1466 1125 1466 1311 1466 c
1311 0 1311 1466 1311 0 c
1112 0 1311 0 1112 0 c
342 1152 1112 0 342 1152 c
342 0 342 1152 342 0 c
156 0 342 0 156 0 c
closepath } bind def
/s97 {
828 131 m
761.33 74.33 697.17 34.33 635.5 11 c
573.83 -12.33 507.67 -24 437 -24 c
320.33 -24 230.67 4.5 168 61.5 c
105.33 118.5 74 191.33 74 280 c
74 332 85.83 379.5 109.5 422.5 c
133.17 465.5 164.17 500 202.5 526 c
240.83 552 284 571.67 332 585 c
367.33 594.33 420.67 603.33 492 612 c
637.33 629.33 744.33 650 813 674 c
813.67 698.67 814 714.33 814 721 c
814 794.33 797 846 763 876 c
717 916.67 648.67 937 558 937 c
473.33 937 410.83 922.17 370.5 892.5 c
330.17 862.83 300.33 810.33 281 735 c
105 759 281 735 105 759 c
121 834.33 147.33 895.17 184 941.5 c
220.67 987.83 273.67 1023.5 343 1048.5 c
412.33 1073.5 492.67 1086 584 1086 c
674.67 1086 748.33 1075.33 805 1054 c
861.67 1032.67 903.33 1005.83 930 973.5 c
956.67 941.17 975.33 900.33 986 851 c
992 820.33 995 765 995 685 c
995 445 995 685 995 445 c
995 277.67 998.83 171.83 1006.5 127.5 c
1014.17 83.17 1029.33 40.67 1052 0 c
864 0 1052 0 864 0 c
845.33 37.33 833.33 81 828 131 c
closepath 813 533 m
747.67 506.33 649.67 483.67 519 465 c
445 454.33 392.67 442.33 362 429 c
331.33 415.67 307.67 396.17 291 370.5 c
274.33 344.83 266 316.33 266 285 c
266 237 284.17 197 320.5 165 c
356.83 133 410 117 480 117 c
549.33 117 611 132.17 665 162.5 c
719 192.83 758.67 234.33 784 287 c
803.33 327.67 813 387.67 813 467 c
813 533 813 467 813 533 c
closepath } bind def
/s100 {
824 0 m
824 134 824 0 824 134 c
756.67 28.67 657.67 -24 527 -24 c
442.33 -24 364.5 -0.67 293.5 46 c
222.5 92.67 167.5 157.83 128.5 241.5 c
89.5 325.17 70 421.33 70 530 c
70 636 87.67 732.17 123 818.5 c
158.33 904.83 211.33 971 282 1017 c
352.67 1063 431.67 1086 519 1086 c
583 1086 640 1072.5 690 1045.5 c
740 1018.5 780.67 983.33 812 940 c
812 1466 812 940 812 1466 c
991 1466 812 1466 991 1466 c
991 0 991 1466 991 0 c
824 0 991 0 824 0 c
closepath 255 530 m
255 394 283.67 292.33 341 225 c
398.33 157.67 466 124 544 124 c
622.67 124 689.5 156.17 744.5 220.5 c
799.5 284.83 827 383 827 515 c
827 660.33 799 767 743 835 c
687 903 618 937 536 937 c
456 937 389.17 904.33 335.5 839 c
281.83 773.67 255 670.67 255 530 c
closepath } bind def
/s101 {
862 342 m
1048 319 862 342 1048 319 c
1018.67 210.33 964.33 126 885 66 c
805.67 6 704.33 -24 581 -24 c
425.67 -24 302.5 23.83 211.5 119.5 c
120.5 215.17 75 349.33 75 522 c
75 700.67 121 839.33 213 938 c
305 1036.67 424.33 1086 571 1086 c
713 1086 829 1037.67 919 941 c
1009 844.33 1054 708.33 1054 533 c
1054 522.33 1053.67 506.33 1053 485 c
261 485 1053 485 261 485 c
267.67 368.33 300.67 279 360 217 c
419.33 155 493.33 124 582 124 c
648 124 704.33 141.33 751 176 c
797.67 210.67 834.67 266 862 342 c
closepath 271 633 m
864 633 271 633 864 633 c
856 722.33 833.33 789.33 796 834 c
738.67 903.33 664.33 938 573 938 c
490.33 938 420.83 910.33 364.5 855 c
308.17 799.67 277 725.67 271 633 c
closepath } bind def
/s104 {
135 0 m
135 1466 135 0 135 1466 c
315 1466 135 1466 315 1466 c
315 940 315 1466 315 940 c
399 1037.33 505 1086 633 1086 c
711.67 1086 780 1070.5 838 1039.5 c
896 1008.5 937.5 965.67 962.5 911 c
987.5 856.33 1000 777 1000 673 c
1000 0 1000 673 1000 0 c
820 0 1000 0 820 0 c
820 673 820 0 820 673 c
820 763 800.5 828.5 761.5 869.5 c
722.5 910.5 667.33 931 596 931 c
542.67 931 492.5 917.17 445.5 889.5 c
398.5 861.83 365 824.33 345 777 c
325 729.67 315 664.33 315 581 c
315 0 315 581 315 0 c
135 0 315 0 135 0 c
closepath } bind def
/s105 {
136 1259 m
136 1466 136 1259 136 1466 c
316 1466 136 1466 316 1466 c
316 1259 316 1466 316 1259 c
136 1259 316 1259 136 1259 c
closepath 136 0 m
136 1062 136 0 136 1062 c
316 1062 136 1062 316 1062 c
316 0 316 1062 316 0 c
136 0 316 0 136 0 c
closepath } bind def
/s108 {
131 0 m
131 1466 131 0 131 1466 c
311 1466 131 1466 311 1466 c
311 0 311 1466 311 0 c
131 0 311 0 131 0 c
closepath } bind def
/s109 {
135 0 m
135 1062 135 0 135 1062 c
296 1062 135 1062 296 1062 c
296 913 296 1062 296 913 c
329.33 965 373.67 1006.83 429 1038.5 c
484.33 1070.17 547.33 1086 618 1086 c
696.67 1086 761.17 1069.67 811.5 1037 c
861.83 1004.33 897.33 958.67 918 900 c
1002 1024 1111.33 1086 1246 1086 c
1351.33 1086 1432.33 1056.83 1489 998.5 c
1545.67 940.17 1574 850.33 1574 729 c
1574 0 1574 729 1574 0 c
1395 0 1574 0 1395 0 c
1395 669 1395 0 1395 669 c
1395 741 1389.17 792.83 1377.5 824.5 c
1365.83 856.17 1344.67 881.67 1314 901 c
1283.33 920.33 1247.33 930 1206 930 c
1131.33 930 1069.33 905.17 1020 855.5 c
970.67 805.83 946 726.33 946 617 c
946 0 946 617 946 0 c
766 0 946 0 766 0 c
766 690 766 0 766 690 c
766 770 751.33 830 722 870 c
692.67 910 644.67 930 578 930 c
527.33 930 480.5 916.67 437.5 890 c
394.5 863.33 363.33 824.33 344 773 c
324.67 721.67 315 647.67 315 551 c
315 0 315 551 315 0 c
135 0 315 0 135 0 c
closepath } bind def
/s111 {
68 531 m
68 727.67 122.67 873.33 232 968 c
323.33 1046.67 434.67 1086 566 1086 c
712 1086 831.33 1038.17 924 942.5 c
1016.67 846.83 1063 714.67 1063 546 c
1063 409.33 1042.5 301.83 1001.5 223.5 c
960.5 145.17 900.83 84.33 822.5 41 c
744.17 -2.33 658.67 -24 566 -24 c
417.33 -24 297.17 23.67 205.5 119 c
113.83 214.33 68 351.67 68 531 c
closepath 253 531 m
253 395 282.67 293.17 342 225.5 c
401.33 157.83 476 124 566 124 c
655.33 124 729.67 158 789 226 c
848.33 294 878 397.67 878 537 c
878 668.33 848.17 767.83 788.5 835.5 c
728.83 903.17 654.67 937 566 937 c
476 937 401.33 903.33 342 836 c
282.67 768.67 253 667 253 531 c
closepath } bind def
/s114 {
133 0 m
133 1062 133 0 133 1062 c
295 1062 133 1062 295 1062 c
295 901 295 1062 295 901 c
336.33 976.33 374.5 1026 409.5 1050 c
444.5 1074 483 1086 525 1086 c
585.67 1086 647.33 1066.67 710 1028 c
648 861 710 1028 648 861 c
604 887 560 900 516 900 c
476.67 900 441.33 888.17 410 864.5 c
378.67 840.83 356.33 808 343 766 c
323 702 313 632 313 556 c
313 0 313 556 313 0 c
133 0 313 0 133 0 c
closepath } bind def
/s118 {
430 0 m
26 1062 430 0 26 1062 c
216 1062 26 1062 216 1062 c
444 426 216 1062 444 426 c
468.67 357.33 491.33 286 512 212 c
528 268 550.33 335.33 579 414 c
815 1062 579 414 815 1062 c
1000 1062 815 1062 1000 1062 c
598 0 1000 1062 598 0 c
430 0 598 0 430 0 c
closepath } bind def
/s122 {
40 0 m
40 146 40 0 40 146 c
716 922 40 146 716 922 c
639.33 918 571.67 916 513 916 c
80 916 513 916 80 916 c
80 1062 80 916 80 1062 c
948 1062 80 1062 948 1062 c
948 943 948 1062 948 943 c
373 269 948 943 373 269 c
262 146 373 269 262 146 c
342.67 152 418.33 155 489 155 c
980 155 489 155 980 155 c
980 0 980 155 980 0 c
40 0 980 0 40 0 c
closepath } bind def
end
/BuildGlyph {
 exch dup /Metrics get 2 index get 0 setcharwidth
/CharProcs get exch 2 copy known not{pop/.notdef}if get exec fill}bind def
/BuildChar {
1 index /Encoding get exch get
1 index /BuildGlyph get exec
} bind def
currentdict end /MC2_Arial exch definefont pop
%%EndFont
%%BeginFont: /MC3_Arial
12 dict begin
/FontInfo 8 dict dup begin
/ItalicAngle 0 def
/UnderlinePosition -217.00 def
/UnderlineThickness 150.00 def
/StrikeoutPosition 530.00 def
/StrikeoutThickness 102.00 def
/isFixedPitch false def
end readonly def
/FontName /MC3_Arial def
/FontType 3 def
/FontMatrix [1 2048 div 0 0 1 2048 div 0 0] def
/FontBBox [-1361 -665 4096 2060] def
/Encoding 256 array def 0 1 255{Encoding exch/.notdef put}for
Encoding 32/s32 put
Encoding 40/s40 put
Encoding 41/s41 put
Encoding 43/s43 put
Encoding 49/s49 put
Encoding 50/s50 put
Encoding 51/s51 put
Encoding 52/s52 put
Encoding 54/s54 put
Encoding 56/s56 put
Encoding 66/s66 put
Encoding 75/s75 put
Encoding 80/s80 put
Encoding 83/s83 put
/BoundingBoxes 15 dict def
BoundingBoxes begin
/s32 [0 -434 569 1854] def
/s40 [0 -434 682 1854] def
/s41 [0 -434 682 1854] def
/s43 [0 -434 1196 1854] def
/s49 [0 -434 1139 1854] def
/s50 [0 -434 1139 1854] def
/s51 [0 -434 1139 1854] def
/s52 [0 -434 1139 1854] def
/s54 [0 -434 1139 1854] def
/s56 [0 -434 1139 1854] def
/s66 [0 -434 1366 1854] def
/s75 [0 -434 1366 1854] def
/s80 [0 -434 1366 1854] def
/s83 [0 -434 1366 1854] def
end
/Metrics 15 dict def
 Metrics begin
/s32 569 def
/s40 682 def
/s41 682 def
/s43 1196 def
/s49 1139 def
/s50 1139 def
/s51 1139 def
/s52 1139 def
/s54 1139 def
/s56 1139 def
/s66 1366 def
/s75 1366 def
/s80 1366 def
/s83 1366 def
end
/CharProcs 15 dict def
CharProcs begin
/.notdef {} def
/s40 {
479 -431 m
379.67 -305.67 295.67 -159 227 9 c
158.33 177 124 351 124 531 c
124 689.67 149.67 841.67 201 987 c
261 1155.67 353.67 1323.67 479 1491 c
608 1491 479 1491 608 1491 c
527.33 1352.33 474 1253.33 448 1194 c
407.33 1102 375.33 1006 352 906 c
323.33 781.33 309 656 309 530 c
309 209.33 408.67 -111 608 -431 c
479 -431 608 -431 479 -431 c
closepath } bind def
/s41 {
253 -431 m
124 -431 253 -431 124 -431 c
323.33 -111 423 209.33 423 530 c
423 655.33 408.67 779.67 380 903 c
357.33 1003 325.67 1099 285 1191 c
259 1251 205.33 1351 124 1491 c
253 1491 124 1491 253 1491 c
378.33 1323.67 471 1155.67 531 987 c
582.33 841.67 608 689.67 608 531 c
608 351 573.5 177 504.5 9 c
435.5 -159 351.67 -305.67 253 -431 c
closepath } bind def
/s43 {
513 237 m
513 639 513 237 513 639 c
114 639 513 639 114 639 c
114 807 114 639 114 807 c
513 807 114 807 513 807 c
513 1206 513 807 513 1206 c
683 1206 513 1206 683 1206 c
683 807 683 1206 683 807 c
1082 807 683 807 1082 807 c
1082 639 1082 807 1082 639 c
683 639 1082 639 683 639 c
683 237 683 639 683 237 c
513 237 683 237 513 237 c
closepath } bind def
/s49 {
763 0 m
583 0 763 0 583 0 c
583 1147 583 0 583 1147 c
539.67 1105.67 482.83 1064.33 412.5 1023 c
342.17 981.67 279 950.67 223 930 c
223 1104 223 930 223 1104 c
323.67 1151.33 411.67 1208.67 487 1276 c
562.33 1343.33 615.67 1408.67 647 1472 c
763 1472 647 1472 763 1472 c
763 0 763 1472 763 0 c
closepath } bind def
/s50 {
1031 173 m
1031 0 1031 173 1031 0 c
62 0 1031 0 62 0 c
60.67 43.33 67.67 85 83 125 c
107.67 191 147.17 256 201.5 320 c
255.83 384 334.33 458 437 542 c
596.33 672.67 704 776.17 760 852.5 c
816 928.83 844 1001 844 1069 c
844 1140.33 818.5 1200.5 767.5 1249.5 c
716.5 1298.5 650 1323 568 1323 c
481.33 1323 412 1297 360 1245 c
308 1193 281.67 1121 281 1029 c
96 1048 281 1029 96 1048 c
108.67 1186 156.33 1291.17 239 1363.5 c
321.67 1435.83 432.67 1472 572 1472 c
712.67 1472 824 1433 906 1355 c
988 1277 1029 1180.33 1029 1065 c
1029 1006.33 1017 948.67 993 892 c
969 835.33 929.17 775.67 873.5 713 c
817.83 650.33 725.33 564.33 596 455 c
488 364.33 418.67 302.83 388 270.5 c
357.33 238.17 332 205.67 312 173 c
1031 173 312 173 1031 173 c
closepath } bind def
/s51 {
86 387 m
266 411 86 387 266 411 c
286.67 309 321.83 235.5 371.5 190.5 c
421.17 145.5 481.67 123 553 123 c
637.67 123 709.17 152.33 767.5 211 c
825.83 269.67 855 342.33 855 429 c
855 511.67 828 579.83 774 633.5 c
720 687.17 651.33 714 568 714 c
534 714 491.67 707.33 441 694 c
461 852 441 694 461 852 c
473 850.67 482.67 850 490 850 c
566.67 850 635.67 870 697 910 c
758.33 950 789 1011.67 789 1095 c
789 1161 766.67 1215.67 722 1259 c
677.33 1302.33 619.67 1324 549 1324 c
479 1324 420.67 1302 374 1258 c
327.33 1214 297.33 1148 284 1060 c
104 1092 284 1060 104 1092 c
126 1212.67 176 1306.17 254 1372.5 c
332 1438.83 429 1472 545 1472 c
625 1472 698.67 1454.83 766 1420.5 c
833.33 1386.17 884.83 1339.33 920.5 1280 c
956.17 1220.67 974 1157.67 974 1091 c
974 1027.67 957 970 923 918 c
889 866 838.67 824.67 772 794 c
858.67 774 926 732.5 974 669.5 c
1022 606.5 1046 527.67 1046 433 c
1046 305 999.33 196.5 906 107.5 c
812.67 18.5 694.67 -26 552 -26 c
423.33 -26 316.5 12.33 231.5 89 c
146.5 165.67 98 265 86 387 c
closepath } bind def
/s52 {
662 0 m
662 351 662 0 662 351 c
26 351 662 351 26 351 c
26 516 26 351 26 516 c
695 1466 26 516 695 1466 c
842 1466 695 1466 842 1466 c
842 516 842 1466 842 516 c
1040 516 842 516 1040 516 c
1040 351 1040 516 1040 351 c
842 351 1040 351 842 351 c
842 0 842 351 842 0 c
662 0 842 0 662 0 c
closepath 662 516 m
662 1177 662 516 662 1177 c
203 516 662 1177 203 516 c
662 516 203 516 662 516 c
closepath } bind def
/s54 {
1019 1107 m
840 1093 1019 1107 840 1093 c
824 1163.67 801.33 1215 772 1247 c
723.33 1298.33 663.33 1324 592 1324 c
534.67 1324 484.33 1308 441 1276 c
384.33 1234.67 339.67 1174.33 307 1095 c
274.33 1015.67 257.33 902.67 256 756 c
299.33 822 352.33 871 415 903 c
477.67 935 543.33 951 612 951 c
732 951 834.17 906.83 918.5 818.5 c
1002.83 730.17 1045 616 1045 476 c
1045 384 1025.17 298.5 985.5 219.5 c
945.83 140.5 891.33 80 822 38 c
752.67 -4 674 -25 586 -25 c
436 -25 313.67 30.17 219 140.5 c
124.33 250.83 77 432.67 77 686 c
77 969.33 129.33 1175.33 234 1304 c
325.33 1416 448.33 1472 603 1472 c
718.33 1472 812.83 1439.67 886.5 1375 c
960.17 1310.33 1004.33 1221 1019 1107 c
closepath 284 475 m
284 413 297.17 353.67 323.5 297 c
349.83 240.33 386.67 197.17 434 167.5 c
481.33 137.83 531 123 583 123 c
659 123 724.33 153.67 779 215 c
833.67 276.33 861 359.67 861 465 c
861 566.33 834 646.17 780 704.5 c
726 762.83 658 792 576 792 c
494.67 792 425.67 762.83 369 704.5 c
312.33 646.17 284 569.67 284 475 c
closepath } bind def
/s56 {
362 795 m
287.33 822.33 232 861.33 196 912 c
160 962.67 142 1023.33 142 1094 c
142 1200.67 180.33 1290.33 257 1363 c
333.67 1435.67 435.67 1472 563 1472 c
691 1472 794 1434.83 872 1360.5 c
950 1286.17 989 1195.67 989 1089 c
989 1021 971.17 961.83 935.5 911.5 c
899.83 861.17 845.67 822.33 773 795 c
863 765.67 931.5 718.33 978.5 653 c
1025.5 587.67 1049 509.67 1049 419 c
1049 293.67 1004.67 188.33 916 103 c
827.33 17.67 710.67 -25 566 -25 c
421.33 -25 304.67 17.83 216 103.5 c
127.33 189.17 83 296 83 424 c
83 519.33 107.17 599.17 155.5 663.5 c
203.83 727.83 272.67 771.67 362 795 c
closepath 326 1100 m
326 1030.67 348.33 974 393 930 c
437.67 886 495.67 864 567 864 c
636.33 864 693.17 885.83 737.5 929.5 c
781.83 973.17 804 1026.67 804 1090 c
804 1156 781.17 1211.5 735.5 1256.5 c
689.83 1301.5 633 1324 565 1324 c
496.33 1324 439.33 1302 394 1258 c
348.67 1214 326 1161.33 326 1100 c
closepath 268 423 m
268 371.67 280.17 322 304.5 274 c
328.83 226 365 188.83 413 162.5 c
461 136.17 512.67 123 568 123 c
654 123 725 150.67 781 206 c
837 261.33 865 331.67 865 417 c
865 503.67 836.17 575.33 778.5 632 c
720.83 688.67 648.67 717 562 717 c
477.33 717 407.17 689 351.5 633 c
295.83 577 268 507 268 423 c
closepath } bind def
/s66 {
150 0 m
150 1466 150 0 150 1466 c
700 1466 150 1466 700 1466 c
812 1466 901.83 1451.17 969.5 1421.5 c
1037.17 1391.83 1090.17 1346.17 1128.5 1284.5 c
1166.83 1222.83 1186 1158.33 1186 1091 c
1186 1028.33 1169 969.33 1135 914 c
1101 858.67 1049.67 814 981 780 c
1069.67 754 1137.83 709.67 1185.5 647 c
1233.17 584.33 1257 510.33 1257 425 c
1257 356.33 1242.5 292.5 1213.5 233.5 c
1184.5 174.5 1148.67 129 1106 97 c
1063.33 65 1009.83 40.83 945.5 24.5 c
881.17 8.17 802.33 0 709 0 c
150 0 709 0 150 0 c
closepath 344 850 m
661 850 344 850 661 850 c
747 850 808.67 855.67 846 867 c
895.33 881.67 932.5 906 957.5 940 c
982.5 974 995 1016.67 995 1068 c
995 1116.67 983.33 1159.5 960 1196.5 c
936.67 1233.5 903.33 1258.83 860 1272.5 c
816.67 1286.17 742.33 1293 637 1293 c
344 1293 637 1293 344 1293 c
344 850 344 1293 344 850 c
closepath 344 173 m
709 173 344 173 709 173 c
771.67 173 815.67 175.33 841 180 c
885.67 188 923 201.33 953 220 c
983 238.67 1007.67 265.83 1027 301.5 c
1046.33 337.17 1056 378.33 1056 425 c
1056 479.67 1042 527.17 1014 567.5 c
986 607.83 947.17 636.17 897.5 652.5 c
847.83 668.83 776.33 677 683 677 c
344 677 683 677 344 677 c
344 173 344 677 344 173 c
closepath } bind def
/s75 {
150 0 m
150 1466 150 0 150 1466 c
344 1466 150 1466 344 1466 c
344 739 344 1466 344 739 c
1072 1466 344 739 1072 1466 c
1335 1466 1072 1466 1335 1466 c
720 872 1335 1466 720 872 c
1362 0 720 872 1362 0 c
1106 0 1362 0 1106 0 c
584 742 1106 0 584 742 c
344 508 584 742 344 508 c
344 0 344 508 344 0 c
150 0 344 0 150 0 c
closepath } bind def
/s80 {
158 0 m
158 1466 158 0 158 1466 c
711 1466 158 1466 711 1466 c
808.33 1466 882.67 1461.33 934 1452 c
1006 1440 1066.33 1417.17 1115 1383.5 c
1163.67 1349.83 1202.83 1302.67 1232.5 1242 c
1262.17 1181.33 1277 1114.67 1277 1042 c
1277 917.33 1237.33 811.83 1158 725.5 c
1078.67 639.17 935.33 596 728 596 c
352 596 728 596 352 596 c
352 0 352 596 352 0 c
158 0 352 0 158 0 c
closepath 352 769 m
731 769 352 769 731 769 c
856.33 769 945.33 792.33 998 839 c
1050.67 885.67 1077 951.33 1077 1036 c
1077 1097.33 1061.5 1149.83 1030.5 1193.5 c
999.5 1237.17 958.67 1266 908 1280 c
875.33 1288.67 815 1293 727 1293 c
352 1293 727 1293 352 1293 c
352 769 352 1293 352 769 c
closepath } bind def
/s83 {
92 471 m
275 487 92 471 275 487 c
283.67 413.67 303.83 353.5 335.5 306.5 c
367.17 259.5 416.33 221.5 483 192.5 c
549.67 163.5 624.67 149 708 149 c
782 149 847.33 160 904 182 c
960.67 204 1002.83 234.17 1030.5 272.5 c
1058.17 310.83 1072 352.67 1072 398 c
1072 444 1058.67 484.17 1032 518.5 c
1005.33 552.83 961.33 581.67 900 605 c
860.67 620.33 773.67 644.17 639 676.5 c
504.33 708.83 410 739.33 356 768 c
286 804.67 233.83 850.17 199.5 904.5 c
165.17 958.83 148 1019.67 148 1087 c
148 1161 169 1230.17 211 1294.5 c
253 1358.83 314.33 1407.67 395 1441 c
475.67 1474.33 565.33 1491 664 1491 c
772.67 1491 868.5 1473.5 951.5 1438.5 c
1034.5 1403.5 1098.33 1352 1143 1284 c
1187.67 1216 1211.67 1139 1215 1053 c
1029 1039 1215 1053 1029 1039 c
1019 1131.67 985.17 1201.67 927.5 1249 c
869.83 1296.33 784.67 1320 672 1320 c
554.67 1320 469.17 1298.5 415.5 1255.5 c
361.83 1212.5 335 1160.67 335 1100 c
335 1047.33 354 1004 392 970 c
429.33 936 526.83 901.17 684.5 865.5 c
842.17 829.83 950.33 798.67 1009 772 c
1094.33 732.67 1157.33 682.83 1198 622.5 c
1238.67 562.17 1259 492.67 1259 414 c
1259 336 1236.67 262.5 1192 193.5 c
1147.33 124.5 1083.17 70.83 999.5 32.5 c
915.83 -5.83 821.67 -25 717 -25 c
584.33 -25 473.17 -5.67 383.5 33 c
293.83 71.67 223.5 129.83 172.5 207.5 c
121.5 285.17 94.67 373 92 471 c
closepath } bind def
end
/BuildGlyph {
 exch dup /Metrics get 2 index get 0 setcharwidth
/CharProcs get exch 2 copy known not{pop/.notdef}if get exec fill}bind def
/BuildChar {
1 index /Encoding get exch get
1 index /BuildGlyph get exec
} bind def
currentdict end /MC3_Arial exch definefont pop
%%EndFont
/clipproc{clippath{[{/m cvx}{/l cvx}{/c cvx}{/cp cvx}pathforall}stopped
{cleartomark[pathbbox exch 3 i sub exch 2 i sub/rectpath cvx}if]np}bd
/iclmtx mtx cmtx def/iclpath clipproc xd/clinit{pathproc initclip np iclpath cl np exec}bd
/clmove{pathproc 3 1 roll clippath pathproc 2 i neg 2 i neg tr initclip np exec cl tr np exec}bd
/clrect[gs np iclpath{pathbbox}stopped{0 0 1800 720 }if gr]def
/cloper{mtx cmtx iclmtx smtx exch exec smtx}bd
/cland{{exch cvx exec}cloper}bd
/clcopy{{exch clinit cvx exec}cloper}bd
/cldiff{{exch pathbbox 4 -1 roll clrect 0 get 2 copy gt{exch}if pop 4 1 roll
 3 -1 roll clrect 1 get 2 copy gt{exch}if pop 3 1 roll
 2 -1 roll clrect 2 get 2 copy lt{exch}if pop 2 1 roll
 1 -1 roll clrect 3 get 2 copy lt{exch}if pop 1 1 roll
 exch 3 i sub exch 2 i sub rectpath cvx exec}cloper}bd
/icl{{clinit}cloper}bd
0.239948 0.239942 sc

/initmtx mtx cmtx def
[1.00022 -0 0 -1.00025 0 3000.73] concat
gs
1265 2793 m
1265 475 l
2 sw
1 sj
1 scap
st
1951 2793 m
1951 475 l
st
2636 2793 m
2636 475 l
st
3322 2793 m
3322 475 l
st
4008 2793 m
4008 475 l
st
4694 2793 m
4694 475 l
st
5380 2793 m
5380 475 l
st
6065 2793 m
6065 475 l
st
6751 2793 m
6751 475 l
st
579 2561 m
7437 2561 l
3 sw
0.502 0.502 0.502 rgb
st
579 2329 m
7437 2329 l
st
579 2098 m
7437 2098 l
st
579 1866 m
7437 1866 l
st
579 1634 m
7437 1634 l
st
579 1402 m
7437 1402 l
st
579 1170 m
7437 1170 l
st
579 939 m
7437 939 l
st
579 707 m
7437 707 l
st
gs
pathproc 579 475 6859 2319 np rectpath
/eocl cland
np exec
648 478 m
716 478 l
716 2793 l
648 2793 l
cp
gs
0 0 0 rgb
eofi
gr
5 sw
0 0 0 rgb
st
648 478 m
716 478 l
st
716 478 m
716 2793 l
st
648 2793 m
648 478 l
st
1333 2144 m
1402 2144 l
1402 2793 l
1333 2793 l
cp
gs
eofi
gr
st
1333 2144 m
1402 2144 l
st
1402 2144 m
1402 2793 l
st
1333 2793 m
1333 2144 l
st
2019 961 m
2088 961 l
2088 2793 l
2019 2793 l
cp
gs
eofi
gr
st
2019 961 m
2088 961 l
st
2088 961 m
2088 2793 l
st
2019 2793 m
2019 961 l
st
2705 1029 m
2774 1029 l
2774 2793 l
2705 2793 l
cp
gs
eofi
gr
st
2705 1029 m
2774 1029 l
st
2774 1029 m
2774 2793 l
st
2705 2793 m
2705 1029 l
st
3391 807 m
3459 807 l
3459 2793 l
3391 2793 l
cp
gs
eofi
gr
st
3391 807 m
3459 807 l
st
3459 807 m
3459 2793 l
st
3391 2793 m
3391 807 l
st
4077 1891 m
4145 1891 l
4145 2793 l
4077 2793 l
cp
gs
eofi
gr
st
4077 1891 m
4145 1891 l
st
4145 1891 m
4145 2793 l
st
4077 2793 m
4077 1891 l
st
4762 1813 m
4831 1813 l
4831 2793 l
4762 2793 l
cp
gs
eofi
gr
st
4762 1813 m
4831 1813 l
st
4831 1813 m
4831 2793 l
st
4762 2793 m
4762 1813 l
st
5448 830 m
5517 830 l
5517 2793 l
5448 2793 l
cp
gs
eofi
gr
st
5448 830 m
5517 830 l
st
5517 830 m
5517 2793 l
st
5448 2793 m
5448 830 l
st
6134 778 m
6203 778 l
6203 2793 l
6134 2793 l
cp
gs
eofi
gr
st
6134 778 m
6203 778 l
st
6203 778 m
6203 2793 l
st
6134 2793 m
6134 778 l
st
6820 1347 m
6888 1347 l
6888 2793 l
6820 2793 l
cp
gs
eofi
gr
st
6820 1347 m
6888 1347 l
st
6888 1347 m
6888 2793 l
st
6820 2793 m
6820 1347 l
st
gr
gs
pathproc 579 475 6859 2319 np rectpath
/eocl cland
np exec
716 508 m
785 508 l
785 2793 l
716 2793 l
cp
gs
1 1 1 rgb
eofi
gr
5 sw
1 1 1 rgb
st
717 509 m
784 576 l
3 sw
0 0 0 rgb
st
717 541 m
784 608 l
st
717 573 m
784 640 l
st
717 605 m
784 672 l
st
717 637 m
784 704 l
st
717 669 m
784 736 l
st
717 701 m
784 768 l
st
717 733 m
784 800 l
st
717 765 m
784 832 l
st
717 797 m
784 864 l
st
717 829 m
784 896 l
st
717 861 m
784 928 l
st
717 893 m
784 960 l
st
717 925 m
784 992 l
st
717 957 m
784 1024 l
st
717 989 m
784 1056 l
st
717 1021 m
784 1088 l
st
717 1053 m
784 1120 l
st
717 1085 m
784 1152 l
st
717 1117 m
784 1184 l
st
717 1149 m
784 1216 l
st
717 1181 m
784 1248 l
st
717 1213 m
784 1280 l
st
717 1245 m
784 1312 l
st
717 1277 m
784 1344 l
st
717 1309 m
784 1376 l
st
717 1341 m
784 1408 l
st
717 1373 m
784 1440 l
st
717 1405 m
784 1472 l
st
717 1437 m
784 1504 l
st
717 1469 m
784 1536 l
st
717 1501 m
784 1568 l
st
717 1533 m
784 1600 l
st
717 1565 m
784 1632 l
st
717 1597 m
784 1664 l
st
717 1629 m
784 1696 l
st
717 1661 m
784 1728 l
st
717 1693 m
784 1760 l
st
717 1725 m
784 1792 l
st
717 1757 m
784 1824 l
st
717 1789 m
784 1856 l
st
717 1821 m
784 1888 l
st
717 1853 m
784 1920 l
st
717 1885 m
784 1952 l
st
717 1917 m
784 1984 l
st
717 1949 m
784 2016 l
st
717 1981 m
784 2048 l
st
717 2013 m
784 2080 l
st
717 2045 m
784 2112 l
st
717 2077 m
784 2144 l
st
717 2109 m
784 2176 l
st
717 2141 m
784 2208 l
st
717 2173 m
784 2240 l
st
717 2205 m
784 2272 l
st
717 2237 m
784 2304 l
st
717 2269 m
784 2336 l
st
717 2301 m
784 2368 l
st
717 2333 m
784 2400 l
st
717 2365 m
784 2432 l
st
717 2397 m
784 2464 l
st
717 2429 m
784 2496 l
st
717 2461 m
784 2528 l
st
717 2493 m
784 2560 l
st
717 2525 m
784 2592 l
st
717 2557 m
784 2624 l
st
717 2589 m
784 2656 l
st
717 2621 m
784 2688 l
st
717 2653 m
784 2720 l
st
717 2685 m
784 2752 l
st
717 2717 m
784 2784 l
st
717 2749 m
760 2792 l
st
717 2781 m
728 2792 l
st
717 509 m
784 576 l
st
749 509 m
784 544 l
st
781 509 m
784 512 l
st
716 508 m
785 508 l
5 sw
st
785 508 m
785 2793 l
st
716 2793 m
716 508 l
st
1402 2408 m
1471 2408 l
1471 2793 l
1402 2793 l
cp
gs
1 1 1 rgb
eofi
gr
1 1 1 rgb
st
1403 2409 m
1470 2476 l
3 sw
0 0 0 rgb
st
1403 2441 m
1470 2508 l
st
1403 2473 m
1470 2540 l
st
1403 2505 m
1470 2572 l
st
1403 2537 m
1470 2604 l
st
1403 2569 m
1470 2636 l
st
1403 2601 m
1470 2668 l
st
1403 2633 m
1470 2700 l
st
1403 2665 m
1470 2732 l
st
1403 2697 m
1470 2764 l
st
1403 2729 m
1466 2792 l
st
1403 2761 m
1434 2792 l
st
1403 2409 m
1470 2476 l
st
1435 2409 m
1470 2444 l
st
1467 2409 m
1470 2412 l
st
1402 2408 m
1471 2408 l
5 sw
st
1471 2408 m
1471 2793 l
st
1402 2793 m
1402 2408 l
st
2088 1074 m
2156 1074 l
2156 2793 l
2088 2793 l
cp
gs
1 1 1 rgb
eofi
gr
1 1 1 rgb
st
2089 1075 m
2155 1141 l
3 sw
0 0 0 rgb
st
2089 1107 m
2155 1173 l
st
2089 1139 m
2155 1205 l
st
2089 1171 m
2155 1237 l
st
2089 1203 m
2155 1269 l
st
2089 1235 m
2155 1301 l
st
2089 1267 m
2155 1333 l
st
2089 1299 m
2155 1365 l
st
2089 1331 m
2155 1397 l
st
2089 1363 m
2155 1429 l
st
2089 1395 m
2155 1461 l
st
2089 1427 m
2155 1493 l
st
2089 1459 m
2155 1525 l
st
2089 1491 m
2155 1557 l
st
2089 1523 m
2155 1589 l
st
2089 1555 m
2155 1621 l
st
2089 1587 m
2155 1653 l
st
2089 1619 m
2155 1685 l
st
2089 1651 m
2155 1717 l
st
2089 1683 m
2155 1749 l
st
2089 1715 m
2155 1781 l
st
2089 1747 m
2155 1813 l
st
2089 1779 m
2155 1845 l
st
2089 1811 m
2155 1877 l
st
2089 1843 m
2155 1909 l
st
2089 1875 m
2155 1941 l
st
2089 1907 m
2155 1973 l
st
2089 1939 m
2155 2005 l
st
2089 1971 m
2155 2037 l
st
2089 2003 m
2155 2069 l
st
2089 2035 m
2155 2101 l
st
2089 2067 m
2155 2133 l
st
2089 2099 m
2155 2165 l
st
2089 2131 m
2155 2197 l
st
2089 2163 m
2155 2229 l
st
2089 2195 m
2155 2261 l
st
2089 2227 m
2155 2293 l
st
2089 2259 m
2155 2325 l
st
2089 2291 m
2155 2357 l
st
2089 2323 m
2155 2389 l
st
2089 2355 m
2155 2421 l
st
2089 2387 m
2155 2453 l
st
2089 2419 m
2155 2485 l
st
2089 2451 m
2155 2517 l
st
2089 2483 m
2155 2549 l
st
2089 2515 m
2155 2581 l
st
2089 2547 m
2155 2613 l
st
2089 2579 m
2155 2645 l
st
2089 2611 m
2155 2677 l
st
2089 2643 m
2155 2709 l
st
2089 2675 m
2155 2741 l
st
2089 2707 m
2155 2773 l
st
2089 2739 m
2142 2792 l
st
2089 2771 m
2110 2792 l
st
2089 1075 m
2155 1141 l
st
2121 1075 m
2155 1109 l
st
2153 1075 m
2155 1077 l
st
2088 1074 m
2156 1074 l
5 sw
st
2156 1074 m
2156 2793 l
st
2088 2793 m
2088 1074 l
st
2774 1285 m
2842 1285 l
2842 2793 l
2774 2793 l
cp
gs
1 1 1 rgb
eofi
gr
1 1 1 rgb
st
2775 1286 m
2841 1352 l
3 sw
0 0 0 rgb
st
2775 1318 m
2841 1384 l
st
2775 1350 m
2841 1416 l
st
2775 1382 m
2841 1448 l
st
2775 1414 m
2841 1480 l
st
2775 1446 m
2841 1512 l
st
2775 1478 m
2841 1544 l
st
2775 1510 m
2841 1576 l
st
2775 1542 m
2841 1608 l
st
2775 1574 m
2841 1640 l
st
2775 1606 m
2841 1672 l
st
2775 1638 m
2841 1704 l
st
2775 1670 m
2841 1736 l
st
2775 1702 m
2841 1768 l
st
2775 1734 m
2841 1800 l
st
2775 1766 m
2841 1832 l
st
2775 1798 m
2841 1864 l
st
2775 1830 m
2841 1896 l
st
2775 1862 m
2841 1928 l
st
2775 1894 m
2841 1960 l
st
2775 1926 m
2841 1992 l
st
2775 1958 m
2841 2024 l
st
2775 1990 m
2841 2056 l
st
2775 2022 m
2841 2088 l
st
2775 2054 m
2841 2120 l
st
2775 2086 m
2841 2152 l
st
2775 2118 m
2841 2184 l
st
2775 2150 m
2841 2216 l
st
2775 2182 m
2841 2248 l
st
2775 2214 m
2841 2280 l
st
2775 2246 m
2841 2312 l
st
2775 2278 m
2841 2344 l
st
2775 2310 m
2841 2376 l
st
2775 2342 m
2841 2408 l
st
2775 2374 m
2841 2440 l
st
2775 2406 m
2841 2472 l
st
2775 2438 m
2841 2504 l
st
2775 2470 m
2841 2536 l
st
2775 2502 m
2841 2568 l
st
2775 2534 m
2841 2600 l
st
2775 2566 m
2841 2632 l
st
2775 2598 m
2841 2664 l
st
2775 2630 m
2841 2696 l
st
2775 2662 m
2841 2728 l
st
2775 2694 m
2841 2760 l
st
2775 2726 m
2841 2792 l
st
2775 2758 m
2809 2792 l
st
2775 2790 m
2777 2792 l
st
2775 1286 m
2841 1352 l
st
2807 1286 m
2841 1320 l
st
2839 1286 m
2841 1288 l
st
2774 1285 m
2842 1285 l
5 sw
st
2842 1285 m
2842 2793 l
st
2774 2793 m
2774 1285 l
st
3459 980 m
3528 980 l
3528 2793 l
3459 2793 l
cp
gs
1 1 1 rgb
eofi
gr
1 1 1 rgb
st
3460 981 m
3527 1048 l
3 sw
0 0 0 rgb
st
3460 1013 m
3527 1080 l
st
3460 1045 m
3527 1112 l
st
3460 1077 m
3527 1144 l
st
3460 1109 m
3527 1176 l
st
3460 1141 m
3527 1208 l
st
3460 1173 m
3527 1240 l
st
3460 1205 m
3527 1272 l
st
3460 1237 m
3527 1304 l
st
3460 1269 m
3527 1336 l
st
3460 1301 m
3527 1368 l
st
3460 1333 m
3527 1400 l
st
3460 1365 m
3527 1432 l
st
3460 1397 m
3527 1464 l
st
3460 1429 m
3527 1496 l
st
3460 1461 m
3527 1528 l
st
3460 1493 m
3527 1560 l
st
3460 1525 m
3527 1592 l
st
3460 1557 m
3527 1624 l
st
3460 1589 m
3527 1656 l
st
3460 1621 m
3527 1688 l
st
3460 1653 m
3527 1720 l
st
3460 1685 m
3527 1752 l
st
3460 1717 m
3527 1784 l
st
3460 1749 m
3527 1816 l
st
3460 1781 m
3527 1848 l
st
3460 1813 m
3527 1880 l
st
3460 1845 m
3527 1912 l
st
3460 1877 m
3527 1944 l
st
3460 1909 m
3527 1976 l
st
3460 1941 m
3527 2008 l
st
3460 1973 m
3527 2040 l
st
3460 2005 m
3527 2072 l
st
3460 2037 m
3527 2104 l
st
3460 2069 m
3527 2136 l
st
3460 2101 m
3527 2168 l
st
3460 2133 m
3527 2200 l
st
3460 2165 m
3527 2232 l
st
3460 2197 m
3527 2264 l
st
3460 2229 m
3527 2296 l
st
3460 2261 m
3527 2328 l
st
3460 2293 m
3527 2360 l
st
3460 2325 m
3527 2392 l
st
3460 2357 m
3527 2424 l
st
3460 2389 m
3527 2456 l
st
3460 2421 m
3527 2488 l
st
3460 2453 m
3527 2520 l
st
3460 2485 m
3527 2552 l
st
3460 2517 m
3527 2584 l
st
3460 2549 m
3527 2616 l
st
3460 2581 m
3527 2648 l
st
3460 2613 m
3527 2680 l
st
3460 2645 m
3527 2712 l
st
3460 2677 m
3527 2744 l
st
3460 2709 m
3527 2776 l
st
3460 2741 m
3511 2792 l
st
3460 2773 m
3479 2792 l
st
3460 981 m
3527 1048 l
st
3492 981 m
3527 1016 l
st
3524 981 m
3527 984 l
st
3459 980 m
3528 980 l
5 sw
st
3528 980 m
3528 2793 l
st
3459 2793 m
3459 980 l
st
4145 1932 m
4214 1932 l
4214 2793 l
4145 2793 l
cp
gs
1 1 1 rgb
eofi
gr
1 1 1 rgb
st
4146 1933 m
4213 2000 l
3 sw
0 0 0 rgb
st
4146 1965 m
4213 2032 l
st
4146 1997 m
4213 2064 l
st
4146 2029 m
4213 2096 l
st
4146 2061 m
4213 2128 l
st
4146 2093 m
4213 2160 l
st
4146 2125 m
4213 2192 l
st
4146 2157 m
4213 2224 l
st
4146 2189 m
4213 2256 l
st
4146 2221 m
4213 2288 l
st
4146 2253 m
4213 2320 l
st
4146 2285 m
4213 2352 l
st
4146 2317 m
4213 2384 l
st
4146 2349 m
4213 2416 l
st
4146 2381 m
4213 2448 l
st
4146 2413 m
4213 2480 l
st
4146 2445 m
4213 2512 l
st
4146 2477 m
4213 2544 l
st
4146 2509 m
4213 2576 l
st
4146 2541 m
4213 2608 l
st
4146 2573 m
4213 2640 l
st
4146 2605 m
4213 2672 l
st
4146 2637 m
4213 2704 l
st
4146 2669 m
4213 2736 l
st
4146 2701 m
4213 2768 l
st
4146 2733 m
4205 2792 l
st
4146 2765 m
4173 2792 l
st
4146 1933 m
4213 2000 l
st
4178 1933 m
4213 1968 l
st
4210 1933 m
4213 1936 l
st
4145 1932 m
4214 1932 l
5 sw
st
4214 1932 m
4214 2793 l
st
4145 2793 m
4145 1932 l
st
4831 1927 m
4900 1927 l
4900 2793 l
4831 2793 l
cp
gs
1 1 1 rgb
eofi
gr
1 1 1 rgb
st
4832 1928 m
4899 1995 l
3 sw
0 0 0 rgb
st
4832 1960 m
4899 2027 l
st
4832 1992 m
4899 2059 l
st
4832 2024 m
4899 2091 l
st
4832 2056 m
4899 2123 l
st
4832 2088 m
4899 2155 l
st
4832 2120 m
4899 2187 l
st
4832 2152 m
4899 2219 l
st
4832 2184 m
4899 2251 l
st
4832 2216 m
4899 2283 l
st
4832 2248 m
4899 2315 l
st
4832 2280 m
4899 2347 l
st
4832 2312 m
4899 2379 l
st
4832 2344 m
4899 2411 l
st
4832 2376 m
4899 2443 l
st
4832 2408 m
4899 2475 l
st
4832 2440 m
4899 2507 l
st
4832 2472 m
4899 2539 l
st
4832 2504 m
4899 2571 l
st
4832 2536 m
4899 2603 l
st
4832 2568 m
4899 2635 l
st
4832 2600 m
4899 2667 l
st
4832 2632 m
4899 2699 l
st
4832 2664 m
4899 2731 l
st
4832 2696 m
4899 2763 l
st
4832 2728 m
4896 2792 l
st
4832 2760 m
4864 2792 l
st
4832 1928 m
4899 1995 l
st
4864 1928 m
4899 1963 l
st
4896 1928 m
4899 1931 l
st
4831 1927 m
4900 1927 l
5 sw
st
4900 1927 m
4900 2793 l
st
4831 2793 m
4831 1927 l
st
5517 1226 m
5585 1226 l
5585 2793 l
5517 2793 l
cp
gs
1 1 1 rgb
eofi
gr
1 1 1 rgb
st
5518 1227 m
5584 1293 l
3 sw
0 0 0 rgb
st
5518 1259 m
5584 1325 l
st
5518 1291 m
5584 1357 l
st
5518 1323 m
5584 1389 l
st
5518 1355 m
5584 1421 l
st
5518 1387 m
5584 1453 l
st
5518 1419 m
5584 1485 l
st
5518 1451 m
5584 1517 l
st
5518 1483 m
5584 1549 l
st
5518 1515 m
5584 1581 l
st
5518 1547 m
5584 1613 l
st
5518 1579 m
5584 1645 l
st
5518 1611 m
5584 1677 l
st
5518 1643 m
5584 1709 l
st
5518 1675 m
5584 1741 l
st
5518 1707 m
5584 1773 l
st
5518 1739 m
5584 1805 l
st
5518 1771 m
5584 1837 l
st
5518 1803 m
5584 1869 l
st
5518 1835 m
5584 1901 l
st
5518 1867 m
5584 1933 l
st
5518 1899 m
5584 1965 l
st
5518 1931 m
5584 1997 l
st
5518 1963 m
5584 2029 l
st
5518 1995 m
5584 2061 l
st
5518 2027 m
5584 2093 l
st
5518 2059 m
5584 2125 l
st
5518 2091 m
5584 2157 l
st
5518 2123 m
5584 2189 l
st
5518 2155 m
5584 2221 l
st
5518 2187 m
5584 2253 l
st
5518 2219 m
5584 2285 l
st
5518 2251 m
5584 2317 l
st
5518 2283 m
5584 2349 l
st
5518 2315 m
5584 2381 l
st
5518 2347 m
5584 2413 l
st
5518 2379 m
5584 2445 l
st
5518 2411 m
5584 2477 l
st
5518 2443 m
5584 2509 l
st
5518 2475 m
5584 2541 l
st
5518 2507 m
5584 2573 l
st
5518 2539 m
5584 2605 l
st
5518 2571 m
5584 2637 l
st
5518 2603 m
5584 2669 l
st
5518 2635 m
5584 2701 l
st
5518 2667 m
5584 2733 l
st
5518 2699 m
5584 2765 l
st
5518 2731 m
5579 2792 l
st
5518 2763 m
5547 2792 l
st
5518 1227 m
5584 1293 l
st
5550 1227 m
5584 1261 l
st
5582 1227 m
5584 1229 l
st
5517 1226 m
5585 1226 l
5 sw
st
5585 1226 m
5585 2793 l
st
5517 2793 m
5517 1226 l
st
6203 824 m
6271 824 l
6271 2793 l
6203 2793 l
cp
gs
1 1 1 rgb
eofi
gr
1 1 1 rgb
st
6204 825 m
6270 891 l
3 sw
0 0 0 rgb
st
6204 857 m
6270 923 l
st
6204 889 m
6270 955 l
st
6204 921 m
6270 987 l
st
6204 953 m
6270 1019 l
st
6204 985 m
6270 1051 l
st
6204 1017 m
6270 1083 l
st
6204 1049 m
6270 1115 l
st
6204 1081 m
6270 1147 l
st
6204 1113 m
6270 1179 l
st
6204 1145 m
6270 1211 l
st
6204 1177 m
6270 1243 l
st
6204 1209 m
6270 1275 l
st
6204 1241 m
6270 1307 l
st
6204 1273 m
6270 1339 l
st
6204 1305 m
6270 1371 l
st
6204 1337 m
6270 1403 l
st
6204 1369 m
6270 1435 l
st
6204 1401 m
6270 1467 l
st
6204 1433 m
6270 1499 l
st
6204 1465 m
6270 1531 l
st
6204 1497 m
6270 1563 l
st
6204 1529 m
6270 1595 l
st
6204 1561 m
6270 1627 l
st
6204 1593 m
6270 1659 l
st
6204 1625 m
6270 1691 l
st
6204 1657 m
6270 1723 l
st
6204 1689 m
6270 1755 l
st
6204 1721 m
6270 1787 l
st
6204 1753 m
6270 1819 l
st
6204 1785 m
6270 1851 l
st
6204 1817 m
6270 1883 l
st
6204 1849 m
6270 1915 l
st
6204 1881 m
6270 1947 l
st
6204 1913 m
6270 1979 l
st
6204 1945 m
6270 2011 l
st
6204 1977 m
6270 2043 l
st
6204 2009 m
6270 2075 l
st
6204 2041 m
6270 2107 l
st
6204 2073 m
6270 2139 l
st
6204 2105 m
6270 2171 l
st
6204 2137 m
6270 2203 l
st
6204 2169 m
6270 2235 l
st
6204 2201 m
6270 2267 l
st
6204 2233 m
6270 2299 l
st
6204 2265 m
6270 2331 l
st
6204 2297 m
6270 2363 l
st
6204 2329 m
6270 2395 l
st
6204 2361 m
6270 2427 l
st
6204 2393 m
6270 2459 l
st
6204 2425 m
6270 2491 l
st
6204 2457 m
6270 2523 l
st
6204 2489 m
6270 2555 l
st
6204 2521 m
6270 2587 l
st
6204 2553 m
6270 2619 l
st
6204 2585 m
6270 2651 l
st
6204 2617 m
6270 2683 l
st
6204 2649 m
6270 2715 l
st
6204 2681 m
6270 2747 l
st
6204 2713 m
6270 2779 l
st
6204 2745 m
6251 2792 l
st
6204 2777 m
6219 2792 l
st
6204 825 m
6270 891 l
st
6236 825 m
6270 859 l
st
6268 825 m
6270 827 l
st
6203 824 m
6271 824 l
5 sw
st
6271 824 m
6271 2793 l
st
6203 2793 m
6203 824 l
st
6888 1655 m
6957 1655 l
6957 2793 l
6888 2793 l
cp
gs
1 1 1 rgb
eofi
gr
1 1 1 rgb
st
6889 1656 m
6956 1723 l
3 sw
0 0 0 rgb
st
6889 1688 m
6956 1755 l
st
6889 1720 m
6956 1787 l
st
6889 1752 m
6956 1819 l
st
6889 1784 m
6956 1851 l
st
6889 1816 m
6956 1883 l
st
6889 1848 m
6956 1915 l
st
6889 1880 m
6956 1947 l
st
6889 1912 m
6956 1979 l
st
6889 1944 m
6956 2011 l
st
6889 1976 m
6956 2043 l
st
6889 2008 m
6956 2075 l
st
6889 2040 m
6956 2107 l
st
6889 2072 m
6956 2139 l
st
6889 2104 m
6956 2171 l
st
6889 2136 m
6956 2203 l
st
6889 2168 m
6956 2235 l
st
6889 2200 m
6956 2267 l
st
6889 2232 m
6956 2299 l
st
6889 2264 m
6956 2331 l
st
6889 2296 m
6956 2363 l
st
6889 2328 m
6956 2395 l
st
6889 2360 m
6956 2427 l
st
6889 2392 m
6956 2459 l
st
6889 2424 m
6956 2491 l
st
6889 2456 m
6956 2523 l
st
6889 2488 m
6956 2555 l
st
6889 2520 m
6956 2587 l
st
6889 2552 m
6956 2619 l
st
6889 2584 m
6956 2651 l
st
6889 2616 m
6956 2683 l
st
6889 2648 m
6956 2715 l
st
6889 2680 m
6956 2747 l
st
6889 2712 m
6956 2779 l
st
6889 2744 m
6937 2792 l
st
6889 2776 m
6905 2792 l
st
6889 1656 m
6956 1723 l
st
6921 1656 m
6956 1691 l
st
6953 1656 m
6956 1659 l
st
6888 1655 m
6957 1655 l
5 sw
st
6957 1655 m
6957 2793 l
st
6888 2793 m
6888 1655 l
st
gr
gs
pathproc 579 475 6859 2319 np rectpath
/eocl cland
np exec
785 1198 m
853 1198 l
853 2793 l
785 2793 l
cp
gs
1 0 0 rgb
eofi
gr
5 sw
1 0 0 rgb
st
785 1198 m
853 1198 l
0 0 0 rgb
st
853 1198 m
853 2793 l
st
785 2793 m
785 1198 l
st
1471 2491 m
1539 2491 l
1539 2793 l
1471 2793 l
cp
gs
1 0 0 rgb
eofi
gr
1 0 0 rgb
st
1471 2491 m
1539 2491 l
0 0 0 rgb
st
1539 2491 m
1539 2793 l
st
1471 2793 m
1471 2491 l
st
2156 1815 m
2225 1815 l
2225 2793 l
2156 2793 l
cp
gs
1 0 0 rgb
eofi
gr
1 0 0 rgb
st
2156 1815 m
2225 1815 l
0 0 0 rgb
st
2225 1815 m
2225 2793 l
st
2156 2793 m
2156 1815 l
st
2842 1415 m
2911 1415 l
2911 2793 l
2842 2793 l
cp
gs
1 0 0 rgb
eofi
gr
1 0 0 rgb
st
2842 1415 m
2911 1415 l
0 0 0 rgb
st
2911 1415 m
2911 2793 l
st
2842 2793 m
2842 1415 l
st
3528 1171 m
3597 1171 l
3597 2793 l
3528 2793 l
cp
gs
1 0 0 rgb
eofi
gr
1 0 0 rgb
st
3528 1171 m
3597 1171 l
0 0 0 rgb
st
3597 1171 m
3597 2793 l
st
3528 2793 m
3528 1171 l
st
4214 2307 m
4282 2307 l
4282 2793 l
4214 2793 l
cp
gs
1 0 0 rgb
eofi
gr
1 0 0 rgb
st
4214 2307 m
4282 2307 l
0 0 0 rgb
st
4282 2307 m
4282 2793 l
st
4214 2793 m
4214 2307 l
st
4900 2313 m
4968 2313 l
4968 2793 l
4900 2793 l
cp
gs
1 0 0 rgb
eofi
gr
1 0 0 rgb
st
4900 2313 m
4968 2313 l
0 0 0 rgb
st
4968 2313 m
4968 2793 l
st
4900 2793 m
4900 2313 l
st
5585 1763 m
5654 1763 l
5654 2793 l
5585 2793 l
cp
gs
1 0 0 rgb
eofi
gr
1 0 0 rgb
st
5585 1763 m
5654 1763 l
0 0 0 rgb
st
5654 1763 m
5654 2793 l
st
5585 2793 m
5585 1763 l
st
6271 1664 m
6340 1664 l
6340 2793 l
6271 2793 l
cp
gs
1 0 0 rgb
eofi
gr
1 0 0 rgb
st
6271 1664 m
6340 1664 l
0 0 0 rgb
st
6340 1664 m
6340 2793 l
st
6271 2793 m
6271 1664 l
st
6957 1983 m
7026 1983 l
7026 2793 l
6957 2793 l
cp
gs
1 0 0 rgb
eofi
gr
1 0 0 rgb
st
6957 1983 m
7026 1983 l
0 0 0 rgb
st
7026 1983 m
7026 2793 l
st
6957 2793 m
6957 1983 l
st
gr
gs
pathproc 579 475 6859 2319 np rectpath
/eocl cland
np exec
853 1345 m
922 1345 l
922 2793 l
853 2793 l
cp
gs
1 1 1 rgb
eofi
gr
5 sw
1 1 1 rgb
st
854 1346 m
854 1346 l
3 sw
0 0 0 rgb
st
854 1395 m
903 1346 l
st
854 1444 m
921 1377 l
st
854 1493 m
921 1426 l
st
854 1542 m
921 1475 l
st
854 1591 m
921 1524 l
st
854 1640 m
921 1573 l
st
854 1689 m
921 1622 l
st
854 1738 m
921 1671 l
st
854 1787 m
921 1720 l
st
854 1836 m
921 1769 l
st
854 1885 m
921 1818 l
st
854 1934 m
921 1867 l
st
854 1983 m
921 1916 l
st
854 2032 m
921 1965 l
st
854 2081 m
921 2014 l
st
854 2130 m
921 2063 l
st
854 2179 m
921 2112 l
st
854 2228 m
921 2161 l
st
854 2277 m
921 2210 l
st
854 2326 m
921 2259 l
st
854 2375 m
921 2308 l
st
854 2424 m
921 2357 l
st
854 2473 m
921 2406 l
st
854 2522 m
921 2455 l
st
854 2571 m
921 2504 l
st
854 2620 m
921 2553 l
st
854 2669 m
921 2602 l
st
854 2718 m
921 2651 l
st
854 2767 m
921 2700 l
st
878 2792 m
921 2749 l
st
853 1345 m
922 1345 l
5 sw
st
922 1345 m
922 2793 l
st
853 2793 m
853 1345 l
st
1539 2611 m
1608 2611 l
1608 2793 l
1539 2793 l
cp
gs
1 1 1 rgb
eofi
gr
1 1 1 rgb
st
1540 2612 m
1540 2612 l
3 sw
0 0 0 rgb
st
1540 2661 m
1589 2612 l
st
1540 2710 m
1607 2643 l
st
1540 2759 m
1607 2692 l
st
1556 2792 m
1607 2741 l
st
1605 2792 m
1607 2790 l
st
1539 2611 m
1608 2611 l
5 sw
st
1608 2611 m
1608 2793 l
st
1539 2793 m
1539 2611 l
st
2225 1970 m
2293 1970 l
2293 2793 l
2225 2793 l
cp
gs
1 1 1 rgb
eofi
gr
1 1 1 rgb
st
2226 1971 m
2226 1971 l
3 sw
0 0 0 rgb
st
2226 2020 m
2275 1971 l
st
2226 2069 m
2292 2003 l
st
2226 2118 m
2292 2052 l
st
2226 2167 m
2292 2101 l
st
2226 2216 m
2292 2150 l
st
2226 2265 m
2292 2199 l
st
2226 2314 m
2292 2248 l
st
2226 2363 m
2292 2297 l
st
2226 2412 m
2292 2346 l
st
2226 2461 m
2292 2395 l
st
2226 2510 m
2292 2444 l
st
2226 2559 m
2292 2493 l
st
2226 2608 m
2292 2542 l
st
2226 2657 m
2292 2591 l
st
2226 2706 m
2292 2640 l
st
2226 2755 m
2292 2689 l
st
2238 2792 m
2292 2738 l
st
2287 2792 m
2292 2787 l
st
2225 1970 m
2293 1970 l
5 sw
st
2293 1970 m
2293 2793 l
st
2225 2793 m
2225 1970 l
st
2911 1678 m
2979 1678 l
2979 2793 l
2911 2793 l
cp
gs
1 1 1 rgb
eofi
gr
1 1 1 rgb
st
2912 1679 m
2912 1679 l
3 sw
0 0 0 rgb
st
2912 1728 m
2961 1679 l
st
2912 1777 m
2978 1711 l
st
2912 1826 m
2978 1760 l
st
2912 1875 m
2978 1809 l
st
2912 1924 m
2978 1858 l
st
2912 1973 m
2978 1907 l
st
2912 2022 m
2978 1956 l
st
2912 2071 m
2978 2005 l
st
2912 2120 m
2978 2054 l
st
2912 2169 m
2978 2103 l
st
2912 2218 m
2978 2152 l
st
2912 2267 m
2978 2201 l
st
2912 2316 m
2978 2250 l
st
2912 2365 m
2978 2299 l
st
2912 2414 m
2978 2348 l
st
2912 2463 m
2978 2397 l
st
2912 2512 m
2978 2446 l
st
2912 2561 m
2978 2495 l
st
2912 2610 m
2978 2544 l
st
2912 2659 m
2978 2593 l
st
2912 2708 m
2978 2642 l
st
2912 2757 m
2978 2691 l
st
2926 2792 m
2978 2740 l
st
2975 2792 m
2978 2789 l
st
2911 1678 m
2979 1678 l
5 sw
st
2979 1678 m
2979 2793 l
st
2911 2793 m
2911 1678 l
st
3597 1300 m
3665 1300 l
3665 2793 l
3597 2793 l
cp
gs
1 1 1 rgb
eofi
gr
1 1 1 rgb
st
3598 1301 m
3598 1301 l
3 sw
0 0 0 rgb
st
3598 1350 m
3647 1301 l
st
3598 1399 m
3664 1333 l
st
3598 1448 m
3664 1382 l
st
3598 1497 m
3664 1431 l
st
3598 1546 m
3664 1480 l
st
3598 1595 m
3664 1529 l
st
3598 1644 m
3664 1578 l
st
3598 1693 m
3664 1627 l
st
3598 1742 m
3664 1676 l
st
3598 1791 m
3664 1725 l
st
3598 1840 m
3664 1774 l
st
3598 1889 m
3664 1823 l
st
3598 1938 m
3664 1872 l
st
3598 1987 m
3664 1921 l
st
3598 2036 m
3664 1970 l
st
3598 2085 m
3664 2019 l
st
3598 2134 m
3664 2068 l
st
3598 2183 m
3664 2117 l
st
3598 2232 m
3664 2166 l
st
3598 2281 m
3664 2215 l
st
3598 2330 m
3664 2264 l
st
3598 2379 m
3664 2313 l
st
3598 2428 m
3664 2362 l
st
3598 2477 m
3664 2411 l
st
3598 2526 m
3664 2460 l
st
3598 2575 m
3664 2509 l
st
3598 2624 m
3664 2558 l
st
3598 2673 m
3664 2607 l
st
3598 2722 m
3664 2656 l
st
3598 2771 m
3664 2705 l
st
3626 2792 m
3664 2754 l
st
3597 1300 m
3665 1300 l
5 sw
st
3665 1300 m
3665 2793 l
st
3597 2793 m
3597 1300 l
st
4282 2356 m
4351 2356 l
4351 2793 l
4282 2793 l
cp
gs
1 1 1 rgb
eofi
gr
1 1 1 rgb
st
4283 2357 m
4283 2357 l
3 sw
0 0 0 rgb
st
4283 2406 m
4332 2357 l
st
4283 2455 m
4350 2388 l
st
4283 2504 m
4350 2437 l
st
4283 2553 m
4350 2486 l
st
4283 2602 m
4350 2535 l
st
4283 2651 m
4350 2584 l
st
4283 2700 m
4350 2633 l
st
4283 2749 m
4350 2682 l
st
4289 2792 m
4350 2731 l
st
4338 2792 m
4350 2780 l
st
4282 2356 m
4351 2356 l
5 sw
st
4351 2356 m
4351 2793 l
st
4282 2793 m
4282 2356 l
st
4968 2407 m
5037 2407 l
5037 2793 l
4968 2793 l
cp
gs
1 1 1 rgb
eofi
gr
1 1 1 rgb
st
4969 2408 m
4969 2408 l
3 sw
0 0 0 rgb
st
4969 2457 m
5018 2408 l
st
4969 2506 m
5036 2439 l
st
4969 2555 m
5036 2488 l
st
4969 2604 m
5036 2537 l
st
4969 2653 m
5036 2586 l
st
4969 2702 m
5036 2635 l
st
4969 2751 m
5036 2684 l
st
4977 2792 m
5036 2733 l
st
5026 2792 m
5036 2782 l
st
4968 2407 m
5037 2407 l
5 sw
st
5037 2407 m
5037 2793 l
st
4968 2793 m
4968 2407 l
st
5654 1817 m
5723 1817 l
5723 2793 l
5654 2793 l
cp
gs
1 1 1 rgb
eofi
gr
1 1 1 rgb
st
5655 1818 m
5655 1818 l
3 sw
0 0 0 rgb
st
5655 1867 m
5704 1818 l
st
5655 1916 m
5722 1849 l
st
5655 1965 m
5722 1898 l
st
5655 2014 m
5722 1947 l
st
5655 2063 m
5722 1996 l
st
5655 2112 m
5722 2045 l
st
5655 2161 m
5722 2094 l
st
5655 2210 m
5722 2143 l
st
5655 2259 m
5722 2192 l
st
5655 2308 m
5722 2241 l
st
5655 2357 m
5722 2290 l
st
5655 2406 m
5722 2339 l
st
5655 2455 m
5722 2388 l
st
5655 2504 m
5722 2437 l
st
5655 2553 m
5722 2486 l
st
5655 2602 m
5722 2535 l
st
5655 2651 m
5722 2584 l
st
5655 2700 m
5722 2633 l
st
5655 2749 m
5722 2682 l
st
5661 2792 m
5722 2731 l
st
5710 2792 m
5722 2780 l
st
5654 1817 m
5723 1817 l
5 sw
st
5723 1817 m
5723 2793 l
st
5654 2793 m
5654 1817 l
st
6340 1817 m
6408 1817 l
6408 2793 l
6340 2793 l
cp
gs
1 1 1 rgb
eofi
gr
1 1 1 rgb
st
6341 1818 m
6341 1818 l
3 sw
0 0 0 rgb
st
6341 1867 m
6390 1818 l
st
6341 1916 m
6407 1850 l
st
6341 1965 m
6407 1899 l
st
6341 2014 m
6407 1948 l
st
6341 2063 m
6407 1997 l
st
6341 2112 m
6407 2046 l
st
6341 2161 m
6407 2095 l
st
6341 2210 m
6407 2144 l
st
6341 2259 m
6407 2193 l
st
6341 2308 m
6407 2242 l
st
6341 2357 m
6407 2291 l
st
6341 2406 m
6407 2340 l
st
6341 2455 m
6407 2389 l
st
6341 2504 m
6407 2438 l
st
6341 2553 m
6407 2487 l
st
6341 2602 m
6407 2536 l
st
6341 2651 m
6407 2585 l
st
6341 2700 m
6407 2634 l
st
6341 2749 m
6407 2683 l
st
6347 2792 m
6407 2732 l
st
6396 2792 m
6407 2781 l
st
6340 1817 m
6408 1817 l
5 sw
st
6408 1817 m
6408 2793 l
st
6340 2793 m
6340 1817 l
st
7026 2106 m
7094 2106 l
7094 2793 l
7026 2793 l
cp
gs
1 1 1 rgb
eofi
gr
1 1 1 rgb
st
7027 2107 m
7027 2107 l
3 sw
0 0 0 rgb
st
7027 2156 m
7076 2107 l
st
7027 2205 m
7093 2139 l
st
7027 2254 m
7093 2188 l
st
7027 2303 m
7093 2237 l
st
7027 2352 m
7093 2286 l
st
7027 2401 m
7093 2335 l
st
7027 2450 m
7093 2384 l
st
7027 2499 m
7093 2433 l
st
7027 2548 m
7093 2482 l
st
7027 2597 m
7093 2531 l
st
7027 2646 m
7093 2580 l
st
7027 2695 m
7093 2629 l
st
7027 2744 m
7093 2678 l
st
7028 2792 m
7093 2727 l
st
7077 2792 m
7093 2776 l
st
7026 2106 m
7094 2106 l
5 sw
st
7094 2106 m
7094 2793 l
st
7026 2793 m
7026 2106 l
st
gr
gs
pathproc 579 475 6859 2319 np rectpath
/eocl cland
np exec
922 1800 m
990 1800 l
990 2793 l
922 2793 l
cp
gs
1 1 1 rgb
eofi
gr
5 sw
1 1 1 rgb
st
922 1800 m
990 1800 l
0 0 0 rgb
st
990 1800 m
990 2793 l
st
922 2793 m
922 1800 l
st
1608 2646 m
1676 2646 l
1676 2793 l
1608 2793 l
cp
gs
1 1 1 rgb
eofi
gr
1 1 1 rgb
st
1608 2646 m
1676 2646 l
0 0 0 rgb
st
1676 2646 m
1676 2793 l
st
1608 2793 m
1608 2646 l
st
2293 2249 m
2362 2249 l
2362 2793 l
2293 2793 l
cp
gs
1 1 1 rgb
eofi
gr
1 1 1 rgb
st
2293 2249 m
2362 2249 l
0 0 0 rgb
st
2362 2249 m
2362 2793 l
st
2293 2793 m
2293 2249 l
st
2979 1847 m
3048 1847 l
3048 2793 l
2979 2793 l
cp
gs
1 1 1 rgb
eofi
gr
1 1 1 rgb
st
2979 1847 m
3048 1847 l
0 0 0 rgb
st
3048 1847 m
3048 2793 l
st
2979 2793 m
2979 1847 l
st
3665 1792 m
3734 1792 l
3734 2793 l
3665 2793 l
cp
gs
1 1 1 rgb
eofi
gr
1 1 1 rgb
st
3665 1792 m
3734 1792 l
0 0 0 rgb
st
3734 1792 m
3734 2793 l
st
3665 2793 m
3665 1792 l
st
4351 2545 m
4419 2545 l
4419 2793 l
4351 2793 l
cp
gs
1 1 1 rgb
eofi
gr
1 1 1 rgb
st
4351 2545 m
4419 2545 l
0 0 0 rgb
st
4419 2545 m
4419 2793 l
st
4351 2793 m
4351 2545 l
st
5037 2510 m
5105 2510 l
5105 2793 l
5037 2793 l
cp
gs
1 1 1 rgb
eofi
gr
1 1 1 rgb
st
5037 2510 m
5105 2510 l
0 0 0 rgb
st
5105 2510 m
5105 2793 l
st
5037 2793 m
5037 2510 l
st
5723 2158 m
5791 2158 l
5791 2793 l
5723 2793 l
cp
gs
1 1 1 rgb
eofi
gr
1 1 1 rgb
st
5723 2158 m
5791 2158 l
0 0 0 rgb
st
5791 2158 m
5791 2793 l
st
5723 2793 m
5723 2158 l
st
6408 2144 m
6477 2144 l
6477 2793 l
6408 2793 l
cp
gs
1 1 1 rgb
eofi
gr
1 1 1 rgb
st
6408 2144 m
6477 2144 l
0 0 0 rgb
st
6477 2144 m
6477 2793 l
st
6408 2793 m
6408 2144 l
st
7094 2379 m
7163 2379 l
7163 2793 l
7094 2793 l
cp
gs
1 1 1 rgb
eofi
gr
1 1 1 rgb
st
7094 2379 m
7163 2379 l
0 0 0 rgb
st
7163 2379 m
7163 2793 l
st
7094 2793 m
7094 2379 l
st
gr
gs
pathproc 579 475 6859 2319 np rectpath
/eocl cland
np exec
990 1955 m
1059 1955 l
1059 2793 l
990 2793 l
cp
gs
1 1 1 rgb
eofi
gr
5 sw
1 1 1 rgb
st
991 1956 m
991 1956 l
3 sw
0 0 0 rgb
st
991 2005 m
1040 1956 l
st
991 2054 m
1058 1987 l
st
991 2103 m
1058 2036 l
st
991 2152 m
1058 2085 l
st
991 2201 m
1058 2134 l
st
991 2250 m
1058 2183 l
st
991 2299 m
1058 2232 l
st
991 2348 m
1058 2281 l
st
991 2397 m
1058 2330 l
st
991 2446 m
1058 2379 l
st
991 2495 m
1058 2428 l
st
991 2544 m
1058 2477 l
st
991 2593 m
1058 2526 l
st
991 2642 m
1058 2575 l
st
991 2691 m
1058 2624 l
st
991 2740 m
1058 2673 l
st
991 2789 m
1058 2722 l
st
1037 2792 m
1058 2771 l
st
991 1956 m
1058 2023 l
st
991 2005 m
1058 2072 l
st
991 2054 m
1058 2121 l
st
991 2103 m
1058 2170 l
st
991 2152 m
1058 2219 l
st
991 2201 m
1058 2268 l
st
991 2250 m
1058 2317 l
st
991 2299 m
1058 2366 l
st
991 2348 m
1058 2415 l
st
991 2397 m
1058 2464 l
st
991 2446 m
1058 2513 l
st
991 2495 m
1058 2562 l
st
991 2544 m
1058 2611 l
st
991 2593 m
1058 2660 l
st
991 2642 m
1058 2709 l
st
991 2691 m
1058 2758 l
st
991 2740 m
1043 2792 l
st
991 2789 m
994 2792 l
st
991 1956 m
1058 2023 l
st
1040 1956 m
1058 1974 l
st
990 1955 m
1059 1955 l
5 sw
st
1059 1955 m
1059 2793 l
st
990 2793 m
990 1955 l
st
1676 2715 m
1745 2715 l
1745 2793 l
1676 2793 l
cp
gs
1 1 1 rgb
eofi
gr
1 1 1 rgb
st
1677 2716 m
1677 2716 l
3 sw
0 0 0 rgb
st
1677 2765 m
1726 2716 l
st
1699 2792 m
1744 2747 l
st
1677 2716 m
1744 2783 l
st
1677 2765 m
1704 2792 l
st
1677 2716 m
1744 2783 l
st
1726 2716 m
1744 2734 l
st
1676 2715 m
1745 2715 l
5 sw
st
1745 2715 m
1745 2793 l
st
1676 2793 m
1676 2715 l
st
2362 2361 m
2431 2361 l
2431 2793 l
2362 2793 l
cp
gs
1 1 1 rgb
eofi
gr
1 1 1 rgb
st
2363 2362 m
2363 2362 l
3 sw
0 0 0 rgb
st
2363 2411 m
2412 2362 l
st
2363 2460 m
2430 2393 l
st
2363 2509 m
2430 2442 l
st
2363 2558 m
2430 2491 l
st
2363 2607 m
2430 2540 l
st
2363 2656 m
2430 2589 l
st
2363 2705 m
2430 2638 l
st
2363 2754 m
2430 2687 l
st
2374 2792 m
2430 2736 l
st
2423 2792 m
2430 2785 l
st
2363 2362 m
2430 2429 l
st
2363 2411 m
2430 2478 l
st
2363 2460 m
2430 2527 l
st
2363 2509 m
2430 2576 l
st
2363 2558 m
2430 2625 l
st
2363 2607 m
2430 2674 l
st
2363 2656 m
2430 2723 l
st
2363 2705 m
2430 2772 l
st
2363 2754 m
2401 2792 l
st
2363 2362 m
2430 2429 l
st
2412 2362 m
2430 2380 l
st
2362 2361 m
2431 2361 l
5 sw
st
2431 2361 m
2431 2793 l
st
2362 2793 m
2362 2361 l
st
3048 2053 m
3116 2053 l
3116 2793 l
3048 2793 l
cp
gs
1 1 1 rgb
eofi
gr
1 1 1 rgb
st
3049 2054 m
3049 2054 l
3 sw
0 0 0 rgb
st
3049 2103 m
3098 2054 l
st
3049 2152 m
3115 2086 l
st
3049 2201 m
3115 2135 l
st
3049 2250 m
3115 2184 l
st
3049 2299 m
3115 2233 l
st
3049 2348 m
3115 2282 l
st
3049 2397 m
3115 2331 l
st
3049 2446 m
3115 2380 l
st
3049 2495 m
3115 2429 l
st
3049 2544 m
3115 2478 l
st
3049 2593 m
3115 2527 l
st
3049 2642 m
3115 2576 l
st
3049 2691 m
3115 2625 l
st
3049 2740 m
3115 2674 l
st
3049 2789 m
3115 2723 l
st
3095 2792 m
3115 2772 l
st
3049 2054 m
3115 2120 l
st
3049 2103 m
3115 2169 l
st
3049 2152 m
3115 2218 l
st
3049 2201 m
3115 2267 l
st
3049 2250 m
3115 2316 l
st
3049 2299 m
3115 2365 l
st
3049 2348 m
3115 2414 l
st
3049 2397 m
3115 2463 l
st
3049 2446 m
3115 2512 l
st
3049 2495 m
3115 2561 l
st
3049 2544 m
3115 2610 l
st
3049 2593 m
3115 2659 l
st
3049 2642 m
3115 2708 l
st
3049 2691 m
3115 2757 l
st
3049 2740 m
3101 2792 l
st
3049 2789 m
3052 2792 l
st
3049 2054 m
3115 2120 l
st
3098 2054 m
3115 2071 l
st
3048 2053 m
3116 2053 l
5 sw
st
3116 2053 m
3116 2793 l
st
3048 2793 m
3048 2053 l
st
3734 1840 m
3802 1840 l
3802 2793 l
3734 2793 l
cp
gs
1 1 1 rgb
eofi
gr
1 1 1 rgb
st
3735 1841 m
3735 1841 l
3 sw
0 0 0 rgb
st
3735 1890 m
3784 1841 l
st
3735 1939 m
3801 1873 l
st
3735 1988 m
3801 1922 l
st
3735 2037 m
3801 1971 l
st
3735 2086 m
3801 2020 l
st
3735 2135 m
3801 2069 l
st
3735 2184 m
3801 2118 l
st
3735 2233 m
3801 2167 l
st
3735 2282 m
3801 2216 l
st
3735 2331 m
3801 2265 l
st
3735 2380 m
3801 2314 l
st
3735 2429 m
3801 2363 l
st
3735 2478 m
3801 2412 l
st
3735 2527 m
3801 2461 l
st
3735 2576 m
3801 2510 l
st
3735 2625 m
3801 2559 l
st
3735 2674 m
3801 2608 l
st
3735 2723 m
3801 2657 l
st
3735 2772 m
3801 2706 l
st
3764 2792 m
3801 2755 l
st
3735 1841 m
3801 1907 l
st
3735 1890 m
3801 1956 l
st
3735 1939 m
3801 2005 l
st
3735 1988 m
3801 2054 l
st
3735 2037 m
3801 2103 l
st
3735 2086 m
3801 2152 l
st
3735 2135 m
3801 2201 l
st
3735 2184 m
3801 2250 l
st
3735 2233 m
3801 2299 l
st
3735 2282 m
3801 2348 l
st
3735 2331 m
3801 2397 l
st
3735 2380 m
3801 2446 l
st
3735 2429 m
3801 2495 l
st
3735 2478 m
3801 2544 l
st
3735 2527 m
3801 2593 l
st
3735 2576 m
3801 2642 l
st
3735 2625 m
3801 2691 l
st
3735 2674 m
3801 2740 l
st
3735 2723 m
3801 2789 l
st
3735 2772 m
3755 2792 l
st
3735 1841 m
3801 1907 l
st
3784 1841 m
3801 1858 l
st
3734 1840 m
3802 1840 l
5 sw
st
3802 1840 m
3802 2793 l
st
3734 2793 m
3734 1840 l
st
4419 2569 m
4488 2569 l
4488 2793 l
4419 2793 l
cp
gs
1 1 1 rgb
eofi
gr
1 1 1 rgb
st
4420 2570 m
4420 2570 l
3 sw
0 0 0 rgb
st
4420 2619 m
4469 2570 l
st
4420 2668 m
4487 2601 l
st
4420 2717 m
4487 2650 l
st
4420 2766 m
4487 2699 l
st
4443 2792 m
4487 2748 l
st
4420 2570 m
4487 2637 l
st
4420 2619 m
4487 2686 l
st
4420 2668 m
4487 2735 l
st
4420 2717 m
4487 2784 l
st
4420 2766 m
4446 2792 l
st
4420 2570 m
4487 2637 l
st
4469 2570 m
4487 2588 l
st
4419 2569 m
4488 2569 l
5 sw
st
4488 2569 m
4488 2793 l
st
4419 2793 m
4419 2569 l
st
5105 2587 m
5174 2587 l
5174 2793 l
5105 2793 l
cp
gs
1 1 1 rgb
eofi
gr
1 1 1 rgb
st
5106 2588 m
5106 2588 l
3 sw
0 0 0 rgb
st
5106 2637 m
5155 2588 l
st
5106 2686 m
5173 2619 l
st
5106 2735 m
5173 2668 l
st
5106 2784 m
5173 2717 l
st
5147 2792 m
5173 2766 l
st
5106 2588 m
5173 2655 l
st
5106 2637 m
5173 2704 l
st
5106 2686 m
5173 2753 l
st
5106 2735 m
5163 2792 l
st
5106 2784 m
5114 2792 l
st
5106 2588 m
5173 2655 l
st
5155 2588 m
5173 2606 l
st
5105 2587 m
5174 2587 l
5 sw
st
5174 2587 m
5174 2793 l
st
5105 2793 m
5105 2587 l
st
5791 2255 m
5860 2255 l
5860 2793 l
5791 2793 l
cp
gs
1 1 1 rgb
eofi
gr
1 1 1 rgb
st
5792 2256 m
5792 2256 l
3 sw
0 0 0 rgb
st
5792 2305 m
5841 2256 l
st
5792 2354 m
5859 2287 l
st
5792 2403 m
5859 2336 l
st
5792 2452 m
5859 2385 l
st
5792 2501 m
5859 2434 l
st
5792 2550 m
5859 2483 l
st
5792 2599 m
5859 2532 l
st
5792 2648 m
5859 2581 l
st
5792 2697 m
5859 2630 l
st
5792 2746 m
5859 2679 l
st
5795 2792 m
5859 2728 l
st
5844 2792 m
5859 2777 l
st
5792 2256 m
5859 2323 l
st
5792 2305 m
5859 2372 l
st
5792 2354 m
5859 2421 l
st
5792 2403 m
5859 2470 l
st
5792 2452 m
5859 2519 l
st
5792 2501 m
5859 2568 l
st
5792 2550 m
5859 2617 l
st
5792 2599 m
5859 2666 l
st
5792 2648 m
5859 2715 l
st
5792 2697 m
5859 2764 l
st
5792 2746 m
5838 2792 l
st
5792 2256 m
5859 2323 l
st
5841 2256 m
5859 2274 l
st
5791 2255 m
5860 2255 l
5 sw
st
5860 2255 m
5860 2793 l
st
5791 2793 m
5791 2255 l
st
6477 2255 m
6545 2255 l
6545 2793 l
6477 2793 l
cp
gs
1 1 1 rgb
eofi
gr
1 1 1 rgb
st
6478 2256 m
6478 2256 l
3 sw
0 0 0 rgb
st
6478 2305 m
6527 2256 l
st
6478 2354 m
6544 2288 l
st
6478 2403 m
6544 2337 l
st
6478 2452 m
6544 2386 l
st
6478 2501 m
6544 2435 l
st
6478 2550 m
6544 2484 l
st
6478 2599 m
6544 2533 l
st
6478 2648 m
6544 2582 l
st
6478 2697 m
6544 2631 l
st
6478 2746 m
6544 2680 l
st
6481 2792 m
6544 2729 l
st
6530 2792 m
6544 2778 l
st
6478 2256 m
6544 2322 l
st
6478 2305 m
6544 2371 l
st
6478 2354 m
6544 2420 l
st
6478 2403 m
6544 2469 l
st
6478 2452 m
6544 2518 l
st
6478 2501 m
6544 2567 l
st
6478 2550 m
6544 2616 l
st
6478 2599 m
6544 2665 l
st
6478 2648 m
6544 2714 l
st
6478 2697 m
6544 2763 l
st
6478 2746 m
6524 2792 l
st
6478 2256 m
6544 2322 l
st
6527 2256 m
6544 2273 l
st
6477 2255 m
6545 2255 l
5 sw
st
6545 2255 m
6545 2793 l
st
6477 2793 m
6477 2255 l
st
7163 2394 m
7231 2394 l
7231 2793 l
7163 2793 l
cp
gs
1 1 1 rgb
eofi
gr
1 1 1 rgb
st
7164 2395 m
7164 2395 l
3 sw
0 0 0 rgb
st
7164 2444 m
7213 2395 l
st
7164 2493 m
7230 2427 l
st
7164 2542 m
7230 2476 l
st
7164 2591 m
7230 2525 l
st
7164 2640 m
7230 2574 l
st
7164 2689 m
7230 2623 l
st
7164 2738 m
7230 2672 l
st
7164 2787 m
7230 2721 l
st
7208 2792 m
7230 2770 l
st
7164 2395 m
7230 2461 l
st
7164 2444 m
7230 2510 l
st
7164 2493 m
7230 2559 l
st
7164 2542 m
7230 2608 l
st
7164 2591 m
7230 2657 l
st
7164 2640 m
7230 2706 l
st
7164 2689 m
7230 2755 l
st
7164 2738 m
7218 2792 l
st
7164 2787 m
7169 2792 l
st
7164 2395 m
7230 2461 l
st
7213 2395 m
7230 2412 l
st
7163 2394 m
7231 2394 l
5 sw
st
7231 2394 m
7231 2793 l
st
7163 2793 m
7163 2394 l
st
gr
gs
pathproc 579 475 6859 2319 np rectpath
/eocl cland
np exec
1059 2352 m
1128 2352 l
1128 2793 l
1059 2793 l
cp
gs
eofi
gr
5 sw
st
1059 2352 m
1128 2352 l
0 0 0 rgb
st
1128 2352 m
1128 2793 l
st
1059 2793 m
1059 2352 l
st
1745 2729 m
1813 2729 l
1813 2793 l
1745 2793 l
cp
gs
0.502 0.502 0.502 rgb
eofi
gr
0.502 0.502 0.502 rgb
st
1745 2729 m
1813 2729 l
0 0 0 rgb
st
1813 2729 m
1813 2793 l
st
1745 2793 m
1745 2729 l
st
2431 2522 m
2499 2522 l
2499 2793 l
2431 2793 l
cp
gs
0.502 0.502 0.502 rgb
eofi
gr
0.502 0.502 0.502 rgb
st
2431 2522 m
2499 2522 l
0 0 0 rgb
st
2499 2522 m
2499 2793 l
st
2431 2793 m
2431 2522 l
st
3116 2234 m
3185 2234 l
3185 2793 l
3116 2793 l
cp
gs
0.502 0.502 0.502 rgb
eofi
gr
0.502 0.502 0.502 rgb
st
3116 2234 m
3185 2234 l
0 0 0 rgb
st
3185 2234 m
3185 2793 l
st
3116 2793 m
3116 2234 l
st
3802 2232 m
3871 2232 l
3871 2793 l
3802 2793 l
cp
gs
0.502 0.502 0.502 rgb
eofi
gr
0.502 0.502 0.502 rgb
st
3802 2232 m
3871 2232 l
0 0 0 rgb
st
3871 2232 m
3871 2793 l
st
3802 2793 m
3802 2232 l
st
4488 2670 m
4557 2670 l
4557 2793 l
4488 2793 l
cp
gs
0.502 0.502 0.502 rgb
eofi
gr
0.502 0.502 0.502 rgb
st
4488 2670 m
4557 2670 l
0 0 0 rgb
st
4557 2670 m
4557 2793 l
st
4488 2793 m
4488 2670 l
st
5174 2634 m
5242 2634 l
5242 2793 l
5174 2793 l
cp
gs
0.502 0.502 0.502 rgb
eofi
gr
0.502 0.502 0.502 rgb
st
5174 2634 m
5242 2634 l
0 0 0 rgb
st
5242 2634 m
5242 2793 l
st
5174 2793 m
5174 2634 l
st
5860 2413 m
5928 2413 l
5928 2793 l
5860 2793 l
cp
gs
0.502 0.502 0.502 rgb
eofi
gr
0.502 0.502 0.502 rgb
st
5860 2413 m
5928 2413 l
0 0 0 rgb
st
5928 2413 m
5928 2793 l
st
5860 2793 m
5860 2413 l
st
6545 2473 m
6614 2473 l
6614 2793 l
6545 2793 l
cp
gs
0.502 0.502 0.502 rgb
eofi
gr
0.502 0.502 0.502 rgb
st
6545 2473 m
6614 2473 l
0 0 0 rgb
st
6614 2473 m
6614 2793 l
st
6545 2793 m
6545 2473 l
st
7231 2545 m
7300 2545 l
7300 2793 l
7231 2793 l
cp
gs
0.502 0.502 0.502 rgb
eofi
gr
0.502 0.502 0.502 rgb
st
7231 2545 m
7300 2545 l
0 0 0 rgb
st
7300 2545 m
7300 2793 l
st
7231 2793 m
7231 2545 l
st
gr
gs
pathproc 579 475 6859 2319 np rectpath
/eocl cland
np exec
1128 2434 m
1196 2434 l
1196 2793 l
1128 2793 l
cp
gs
1 1 1 rgb
eofi
gr
5 sw
1 1 1 rgb
st
1129 2435 m
1195 2435 l
3 sw
0 0 0 rgb
st
1129 2470 m
1195 2470 l
st
1129 2505 m
1195 2505 l
st
1129 2540 m
1195 2540 l
st
1129 2575 m
1195 2575 l
st
1129 2610 m
1195 2610 l
st
1129 2645 m
1195 2645 l
st
1129 2680 m
1195 2680 l
st
1129 2715 m
1195 2715 l
st
1129 2750 m
1195 2750 l
st
1129 2785 m
1195 2785 l
st
1128 2434 m
1196 2434 l
5 sw
st
1196 2434 m
1196 2793 l
st
1128 2793 m
1128 2434 l
st
1813 2757 m
1882 2757 l
1882 2793 l
1813 2793 l
cp
gs
1 1 1 rgb
eofi
gr
1 1 1 rgb
st
1814 2758 m
1881 2758 l
3 sw
0 0 0 rgb
st
1813 2757 m
1882 2757 l
5 sw
st
1882 2757 m
1882 2793 l
st
1813 2793 m
1813 2757 l
st
2499 2582 m
2568 2582 l
2568 2793 l
2499 2793 l
cp
gs
1 1 1 rgb
eofi
gr
1 1 1 rgb
st
2500 2583 m
2567 2583 l
3 sw
0 0 0 rgb
st
2500 2618 m
2567 2618 l
st
2500 2653 m
2567 2653 l
st
2500 2688 m
2567 2688 l
st
2500 2723 m
2567 2723 l
st
2500 2758 m
2567 2758 l
st
2499 2582 m
2568 2582 l
5 sw
st
2568 2582 m
2568 2793 l
st
2499 2793 m
2499 2582 l
st
3185 2365 m
3254 2365 l
3254 2793 l
3185 2793 l
cp
gs
1 1 1 rgb
eofi
gr
1 1 1 rgb
st
3186 2366 m
3253 2366 l
3 sw
0 0 0 rgb
st
3186 2401 m
3253 2401 l
st
3186 2436 m
3253 2436 l
st
3186 2471 m
3253 2471 l
st
3186 2506 m
3253 2506 l
st
3186 2541 m
3253 2541 l
st
3186 2576 m
3253 2576 l
st
3186 2611 m
3253 2611 l
st
3186 2646 m
3253 2646 l
st
3186 2681 m
3253 2681 l
st
3186 2716 m
3253 2716 l
st
3186 2751 m
3253 2751 l
st
3186 2786 m
3253 2786 l
st
3185 2365 m
3254 2365 l
5 sw
st
3254 2365 m
3254 2793 l
st
3185 2793 m
3185 2365 l
st
3871 2266 m
3939 2266 l
3939 2793 l
3871 2793 l
cp
gs
1 1 1 rgb
eofi
gr
1 1 1 rgb
st
3872 2267 m
3938 2267 l
3 sw
0 0 0 rgb
st
3872 2302 m
3938 2302 l
st
3872 2337 m
3938 2337 l
st
3872 2372 m
3938 2372 l
st
3872 2407 m
3938 2407 l
st
3872 2442 m
3938 2442 l
st
3872 2477 m
3938 2477 l
st
3872 2512 m
3938 2512 l
st
3872 2547 m
3938 2547 l
st
3872 2582 m
3938 2582 l
st
3872 2617 m
3938 2617 l
st
3872 2652 m
3938 2652 l
st
3872 2687 m
3938 2687 l
st
3872 2722 m
3938 2722 l
st
3872 2757 m
3938 2757 l
st
3871 2266 m
3939 2266 l
5 sw
st
3939 2266 m
3939 2793 l
st
3871 2793 m
3871 2266 l
st
4557 2681 m
4625 2681 l
4625 2793 l
4557 2793 l
cp
gs
1 1 1 rgb
eofi
gr
1 1 1 rgb
st
4558 2682 m
4624 2682 l
3 sw
0 0 0 rgb
st
4558 2717 m
4624 2717 l
st
4558 2752 m
4624 2752 l
st
4558 2787 m
4624 2787 l
st
4557 2681 m
4625 2681 l
5 sw
st
4625 2681 m
4625 2793 l
st
4557 2793 m
4557 2681 l
st
5242 2681 m
5311 2681 l
5311 2793 l
5242 2793 l
cp
gs
1 1 1 rgb
eofi
gr
1 1 1 rgb
st
5243 2682 m
5310 2682 l
3 sw
0 0 0 rgb
st
5243 2717 m
5310 2717 l
st
5243 2752 m
5310 2752 l
st
5243 2787 m
5310 2787 l
st
5242 2681 m
5311 2681 l
5 sw
st
5311 2681 m
5311 2793 l
st
5242 2793 m
5242 2681 l
st
5928 2504 m
5997 2504 l
5997 2793 l
5928 2793 l
cp
gs
1 1 1 rgb
eofi
gr
1 1 1 rgb
st
5929 2505 m
5996 2505 l
3 sw
0 0 0 rgb
st
5929 2540 m
5996 2540 l
st
5929 2575 m
5996 2575 l
st
5929 2610 m
5996 2610 l
st
5929 2645 m
5996 2645 l
st
5929 2680 m
5996 2680 l
st
5929 2715 m
5996 2715 l
st
5929 2750 m
5996 2750 l
st
5929 2785 m
5996 2785 l
st
5928 2504 m
5997 2504 l
5 sw
st
5997 2504 m
5997 2793 l
st
5928 2793 m
5928 2504 l
st
6614 2518 m
6683 2518 l
6683 2793 l
6614 2793 l
cp
gs
1 1 1 rgb
eofi
gr
1 1 1 rgb
st
6615 2519 m
6682 2519 l
3 sw
0 0 0 rgb
st
6615 2554 m
6682 2554 l
st
6615 2589 m
6682 2589 l
st
6615 2624 m
6682 2624 l
st
6615 2659 m
6682 2659 l
st
6615 2694 m
6682 2694 l
st
6615 2729 m
6682 2729 l
st
6615 2764 m
6682 2764 l
st
6614 2518 m
6683 2518 l
5 sw
st
6683 2518 m
6683 2793 l
st
6614 2793 m
6614 2518 l
st
7300 2580 m
7368 2580 l
7368 2793 l
7300 2793 l
cp
gs
1 1 1 rgb
eofi
gr
1 1 1 rgb
st
7301 2581 m
7367 2581 l
3 sw
0 0 0 rgb
st
7301 2616 m
7367 2616 l
st
7301 2651 m
7367 2651 l
st
7301 2686 m
7367 2686 l
st
7301 2721 m
7367 2721 l
st
7301 2756 m
7367 2756 l
st
7301 2791 m
7367 2791 l
st
7300 2580 m
7368 2580 l
5 sw
st
7368 2580 m
7368 2793 l
st
7300 2793 m
7300 2580 l
st
gr
gs
1 -1 sc
0 0 0 rgb
/MC1_Arial 150 self 826 -2947 m
(cfs)[75 42 75 ] xs
1 -1 sc
gr
gs
1 -1 sc
0 0 0 rgb
/MC1_Arial 150 self 1529 -2947 m
(fin)[42 33 83 ] xs
1 -1 sc
gr
gs
1 -1 sc
0 0 0 rgb
/MC1_Arial 150 self 2189 -2947 m
(hm)[83 125 ] xs
1 -1 sc
gr
gs
1 -1 sc
0 0 0 rgb
/MC1_Arial 150 self 2837 -2947 m
(mds)[125 83 75 ] xs
1 -1 sc
gr
gs
1 -1 sc
0 0 0 rgb
/MC1_Arial 150 self 3465 -2947 m
(msnfs)[125 75 83 42 75 ] xs
1 -1 sc
gr
gs
1 -1 sc
0 0 0 rgb
/MC1_Arial 150 self 4211 -2947 m
(prxy)[83 50 74 73 ] xs
1 -1 sc
gr
gs
1 -1 sc
0 0 0 rgb
/MC1_Arial 150 self 4929 -2947 m
(prn)[83 50 83 ] xs
1 -1 sc
gr
gs
1 -1 sc
0 0 0 rgb
/MC1_Arial 150 self 5598 -2947 m
(proj)[83 50 83 33 ] xs
1 -1 sc
gr
gs
1 -1 sc
0 0 0 rgb
/MC1_Arial 150 self 6304 -2947 m
(usr)[83 75 50 ] xs
1 -1 sc
gr
gs
1 -1 sc
0 0 0 rgb
/MC1_Arial 150 self 6953 -2947 m
(hpio)[83 83 33 83 ] xs
1 -1 sc
gr
gs
1 -1 sc
0 0 0 rgb
/MC1_Arial 150 self 314 -2838 m
(0.0)[83 42 83 ] xs
1 -1 sc
gr
gs
1 -1 sc
0 0 0 rgb
/MC1_Arial 150 self 314 -2606 m
(0.1)[83 42 83 ] xs
1 -1 sc
gr
gs
1 -1 sc
0 0 0 rgb
/MC1_Arial 150 self 314 -2374 m
(0.2)[83 42 83 ] xs
1 -1 sc
gr
gs
1 -1 sc
0 0 0 rgb
/MC1_Arial 150 self 314 -2143 m
(0.3)[83 42 83 ] xs
1 -1 sc
gr
gs
1 -1 sc
0 0 0 rgb
/MC1_Arial 150 self 314 -1911 m
(0.4)[83 42 83 ] xs
1 -1 sc
gr
gs
1 -1 sc
0 0 0 rgb
/MC1_Arial 150 self 314 -1679 m
(0.5)[83 42 83 ] xs
1 -1 sc
gr
gs
1 -1 sc
0 0 0 rgb
/MC1_Arial 150 self 314 -1447 m
(0.6)[83 42 83 ] xs
1 -1 sc
gr
gs
1 -1 sc
0 0 0 rgb
/MC1_Arial 150 self 314 -1215 m
(0.7)[83 42 83 ] xs
1 -1 sc
gr
gs
1 -1 sc
0 0 0 rgb
/MC1_Arial 150 self 314 -984 m
(0.8)[83 42 83 ] xs
1 -1 sc
gr
gs
1 -1 sc
0 0 0 rgb
/MC1_Arial 150 self 314 -752 m
(0.9)[83 42 83 ] xs
1 -1 sc
gr
gs
1 -1 sc
0 0 0 rgb
/MC1_Arial 150 self 314 -520 m
(1.0)[83 42 83 ] xs
1 -1 sc
gr
579 2810 m
579 2793 l
13 sw
0 0 0 rgb
st
922 2827 m
922 2793 l
st
1265 2810 m
1265 2793 l
st
1608 2827 m
1608 2793 l
st
1951 2810 m
1951 2793 l
st
2293 2827 m
2293 2793 l
st
2636 2810 m
2636 2793 l
st
2979 2827 m
2979 2793 l
st
3322 2810 m
3322 2793 l
st
3665 2827 m
3665 2793 l
st
4008 2810 m
4008 2793 l
st
4351 2827 m
4351 2793 l
st
4694 2810 m
4694 2793 l
st
5037 2827 m
5037 2793 l
st
5380 2810 m
5380 2793 l
st
5723 2827 m
5723 2793 l
st
6065 2810 m
6065 2793 l
st
6408 2827 m
6408 2793 l
st
6751 2810 m
6751 2793 l
st
7094 2827 m
7094 2793 l
st
7437 2810 m
7437 2793 l
st
579 2793 m
7437 2793 l
st
579 2793 m
7437 2793 l
st
545 2793 m
579 2793 l
st
562 2677 m
579 2677 l
st
545 2561 m
579 2561 l
st
562 2445 m
579 2445 l
st
545 2329 m
579 2329 l
st
562 2214 m
579 2214 l
st
545 2098 m
579 2098 l
st
562 1982 m
579 1982 l
st
545 1866 m
579 1866 l
st
562 1750 m
579 1750 l
st
545 1634 m
579 1634 l
st
562 1518 m
579 1518 l
st
545 1402 m
579 1402 l
st
562 1286 m
579 1286 l
st
545 1170 m
579 1170 l
st
562 1054 m
579 1054 l
st
545 939 m
579 939 l
st
562 823 m
579 823 l
st
545 707 m
579 707 l
st
562 591 m
579 591 l
st
545 475 m
579 475 l
st
579 2793 m
579 475 l
st
579 475 m
579 492 l
st
922 475 m
922 509 l
st
1265 475 m
1265 492 l
st
1608 475 m
1608 509 l
st
1951 475 m
1951 492 l
st
2293 475 m
2293 509 l
st
2636 475 m
2636 492 l
st
2979 475 m
2979 509 l
st
3322 475 m
3322 492 l
st
3665 475 m
3665 509 l
st
4008 475 m
4008 492 l
st
4351 475 m
4351 509 l
st
4694 475 m
4694 492 l
st
5037 475 m
5037 509 l
st
5380 475 m
5380 492 l
st
5723 475 m
5723 509 l
st
6065 475 m
6065 492 l
st
6408 475 m
6408 509 l
st
6751 475 m
6751 492 l
st
7094 475 m
7094 509 l
st
7437 475 m
7437 492 l
st
579 475 m
7437 475 l
st
579 2793 m
7437 2793 l
st
7437 2793 m
7403 2793 l
st
7437 2677 m
7420 2677 l
st
7437 2561 m
7403 2561 l
st
7437 2445 m
7420 2445 l
st
7437 2329 m
7403 2329 l
st
7437 2214 m
7420 2214 l
st
7437 2098 m
7403 2098 l
st
7437 1982 m
7420 1982 l
st
7437 1866 m
7403 1866 l
st
7437 1750 m
7420 1750 l
st
7437 1634 m
7403 1634 l
st
7437 1518 m
7420 1518 l
st
7437 1402 m
7403 1402 l
st
7437 1286 m
7420 1286 l
st
7437 1170 m
7403 1170 l
st
7437 1054 m
7420 1054 l
st
7437 939 m
7403 939 l
st
7437 823 m
7420 823 l
st
7437 707 m
7403 707 l
st
7437 591 m
7420 591 l
st
7437 475 m
7403 475 l
st
7437 2793 m
7437 475 l
st
gs
gs
1 -1 sc
222 -2543 tr
90 ro
/MC2_Arial 171 self 0 0 m
(Normalized GC overhead)[124 95 57 142 95 38 38 86 95 95 48 133 124 48 95 86 95 57 95 95 95 95 ] xs
1 -1 sc
gr
gr
899 15 m
6834 15 l
6834 499 l
899 499 l
cp
gs
1 1 1 rgb
eofi
gr
3 sw
st
gs
gs
gs
984 37 m
1404 37 l
1404 244 l
984 244 l
cp
gs
eofi
gr
5 sw
st
gr
gr
1 -1 sc
/MC3_Arial 192 self 1407 -206 m
( )[53 ] xs
1 -1 sc
1 -1 sc
1460 -206 m
(PS\(4KB\))[128 128 64 107 128 128 64 ] xs
1 -1 sc
1 -1 sc
2207 -206 m
(   )[53 53 53 ] xs
1 -1 sc
gs
gs
2369 37 m
2789 37 l
2789 244 l
2369 244 l
cp
gs
1 1 1 rgb
eofi
gr
5 sw
st
2370 38 m
2575 243 l
3 sw
st
2370 70 m
2543 243 l
st
2370 102 m
2511 243 l
st
2370 134 m
2479 243 l
st
2370 166 m
2447 243 l
st
2370 198 m
2415 243 l
st
2370 230 m
2383 243 l
st
2370 38 m
2575 243 l
st
2402 38 m
2607 243 l
st
2434 38 m
2639 243 l
st
2466 38 m
2671 243 l
st
2498 38 m
2703 243 l
st
2530 38 m
2735 243 l
st
2562 38 m
2767 243 l
st
2594 38 m
2788 232 l
st
2626 38 m
2788 200 l
st
2658 38 m
2788 168 l
st
2690 38 m
2788 136 l
st
2722 38 m
2788 104 l
st
2754 38 m
2788 72 l
st
2786 38 m
2788 40 l
st
2369 37 m
2789 37 l
2789 244 l
2369 244 l
2369 37 l
5 sw
st
gr
gr
1 -1 sc
2792 -206 m
( )[53 ] xs
1 -1 sc
1 -1 sc
2845 -206 m
(PS+\(4KB\))[128 128 112 64 107 128 128 64 ] xs
1 -1 sc
1 -1 sc
3704 -206 m
(   )[53 53 53 ] xs
1 -1 sc
gs
gs
3866 37 m
4286 37 l
4286 244 l
3866 244 l
cp
gs
1 0 0 rgb
eofi
gr
5 sw
st
gr
gr
1 -1 sc
4289 -206 m
( )[53 ] xs
1 -1 sc
1 -1 sc
4342 -206 m
(PS\(8KB\))[128 128 64 107 128 128 64 ] xs
1 -1 sc
1 -1 sc
5089 -206 m
(   )[53 53 53 ] xs
1 -1 sc
gs
gs
5251 37 m
5671 37 l
5671 244 l
5251 244 l
cp
gs
1 1 1 rgb
eofi
gr
5 sw
st
5252 38 m
5252 38 l
3 sw
st
5252 87 m
5301 38 l
st
5252 136 m
5350 38 l
st
5252 185 m
5399 38 l
st
5252 234 m
5448 38 l
st
5292 243 m
5497 38 l
st
5341 243 m
5546 38 l
st
5390 243 m
5595 38 l
st
5439 243 m
5644 38 l
st
5488 243 m
5670 61 l
st
5537 243 m
5670 110 l
st
5586 243 m
5670 159 l
st
5635 243 m
5670 208 l
st
5251 37 m
5671 37 l
5671 244 l
5251 244 l
5251 37 l
5 sw
st
gr
gr
1 -1 sc
5674 -206 m
( )[53 ] xs
1 -1 sc
1 -1 sc
5727 -206 m
(PS+\(8KB\))[128 128 112 64 107 128 128 64 ] xs
1 -1 sc
1 -1 sc
6586 -206 m
( )[53 ] xs
1 -1 sc
gs
gs
984 271 m
1404 271 l
1404 478 l
984 478 l
cp
gs
1 1 1 rgb
eofi
gr
5 sw
st
gr
gr
1 -1 sc
1407 -440 m
( )[53 ] xs
1 -1 sc
1 -1 sc
1460 -440 m
(PS\(16KB\))[128 128 64 107 107 128 128 64 ] xs
1 -1 sc
1 -1 sc
2314 -440 m
( )[53 ] xs
1 -1 sc
gs
gs
2370 271 m
2790 271 l
2790 478 l
2370 478 l
cp
gs
1 1 1 rgb
eofi
gr
5 sw
st
2371 272 m
2371 272 l
3 sw
st
2371 321 m
2420 272 l
st
2371 370 m
2469 272 l
st
2371 419 m
2518 272 l
st
2371 468 m
2567 272 l
st
2411 477 m
2616 272 l
st
2460 477 m
2665 272 l
st
2509 477 m
2714 272 l
st
2558 477 m
2763 272 l
st
2607 477 m
2789 295 l
st
2656 477 m
2789 344 l
st
2705 477 m
2789 393 l
st
2754 477 m
2789 442 l
st
2371 272 m
2576 477 l
st
2371 321 m
2527 477 l
st
2371 370 m
2478 477 l
st
2371 419 m
2429 477 l
st
2371 468 m
2380 477 l
st
2371 272 m
2576 477 l
st
2420 272 m
2625 477 l
st
2469 272 m
2674 477 l
st
2518 272 m
2723 477 l
st
2567 272 m
2772 477 l
st
2616 272 m
2789 445 l
st
2665 272 m
2789 396 l
st
2714 272 m
2789 347 l
st
2763 272 m
2789 298 l
st
2370 271 m
2790 271 l
2790 478 l
2370 478 l
2370 271 l
5 sw
st
gr
gr
1 -1 sc
2793 -440 m
( )[53 ] xs
1 -1 sc
1 -1 sc
2846 -440 m
(PS+\(16KB\))[128 128 112 64 107 107 128 128 64 ] xs
1 -1 sc
1 -1 sc
3812 -440 m
( )[53 ] xs
1 -1 sc
gs
gs
3868 271 m
4288 271 l
4288 478 l
3868 478 l
cp
gs
0.502 0.502 0.502 rgb
eofi
gr
5 sw
st
gr
gr
1 -1 sc
4291 -440 m
( )[53 ] xs
1 -1 sc
1 -1 sc
4344 -440 m
(PS\(32KB\))[128 128 64 107 107 128 128 64 ] xs
1 -1 sc
1 -1 sc
5198 -440 m
( )[53 ] xs
1 -1 sc
gs
gs
5254 271 m
5674 271 l
5674 478 l
5254 478 l
cp
gs
1 1 1 rgb
eofi
gr
5 sw
st
5255 272 m
5673 272 l
3 sw
st
5255 307 m
5673 307 l
st
5255 342 m
5673 342 l
st
5255 377 m
5673 377 l
st
5255 412 m
5673 412 l
st
5255 447 m
5673 447 l
st
5254 271 m
5674 271 l
5674 478 l
5254 478 l
5254 271 l
5 sw
st
gr
gr
1 -1 sc
5677 -440 m
( )[53 ] xs
1 -1 sc
1 -1 sc
5730 -440 m
(PS+\(32KB\))[128 128 112 64 107 107 128 128 64 ] xs
1 -1 sc
gr
gr
Save0 restore end
showpage
%%EOF
