\relax 
\providecommand\hyper@newdestlabel[2]{}
\providecommand\HyperFirstAtBeginDocument{\AtBeginDocument}
\HyperFirstAtBeginDocument{\ifx\hyper@anchor\@undefined
\global\let\oldcontentsline\contentsline
\gdef\contentsline#1#2#3#4{\oldcontentsline{#1}{#2}{#3}}
\global\let\oldnewlabel\newlabel
\gdef\newlabel#1#2{\newlabelxx{#1}#2}
\gdef\newlabelxx#1#2#3#4#5#6{\oldnewlabel{#1}{{#2}{#3}}}
\AtEndDocument{\ifx\hyper@anchor\@undefined
\let\contentsline\oldcontentsline
\let\newlabel\oldnewlabel
\fi}
\fi}
\global\let\hyper@last\relax 
\gdef\HyperFirstAtBeginDocument#1{#1}
\providecommand\HyField@AuxAddToFields[1]{}
\providecommand\HyField@AuxAddToCoFields[2]{}
\citation{disturb-1}
\citation{ssd-ext}
\citation{host-ssd1}
\citation{page-trend}
\@writefile{toc}{\contentsline {section}{\numberline {1}Introduction}{1}{section.1}}
\newlabel{sec:intro}{{1}{1}{Introduction}{section.1}{}}
\providecommand*\caption@xref[2]{\@setref\relax\@undefined{#1}}
\newlabel{fig:io-frac}{{1a}{1}{Subfigure 1a}{subfigure.1.1}{}}
\newlabel{sub@fig:io-frac}{{(a)}{a}{Subfigure 1a\relax }{subfigure.1.1}{}}
\newlabel{fig:misalign-frac}{{1b}{1}{Subfigure 1b}{subfigure.1.2}{}}
\newlabel{sub@fig:misalign-frac}{{(b)}{b}{Subfigure 1b\relax }{subfigure.1.2}{}}
\@writefile{lof}{\contentsline {figure}{\numberline {1}{\ignorespaces A high portion of misaligned I/O requests shown in the enterprise workloads, which is caused by different reasons: request size, address, or both.\relax }}{1}{figure.caption.2}}
\newlabel{fig:ch-perf}{{1}{1}{A high portion of misaligned I/O requests shown in the enterprise workloads, which is caused by different reasons: request size, address, or both.\relax }{figure.caption.2}{}}
\@writefile{lof}{\contentsline {subfigure}{\numberline{(a)}{\ignorespaces {Misalignment fraction}}}{1}{subfigure.1.1}}
\@writefile{lof}{\contentsline {subfigure}{\numberline{(b)}{\ignorespaces {Misalignment types}}}{1}{subfigure.1.2}}
\@writefile{lof}{\contentsline {figure}{\numberline {2}{\ignorespaces The impact of misaligned I/O becomes more destructive as the page size increases.\relax }}{1}{figure.caption.3}}
\newlabel{fig:misalign-page-sense}{{2}{1}{The impact of misaligned I/O becomes more destructive as the page size increases.\relax }{figure.caption.3}{}}
\citation{disturb-1}
\citation{nop-trend2}
\citation{mlc-trend}
\citation{ref-if-sata}
\citation{ref-if-pcie3}
\@writefile{toc}{\contentsline {section}{\numberline {2}Background and Motivation}{2}{section.2}}
\newlabel{sec:back}{{2}{2}{Background and Motivation}{section.2}{}}
\@writefile{toc}{\contentsline {subsection}{\numberline {2.1}SSD and Flash Organization}{2}{subsection.2.1}}
\@writefile{lof}{\contentsline {figure}{\numberline {3}{\ignorespaces SSD internals: from the host interface to the NAND cell.\relax }}{3}{figure.caption.4}}
\newlabel{ssd-internal}{{3}{3}{SSD internals: from the host interface to the NAND cell.\relax }{figure.caption.4}{}}
\@writefile{lof}{\contentsline {figure}{\numberline {4}{\ignorespaces Two misaligned I/O examples which amplify the actual written data volume.\relax }}{3}{figure.caption.5}}
\newlabel{fig:misalign-example}{{4}{3}{Two misaligned I/O examples which amplify the actual written data volume.\relax }{figure.caption.5}{}}
\@writefile{toc}{\contentsline {subsection}{\numberline {2.2}From an I/O Request to NAND Commands}{3}{subsection.2.2}}
\newlabel{sec:io2nand}{{2.2}{3}{From an I/O Request to NAND Commands}{subsection.2.2}{}}
\@writefile{lot}{\contentsline {table}{\numberline {1}{\ignorespaces Voltage values used for programming a page.\relax }}{3}{table.caption.6}}
\newlabel{tab:voltage}{{1}{3}{Voltage values used for programming a page.\relax }{table.caption.6}{}}
\@writefile{toc}{\contentsline {subsection}{\numberline {2.3}A Page Program Mechanism}{3}{subsection.2.3}}
\citation{program-distrub-3}
\citation{yucai-2}
\citation{disturb-1}
\citation{program-distrub-2}
\citation{yucai-3}
\@writefile{lof}{\contentsline {figure}{\numberline {5}{\ignorespaces An example data corruption caused by intra-page program disturb.\relax }}{4}{figure.caption.7}}
\newlabel{motive}{{5}{4}{An example data corruption caused by intra-page program disturb.\relax }{figure.caption.7}{}}
\@writefile{toc}{\contentsline {subsection}{\numberline {2.4}Motivation: Program Disturb in a Page}{4}{subsection.2.4}}
\@writefile{toc}{\contentsline {section}{\numberline {3}PageSplit Flash Architecture}{4}{section.3}}
\newlabel{sec:arch}{{3}{4}{PageSplit Flash Architecture}{section.3}{}}
\@writefile{toc}{\contentsline {subsection}{\numberline {3.1}Architecture Overview}{4}{subsection.3.1}}
\@writefile{lof}{\contentsline {figure}{\numberline {6}{\ignorespaces Our PageSplit architecture includes the voltage line and the switches, which separate two neighboring sectors within a page.\relax }}{5}{figure.caption.8}}
\newlabel{ps-archi}{{6}{5}{Our PageSplit architecture includes the voltage line and the switches, which separate two neighboring sectors within a page.\relax }{figure.caption.8}{}}
\@writefile{toc}{\contentsline {subsection}{\numberline {3.2}Sector Program Examples}{5}{subsection.3.2}}
\newlabel{fig:arch-exam1}{{7a}{5}{Subfigure 7a}{subfigure.7.1}{}}
\newlabel{sub@fig:arch-exam1}{{(a)}{a}{Subfigure 7a\relax }{subfigure.7.1}{}}
\newlabel{fig:arch-exam2}{{7b}{5}{Subfigure 7b}{subfigure.7.2}{}}
\newlabel{sub@fig:arch-exam2}{{(b)}{b}{Subfigure 7b\relax }{subfigure.7.2}{}}
\@writefile{lof}{\contentsline {figure}{\numberline {7}{\ignorespaces Two examples of sector-based programs enabled by PageSplit.\relax }}{5}{figure.caption.9}}
\newlabel{fig:archi-exam}{{7}{5}{Two examples of sector-based programs enabled by PageSplit.\relax }{figure.caption.9}{}}
\@writefile{lof}{\contentsline {subfigure}{\numberline{(a)}{\ignorespaces {Program of Sector 1.}}}{5}{subfigure.7.1}}
\@writefile{lof}{\contentsline {subfigure}{\numberline{(b)}{\ignorespaces {Program of Sectors 2 and 3.}}}{5}{subfigure.7.2}}
\citation{page-order}
\citation{program-distrub-1}
\citation{program-distrub-1}
\citation{program-distrub-2}
\citation{program-distrub-3}
\@writefile{toc}{\contentsline {subsection}{\numberline {3.3}Reuse of Dummy Space}{6}{subsection.3.3}}
\newlabel{sec:archi-io}{{3.3}{6}{Reuse of Dummy Space}{subsection.3.3}{}}
\@writefile{lof}{\contentsline {figure}{\numberline {8}{\ignorespaces The page consumption scenarios in two architectures. Compared to the conventional one, PageSplit can save new pages by reusing the dummy space.\relax }}{6}{figure.caption.10}}
\newlabel{ps-io}{{8}{6}{The page consumption scenarios in two architectures. Compared to the conventional one, PageSplit can save new pages by reusing the dummy space.\relax }{figure.caption.10}{}}
\@writefile{toc}{\contentsline {subsection}{\numberline {3.4}Flash Software Support}{6}{subsection.3.4}}
\newlabel{sec:ftl}{{3.4}{6}{Flash Software Support}{subsection.3.4}{}}
\@writefile{lof}{\contentsline {figure}{\numberline {9}{\ignorespaces Page allocation strategies employed by PageSplit and PageSplit+ with an eight-sector page.\relax }}{7}{figure.caption.11}}
\newlabel{ps-plus-io}{{9}{7}{Page allocation strategies employed by PageSplit and PageSplit+ with an eight-sector page.\relax }{figure.caption.11}{}}
\@writefile{toc}{\contentsline {subsection}{\numberline {3.5}Hardware Overhead}{7}{subsection.3.5}}
\@writefile{toc}{\contentsline {section}{\numberline {4}PageSplit+ Software}{7}{section.4}}
\newlabel{sec:multi-blocks}{{4}{7}{PageSplit+ Software}{section.4}{}}
\@writefile{toc}{\contentsline {subsection}{\numberline {4.1}Motivation: Limitations of PageSplit}{7}{subsection.4.1}}
\newlabel{sec:mot-psplus}{{4.1}{7}{Motivation: Limitations of PageSplit}{subsection.4.1}{}}
\@writefile{toc}{\contentsline {subsection}{\numberline {4.2}A New Page Allocation Strategy}{7}{subsection.4.2}}
\citation{ecc-unit-1}
\citation{ecc-bch-0}
\citation{ecc-ldpc-0}
\citation{ecc-ldpc-1}
\citation{ecc-ldpc-2}
\citation{ecc-ldpc-3}
\citation{ecc-ldpc-4}
\@writefile{loa}{\contentsline {algocf}{\numberline {1}{\ignorespaces \relax \fontsize  {9}{9pt}\selectfont  \abovedisplayskip 6.4pt plus 2pt minus 4pt\belowdisplayskip \abovedisplayskip \abovedisplayshortskip \z@ plus 1pt\belowdisplayshortskip 2.7pt plus 1pt minus 2pt \def \leftmargin \leftmargini \parsep 3.6pt plus 2pt minus 1pt\topsep 7.2pt plus 2pt minus 4pt\itemsep 3.6pt plus 2pt minus 1pt{\leftmargin \leftmargini \topsep 3pt plus 1pt minus 1pt\parsep 2pt plus 1pt minus 1pt \itemsep \parsep }{The page allocation algorithm of PageSplit+, which picks up the most appropriate place from where the current program command can be served.}\relax }}{8}{algocf.1}}
\newlabel{alg:ps-plus}{{1}{8}{Motivation: Limitations of PageSplit}{algocf.1}{}}
\newlabel{fig:ecc-mot}{{10a}{8}{Subfigure 10a}{subfigure.10.1}{}}
\newlabel{sub@fig:ecc-mot}{{(a)}{a}{Subfigure 10a\relax }{subfigure.10.1}{}}
\newlabel{fig:ecc-edr}{{10b}{8}{Subfigure 10b}{subfigure.10.2}{}}
\newlabel{sub@fig:ecc-edr}{{(b)}{b}{Subfigure 10b\relax }{subfigure.10.2}{}}
\newlabel{fig:ecc-pe}{{10c}{8}{Subfigure 10c}{subfigure.10.3}{}}
\newlabel{sub@fig:ecc-pe}{{(c)}{c}{Subfigure 10c\relax }{subfigure.10.3}{}}
\@writefile{lof}{\contentsline {figure}{\numberline {10}{\ignorespaces Less-than-one EDR coming from the I/O misalignment leads to the waste of ECC capability, which in turn leads to lifetime loss (P/E cycles) for the SSD (with 4KB-page and 256b/4KB correcting BCH).\relax }}{8}{figure.caption.13}}
\newlabel{fig:ecc-motive}{{10}{8}{Less-than-one EDR coming from the I/O misalignment leads to the waste of ECC capability, which in turn leads to lifetime loss (P/E cycles) for the SSD (with 4KB-page and 256b/4KB correcting BCH).\relax }{figure.caption.13}{}}
\@writefile{lof}{\contentsline {subfigure}{\numberline{(a)}{\ignorespaces {Waste of ECC capability.}}}{8}{subfigure.10.1}}
\@writefile{lof}{\contentsline {subfigure}{\numberline{(b)}{\ignorespaces {EDR and P/E cycles.}}}{8}{subfigure.10.2}}
\@writefile{lof}{\contentsline {subfigure}{\numberline{(c)}{\ignorespaces {P/E cycle loss.}}}{8}{subfigure.10.3}}
\@writefile{toc}{\contentsline {section}{\numberline {5}ECC Design for PageSplit}{8}{section.5}}
\newlabel{sec:ecc-design}{{5}{8}{ECC Design for PageSplit}{section.5}{}}
\@writefile{toc}{\contentsline {subsection}{\numberline {5.1}Waste of ECC Capability}{8}{subsection.5.1}}
\newlabel{sec:ecc-waste}{{5.1}{8}{Waste of ECC Capability}{subsection.5.1}{}}
\citation{ecc-unit-1}
\citation{ecc-unit-2}
\citation{yucai-1}
\citation{ecc-unit-2}
\citation{disksim}
\citation{ssd-ext}
\@writefile{lot}{\contentsline {table}{\numberline {2}{\ignorespaces Two ECC design options for PageSplit.\relax }}{9}{table.caption.14}}
\newlabel{tab:ecc-options}{{2}{9}{Two ECC design options for PageSplit.\relax }{table.caption.14}{}}
\@writefile{lot}{\contentsline {table}{\numberline {3}{\ignorespaces Characteristics of our workloads.\relax }}{9}{table.caption.15}}
\newlabel{tab:workload-cha}{{3}{9}{Characteristics of our workloads.\relax }{table.caption.15}{}}
\@writefile{toc}{\contentsline {subsection}{\numberline {5.2}Design Guidelines}{9}{subsection.5.2}}
\@writefile{toc}{\contentsline {section}{\numberline {6}Experimental Evaluation}{9}{section.6}}
\newlabel{sec:eval}{{6}{9}{Experimental Evaluation}{section.6}{}}
\@writefile{toc}{\contentsline {subsection}{\numberline {6.1}Setup}{9}{subsection.6.1}}
\newlabel{eval-setup}{{6.1}{9}{Setup}{subsection.6.1}{}}
\citation{eval-conf}
\citation{address-map}
\citation{ref-trace1}
\citation{ref-trace2}
\citation{ref-trace3}
\@writefile{toc}{\contentsline {subsection}{\numberline {6.2}Lifetime Extension}{10}{subsection.6.2}}
\@writefile{lof}{\contentsline {figure}{\numberline {11}{\ignorespaces The total program size under the three architectures (normalized to the total I/O data size).\relax }}{10}{figure.caption.16}}
\newlabel{eval-write}{{11}{10}{The total program size under the three architectures (normalized to the total I/O data size).\relax }{figure.caption.16}{}}
\@writefile{lof}{\contentsline {figure}{\numberline {12}{\ignorespaces The GC overhead as a result of the reduction in the total flash program size.\relax }}{10}{figure.caption.17}}
\newlabel{eval-gc}{{12}{10}{The GC overhead as a result of the reduction in the total flash program size.\relax }{figure.caption.17}{}}
\@writefile{toc}{\contentsline {subsection}{\numberline {6.3}GC Overhead}{10}{subsection.6.3}}
\citation{page-trend}
\citation{ppp-nop1}
\citation{onfi2}
\citation{disturb-1}
\citation{onfi4}
\citation{host-ssd1}
\citation{host-ssd2}
\citation{host-ssd3}
\citation{host-ssd4}
\citation{circuit-seg1}
\citation{circuit-seg2}
\citation{circuit-seg3}
\bibstyle{ieeetr}
\bibdata{pagesplit-ref}
\@writefile{lof}{\contentsline {figure}{\numberline {13}{\ignorespaces The total program size written in the proposed flash architectures with varying page sizes.\relax }}{11}{figure.caption.18}}
\newlabel{eval-write-sense}{{13}{11}{The total program size written in the proposed flash architectures with varying page sizes.\relax }{figure.caption.18}{}}
\@writefile{toc}{\contentsline {subsection}{\numberline {6.4}Sensitivity Analysis}{11}{subsection.6.4}}
\@writefile{toc}{\contentsline {subsection}{\numberline {6.5}Performance}{11}{subsection.6.5}}
\@writefile{lof}{\contentsline {figure}{\numberline {14}{\ignorespaces The GC overhead in the proposed architectures with varying page sizes.\relax }}{11}{figure.caption.19}}
\newlabel{eval-gc-sense}{{14}{11}{The GC overhead in the proposed architectures with varying page sizes.\relax }{figure.caption.19}{}}
\@writefile{toc}{\contentsline {section}{\numberline {7}Related Work}{11}{section.7}}
\newlabel{sec:related-work}{{7}{11}{Related Work}{section.7}{}}
\@writefile{toc}{\contentsline {section}{\numberline {8}Conclusions}{11}{section.8}}
\newlabel{sec:conclude}{{8}{11}{Conclusions}{section.8}{}}
\bibcite{disturb-1}{1}
\bibcite{ssd-ext}{2}
\bibcite{host-ssd1}{3}
\bibcite{page-trend}{4}
\bibcite{nop-trend2}{5}
\bibcite{mlc-trend}{6}
\bibcite{ref-if-sata}{7}
\bibcite{ref-if-pcie3}{8}
\bibcite{program-distrub-3}{9}
\bibcite{yucai-2}{10}
\bibcite{program-distrub-2}{11}
\bibcite{yucai-3}{12}
\bibcite{page-order}{13}
\bibcite{program-distrub-1}{14}
\bibcite{ecc-unit-1}{15}
\bibcite{ecc-bch-0}{16}
\bibcite{ecc-ldpc-0}{17}
\bibcite{ecc-ldpc-1}{18}
\bibcite{ecc-ldpc-2}{19}
\bibcite{ecc-ldpc-3}{20}
\bibcite{ecc-ldpc-4}{21}
\bibcite{ecc-unit-2}{22}
\bibcite{yucai-1}{23}
\bibcite{disksim}{24}
\bibcite{eval-conf}{25}
\bibcite{address-map}{26}
\bibcite{ref-trace1}{27}
\bibcite{ref-trace2}{28}
\bibcite{ref-trace3}{29}
\bibcite{ppp-nop1}{30}
\bibcite{onfi2}{31}
\bibcite{onfi4}{32}
\bibcite{host-ssd2}{33}
\bibcite{host-ssd3}{34}
\bibcite{host-ssd4}{35}
\bibcite{circuit-seg1}{36}
\bibcite{circuit-seg2}{37}
\bibcite{circuit-seg3}{38}
\@writefile{toc}{\contentsline {section}{\numberline {9}References}{12}{section.9}}
