%!PS-Adobe-3.0 EPSF-3.0
%%BoundingBox: 0 0 720 360
%%LanguageLevel: 2
%%Creator: OriginLab Corporation
%%Title: (C:\Users\Administrator\Documents\micro15-pagesplit\data\ecc-edr.eps)
%%CreationDate: Tue Apr 28 23:08:12 2015
%%EndComments

/OriginLab::PSL1 128 dict dup begin def
/Save0 save def
%%BeginResource: procset OriginLab::PSL1
/wd{1 index where{pop pop pop}{bind def}ifelse}bind def
/setcmykcolor{1 sub 4 1 roll 3{3 index add neg dup 0 lt{pop 0}if 3 1 roll}repeat setrgbcolor pop}wd
/selectfont{dup type/arraytype eq{exch findfont exch makefont setfont}{exch findfont exch scalefont setfont}ifelse}wd
/xshow{1 index length 0 le{}{currentpoint exch 3 index length 1 sub 0 exch 1 exch{dup 5 index exch 1 getinterval show 3 index exch get add 2 copy exch moveto}for pop pop}ifelse pop pop}wd
/glyphshow{matrix currentmatrix exch currentfont dup/FontMatrix get concat currentpoint translate
 dup/Metrics get 2 index get 0 4 2 roll gsave/CharProcs get exch 2 copy known not{pop/.notdef}if
 get exec fill grestore moveto setmatrix}wd
/grayimage/image load def/rgbtogray{cvx exec dup length 3 idiv 1 sub 0 exch 1 exch{dup 3 mul dup 3 index exch get 255 div .3 mul exch
 1 add dup 4 index exch get 255 div .59 mul exch 1 add 4 index exch get 255 div .11 mul add add
 255 mul dup 255 gt{255}if round cvi 2 index 3 1 roll put}for dup length 3 idiv 0 exch getinterval}bind def
/colorimage{0 setgray pop pop cvlit/rgbtogray cvx 2 packedarray cvx grayimage}wd
/bd{bind def}bind def/ld{load def}bd/ed{exch def}bd/xd{cvx def}bd
/np/newpath ld/a/arc ld/m/moveto ld/l/lineto ld/c/curveto ld/rm/rmoveto ld/rl/rlineto ld/rc/rcurveto ld/cp/closepath ld/cpt/currentpoint ld
/tr/translate ld/sc/scale ld/ro/rotate ld/t/transform ld/it/itransform ld/dt/dtransform ld/idt/idtransform ld
/mtx/matrix ld/cmtx/currentmatrix ld/dmtx/defaultmatrix ld/smtx/setmatrix ld/catmtx/concatmatrix ld
/sw/setlinewidth ld/scap/setlinecap ld/sj/setlinejoin ld/sm/setmiterlimit ld/sd/setdash ld/rgb/setrgbcolor ld/crgb/currentrgbcolor ld/cmyk/setcmykcolor ld/gs/gsave ld/gr/grestore ld
/st/stroke ld/fi/fill ld/eofi/eofill ld/cl/clip ld/eocl/eoclip ld
/df/definefont ld/ff/findfont ld/sf/setfont ld/scf/scalefont ld/self/selectfont ld/cf/currentfont ld
/s/show ld/xs/xshow ld/gls/glyphshow ld/xgls{cpt 3 1 roll add exch 3 -1 roll gls m}bd
/cd/currentdict ld/i/index ld
/DrawBox{4 2 roll m 1 index 0 rl 0 exch rl neg 0 rl cp}bd
/plus.re { 6 { 3 index } repeat moveto 0 exch rlineto 0 rlineto pop pop neg 0 exch rlineto pop lineto closepath } def
/DrawBcc{4 2 roll m 2 copy 0 lt exch 0 lt xor{dup 0 exch rl exch 0 rl neg 0 exch rl}{exch dup 0 rl exch 0 exch rl neg 0 rl}ifelse cp}bd
/rectline{dup type/arraytype eq{dup length 0 exch 4 exch 4 sub{0 1 3{3 copy add get 4 1 roll pop}for pop 5 1 roll DrawBox}for pop}{DrawBox}ifelse}bd
/rectpath{dup type/arraytype eq{dup length 0 exch 4 exch 4 sub{0 1 3{3 copy add get 4 1 roll pop}for pop 5 1 roll DrawBcc}for pop}{DrawBcc}ifelse}bd
/pathproc{[{/m cvx}{/l cvx}{/c cvx}{/cp cvx}pathforall]cvx}bd
/L1img/image ld/L1idx[{0}
 {dup 7 and 3 1 roll -3 bitshift get exch 7 sub 1 mul bitshift  1 and}bind 1 index dup
 {dup 1 and 3 1 roll -1 bitshift get exch 1 sub 4 mul bitshift 15 and}bind 1 index dup dup
 {get}bind]def
/image{dup type/dicttype eq {dup/ImgCS get 0 get/Indexed eq}{false}ifelse
 {begin Width Height 8 ImageMatrix {rgb_string rgb_lookup
 cd/DataSource get dup type/filetype eq
 {mystring readstring pop}{exec}ifelse
 dup length 0 ne
 {L1idx BitsPerComponent get 0 1 Width 1 sub
 {3 copy exch exec exch 3 mul exch
 3 mul dup 5 index exch get exch 1 add dup 6 index exch get exch 1 add 6 index exch get
 7 index exch 4 index 2 add exch put 6 index exch 3 index 1 add exch put 5 index exch 2 index exch put pop
 }for pop pop pop }{pop pop pop ()}ifelse }false 3 colorimage end} {dup type/dicttype eq
 {{dup mark exch L1img pop pop}stopped{cleartomark begin Width Height BitsPerComponent ImageMatrix
 {cd/DataSource get dup type/filetype eq {mystring readstring pop}{exec}ifelse
 }false 3 colorimage end} if}{L1img}ifelse}ifelse
 }bd
/L1imgmask/imagemask ld/imagemask{dup type/dicttype eq
 {{dup mark exch L1imgmask pop pop}stopped {cleartomark begin Width Height polarityflag ImageMatrix
 {cd/DataSource get dup type/filetype eq {mystring readstring pop}{exec}ifelse
 }L1imgmask end}if}{L1imgmask}ifelse
 }bd
% Gradient function
/GradientStep 1 150 div def
/GradientStartRGB { /R1 exch def /G1 exch def /B1 exch def } def
/GradientEndRGB { /R2 exch def /G2 exch def /B2 exch def
/GradientSteps GradientLength GradientStep div def
/GradientRStep R2 R1 sub GradientSteps div def
/GradientGStep G2 G1 sub GradientSteps div def
/GradientBStep B2 B1 sub GradientSteps div def
} def
/GradientStepRGB { /R1 R1 GradientRStep add def
/G1 G1 GradientGStep add def
/B1 B1 GradientBStep add def
R1 G1 B1 setrgbcolor
} def
%%EndResource
/rectclip{np rectpath clip np}wd
/rectfill{gs np rectpath fi gr}wd
/rectstroke{gs np dup type/arraytype eq{dup length 6 eq}{false}ifelse{1 index type/arraytype eq{exch}{5 1 roll}ifelse rectline concat st}{rectline st}ifelse gr}wd
%%BeginResource: procset OriginLab::Image
/OriginLab::Image 32 dict dup begin
/BinProc{[currentfile mystring /readstring cvx /pop cvx] cvx bind}bd
/HexProc{[currentfile mystring /readhexstring cvx /pop cvx] cvx bind}bd
/Ascii85Proc{currentfile /ASCII85Decode filter}bd
/LZWA85{currentfile /ASCII85Decode filter /LZWDecode filter}bd
/ImgProcArray[/BinProc /HexProc /Ascii85Proc /LZWA85]def
/ImgDict{/ImgDict 16 dict def ImgDict dup begin /ImageType 1 def /MultipleDataSource false def end}bd
/L2Dec{{[1 0]}{[0 1]}ifelse}bd
/BegImg{ /Img_sv save def
 /ImgDir ed ImgProcArray exch get /ImgProc exch ld
 dup /polarityflag ed L2Dec /polarity ed /smoothflag ed
 tr /dx 2 index def /dy 1 index abs def sc
 string /mystring ed /bpc ed /ih ed /iw ed
 }bd
/EndImg {Img_sv restore}bd
/DoXImg{ /rgb_lookup ed /hival ed ImgDict dup begin
 [/Indexed /DeviceRGB hival rgb_lookup] /L1img where{pop/ImgCS ed}{setcolorspace}ifelse
 /rgb_string iw 3 mul string def
 /Width iw def
 /Height ih def
 /Decode [0 1 bpc{2 mul}repeat 1 sub] def
 /ImageMatrix
  ImgDir 0 eq{[iw 0 0 ih 0 0]}if
  ImgDir 1 eq{[iw neg 0 0 ih iw 0]}if
  ImgDir 2 eq{[iw 0 0 ih neg 0 ih]}if
  ImgDir 3 eq{[iw neg 0 0 ih neg iw ih]}if
  def
 /DataSource ImgProc def
 /BitsPerComponent bpc def
 /Interpolate smoothflag def
 end image}bd
/DoImg{ ImgDict dup begin
 [/DeviceRGB] /L1img where{pop/ImgCS ed}{setcolorspace}ifelse
 /rgb_string iw 3 mul string def
 /Width iw def
 /Height ih def
 /Decode [0 1 0 1 0 1] def
 /ImageMatrix
  ImgDir 0 eq{[iw 0 0 ih 0 0]}if
  ImgDir 1 eq{[iw neg 0 0 ih iw 0]}if
  ImgDir 2 eq{[iw 0 0 ih neg 0 ih]}if
  ImgDir 3 eq{[iw neg 0 0 ih neg iw ih]}if
  def
 /DataSource ImgProc def
 /BitsPerComponent 8 def
 /Interpolate smoothflag def
 end image}bd
end def
%%EndResource
%%BeginFont: /MC1_Arial
12 dict begin
/FontInfo 8 dict dup begin
/ItalicAngle 0 def
/UnderlinePosition -217.00 def
/UnderlineThickness 150.00 def
/StrikeoutPosition 530.00 def
/StrikeoutThickness 102.00 def
/isFixedPitch false def
end readonly def
/FontName /MC1_Arial def
/FontType 3 def
/FontMatrix [1 2048 div 0 0 1 2048 div 0 0] def
/FontBBox [-1361 -665 4096 2060] def
/Encoding 256 array def 0 1 255{Encoding exch/.notdef put}for
Encoding 32/s32 put
Encoding 46/s46 put
Encoding 48/s48 put
Encoding 49/s49 put
Encoding 52/s52 put
Encoding 53/s53 put
Encoding 54/s54 put
Encoding 55/s55 put
Encoding 56/s56 put
Encoding 57/s57 put
Encoding 99/s99 put
Encoding 100/s100 put
Encoding 102/s102 put
Encoding 104/s104 put
Encoding 105/s105 put
Encoding 106/s106 put
Encoding 109/s109 put
Encoding 110/s110 put
Encoding 111/s111 put
Encoding 112/s112 put
Encoding 114/s114 put
Encoding 115/s115 put
Encoding 117/s117 put
Encoding 120/s120 put
Encoding 121/s121 put
/BoundingBoxes 26 dict def
BoundingBoxes begin
/s32 [0 -434 569 1854] def
/s46 [0 -434 569 1854] def
/s48 [0 -434 1139 1854] def
/s49 [0 -434 1139 1854] def
/s52 [0 -434 1139 1854] def
/s53 [0 -434 1139 1854] def
/s54 [0 -434 1139 1854] def
/s55 [0 -434 1139 1854] def
/s56 [0 -434 1139 1854] def
/s57 [0 -434 1139 1854] def
/s99 [0 -434 1024 1854] def
/s100 [0 -434 1139 1854] def
/s102 [0 -434 569 1854] def
/s104 [0 -434 1139 1854] def
/s105 [0 -434 455 1854] def
/s106 [-94 -434 455 1854] def
/s109 [0 -434 1706 1854] def
/s110 [0 -434 1139 1854] def
/s111 [0 -434 1139 1854] def
/s112 [0 -434 1139 1854] def
/s114 [0 -434 682 1854] def
/s115 [0 -434 1024 1854] def
/s117 [0 -434 1139 1854] def
/s120 [0 -434 1024 1854] def
/s121 [0 -434 1024 1854] def
end
/Metrics 26 dict def
 Metrics begin
/s32 569 def
/s46 569 def
/s48 1139 def
/s49 1139 def
/s52 1139 def
/s53 1139 def
/s54 1139 def
/s55 1139 def
/s56 1139 def
/s57 1139 def
/s99 1024 def
/s100 1139 def
/s102 569 def
/s104 1139 def
/s105 455 def
/s106 455 def
/s109 1706 def
/s110 1139 def
/s111 1139 def
/s112 1139 def
/s114 682 def
/s115 1024 def
/s117 1139 def
/s120 1024 def
/s121 1024 def
end
/CharProcs 26 dict def
CharProcs begin
/.notdef {} def
/s46 {
186 0 m
186 205 186 0 186 205 c
391 205 186 205 391 205 c
391 0 391 205 391 0 c
186 0 391 0 186 0 c
closepath } bind def
/s48 {
85 723 m
85 896.33 102.83 1035.83 138.5 1141.5 c
174.17 1247.17 227.17 1328.67 297.5 1386 c
367.83 1443.33 456.33 1472 563 1472 c
641.67 1472 710.67 1456.17 770 1424.5 c
829.33 1392.83 878.33 1347.17 917 1287.5 c
955.67 1227.83 986 1155.17 1008 1069.5 c
1030 983.83 1041 868.33 1041 723 c
1041 551 1023.33 412.17 988 306.5 c
952.67 200.83 899.83 119.17 829.5 61.5 c
759.17 3.83 670.33 -25 563 -25 c
421.67 -25 310.67 25.67 230 127 c
133.33 249 85 447.67 85 723 c
closepath 270 723 m
270 482.33 298.17 322.17 354.5 242.5 c
410.83 162.83 480.33 123 563 123 c
645.67 123 715.17 163 771.5 243 c
827.83 323 856 483 856 723 c
856 964.33 827.83 1124.67 771.5 1204 c
715.17 1283.33 645 1323 561 1323 c
478.33 1323 412.33 1288 363 1218 c
301 1128.67 270 963.67 270 723 c
closepath } bind def
/s49 {
763 0 m
583 0 763 0 583 0 c
583 1147 583 0 583 1147 c
539.67 1105.67 482.83 1064.33 412.5 1023 c
342.17 981.67 279 950.67 223 930 c
223 1104 223 930 223 1104 c
323.67 1151.33 411.67 1208.67 487 1276 c
562.33 1343.33 615.67 1408.67 647 1472 c
763 1472 647 1472 763 1472 c
763 0 763 1472 763 0 c
closepath } bind def
/s52 {
662 0 m
662 351 662 0 662 351 c
26 351 662 351 26 351 c
26 516 26 351 26 516 c
695 1466 26 516 695 1466 c
842 1466 695 1466 842 1466 c
842 516 842 1466 842 516 c
1040 516 842 516 1040 516 c
1040 351 1040 516 1040 351 c
842 351 1040 351 842 351 c
842 0 842 351 842 0 c
662 0 842 0 662 0 c
closepath 662 516 m
662 1177 662 516 662 1177 c
203 516 662 1177 203 516 c
662 516 203 516 662 516 c
closepath } bind def
/s53 {
85 384 m
274 400 85 384 274 400 c
288 308 320.5 238.83 371.5 192.5 c
422.5 146.17 484 123 556 123 c
642.67 123 716 155.67 776 221 c
836 286.33 866 373 866 481 c
866 583.67 837.17 664.67 779.5 724 c
721.83 783.33 646.33 813 553 813 c
495 813 442.67 799.83 396 773.5 c
349.33 747.17 312.67 713 286 671 c
117 693 286 671 117 693 c
259 1446 117 693 259 1446 c
988 1446 259 1446 988 1446 c
988 1274 988 1446 988 1274 c
403 1274 988 1274 403 1274 c
324 880 403 1274 324 880 c
412 941.33 504.33 972 601 972 c
729 972 837 927.67 925 839 c
1013 750.33 1057 636.33 1057 497 c
1057 364.33 1018.33 249.67 941 153 c
847 34.33 718.67 -25 556 -25 c
422.67 -25 313.83 12.33 229.5 87 c
145.17 161.67 97 260.67 85 384 c
closepath } bind def
/s54 {
1019 1107 m
840 1093 1019 1107 840 1093 c
824 1163.67 801.33 1215 772 1247 c
723.33 1298.33 663.33 1324 592 1324 c
534.67 1324 484.33 1308 441 1276 c
384.33 1234.67 339.67 1174.33 307 1095 c
274.33 1015.67 257.33 902.67 256 756 c
299.33 822 352.33 871 415 903 c
477.67 935 543.33 951 612 951 c
732 951 834.17 906.83 918.5 818.5 c
1002.83 730.17 1045 616 1045 476 c
1045 384 1025.17 298.5 985.5 219.5 c
945.83 140.5 891.33 80 822 38 c
752.67 -4 674 -25 586 -25 c
436 -25 313.67 30.17 219 140.5 c
124.33 250.83 77 432.67 77 686 c
77 969.33 129.33 1175.33 234 1304 c
325.33 1416 448.33 1472 603 1472 c
718.33 1472 812.83 1439.67 886.5 1375 c
960.17 1310.33 1004.33 1221 1019 1107 c
closepath 284 475 m
284 413 297.17 353.67 323.5 297 c
349.83 240.33 386.67 197.17 434 167.5 c
481.33 137.83 531 123 583 123 c
659 123 724.33 153.67 779 215 c
833.67 276.33 861 359.67 861 465 c
861 566.33 834 646.17 780 704.5 c
726 762.83 658 792 576 792 c
494.67 792 425.67 762.83 369 704.5 c
312.33 646.17 284 569.67 284 475 c
closepath } bind def
/s55 {
97 1274 m
97 1447 97 1274 97 1447 c
1046 1447 97 1447 1046 1447 c
1046 1307 1046 1447 1046 1307 c
952.67 1207.67 860.17 1075.67 768.5 911 c
676.83 746.33 606 577 556 403 c
520 280.33 497 146 487 0 c
302 0 487 0 302 0 c
304 115.33 326.67 254.67 370 418 c
413.33 581.33 475.5 738.83 556.5 890.5 c
637.5 1042.17 723.67 1170 815 1274 c
97 1274 815 1274 97 1274 c
closepath } bind def
/s56 {
362 795 m
287.33 822.33 232 861.33 196 912 c
160 962.67 142 1023.33 142 1094 c
142 1200.67 180.33 1290.33 257 1363 c
333.67 1435.67 435.67 1472 563 1472 c
691 1472 794 1434.83 872 1360.5 c
950 1286.17 989 1195.67 989 1089 c
989 1021 971.17 961.83 935.5 911.5 c
899.83 861.17 845.67 822.33 773 795 c
863 765.67 931.5 718.33 978.5 653 c
1025.5 587.67 1049 509.67 1049 419 c
1049 293.67 1004.67 188.33 916 103 c
827.33 17.67 710.67 -25 566 -25 c
421.33 -25 304.67 17.83 216 103.5 c
127.33 189.17 83 296 83 424 c
83 519.33 107.17 599.17 155.5 663.5 c
203.83 727.83 272.67 771.67 362 795 c
closepath 326 1100 m
326 1030.67 348.33 974 393 930 c
437.67 886 495.67 864 567 864 c
636.33 864 693.17 885.83 737.5 929.5 c
781.83 973.17 804 1026.67 804 1090 c
804 1156 781.17 1211.5 735.5 1256.5 c
689.83 1301.5 633 1324 565 1324 c
496.33 1324 439.33 1302 394 1258 c
348.67 1214 326 1161.33 326 1100 c
closepath 268 423 m
268 371.67 280.17 322 304.5 274 c
328.83 226 365 188.83 413 162.5 c
461 136.17 512.67 123 568 123 c
654 123 725 150.67 781 206 c
837 261.33 865 331.67 865 417 c
865 503.67 836.17 575.33 778.5 632 c
720.83 688.67 648.67 717 562 717 c
477.33 717 407.17 689 351.5 633 c
295.83 577 268 507 268 423 c
closepath } bind def
/s57 {
112 339 m
285 355 112 339 285 355 c
299.67 273.67 327.67 214.67 369 178 c
410.33 141.33 463.33 123 528 123 c
583.33 123 631.83 135.67 673.5 161 c
715.17 186.33 749.33 220.17 776 262.5 c
802.67 304.83 825 362 843 434 c
861 506 870 579.33 870 654 c
870 662 869.67 674 869 690 c
833 632.67 783.83 586.17 721.5 550.5 c
659.17 514.83 591.67 497 519 497 c
397.67 497 295 541 211 629 c
127 717 85 833 85 977 c
85 1125.67 128.83 1245.33 216.5 1336 c
304.17 1426.67 414 1472 546 1472 c
641.33 1472 728.5 1446.33 807.5 1395 c
886.5 1343.67 946.5 1270.5 987.5 1175.5 c
1028.5 1080.5 1049 943 1049 763 c
1049 575.67 1028.67 426.5 988 315.5 c
947.33 204.5 886.83 120 806.5 62 c
726.17 4 632 -25 524 -25 c
409.33 -25 315.67 6.83 243 70.5 c
170.33 134.17 126.67 223.67 112 339 c
closepath 849 986 m
849 1089.33 821.5 1171.33 766.5 1232 c
711.5 1292.67 645.33 1323 568 1323 c
488 1323 418.33 1290.33 359 1225 c
299.67 1159.67 270 1075 270 971 c
270 877.67 298.17 801.83 354.5 743.5 c
410.83 685.17 480.33 656 563 656 c
646.33 656 714.83 685.17 768.5 743.5 c
822.17 801.83 849 882.67 849 986 c
closepath } bind def
/s99 {
828 389 m
1005 366 828 389 1005 366 c
985.67 244 936.17 148.5 856.5 79.5 c
776.83 10.5 679 -24 563 -24 c
417.67 -24 300.83 23.5 212.5 118.5 c
124.17 213.5 80 349.67 80 527 c
80 641.67 99 742 137 828 c
175 914 232.83 978.5 310.5 1021.5 c
388.17 1064.5 472.67 1086 564 1086 c
679.33 1086 773.67 1056.83 847 998.5 c
920.33 940.17 967.33 857.33 988 750 c
813 723 988 750 813 723 c
796.33 794.33 766.83 848 724.5 884 c
682.17 920 631 938 571 938 c
480.33 938 406.67 905.5 350 840.5 c
293.33 775.5 265 672.67 265 532 c
265 389.33 292.33 285.67 347 221 c
401.67 156.33 473 124 561 124 c
631.67 124 690.67 145.67 738 189 c
785.33 232.33 815.33 299 828 389 c
closepath } bind def
/s100 {
824 0 m
824 134 824 0 824 134 c
756.67 28.67 657.67 -24 527 -24 c
442.33 -24 364.5 -0.67 293.5 46 c
222.5 92.67 167.5 157.83 128.5 241.5 c
89.5 325.17 70 421.33 70 530 c
70 636 87.67 732.17 123 818.5 c
158.33 904.83 211.33 971 282 1017 c
352.67 1063 431.67 1086 519 1086 c
583 1086 640 1072.5 690 1045.5 c
740 1018.5 780.67 983.33 812 940 c
812 1466 812 940 812 1466 c
991 1466 812 1466 991 1466 c
991 0 991 1466 991 0 c
824 0 991 0 824 0 c
closepath 255 530 m
255 394 283.67 292.33 341 225 c
398.33 157.67 466 124 544 124 c
622.67 124 689.5 156.17 744.5 220.5 c
799.5 284.83 827 383 827 515 c
827 660.33 799 767 743 835 c
687 903 618 937 536 937 c
456 937 389.17 904.33 335.5 839 c
281.83 773.67 255 670.67 255 530 c
closepath } bind def
/s102 {
178 0 m
178 922 178 0 178 922 c
19 922 178 922 19 922 c
19 1062 19 922 19 1062 c
178 1062 19 1062 178 1062 c
178 1175 178 1062 178 1175 c
178 1246.33 184.33 1299.33 197 1334 c
214.33 1380.67 244.83 1418.5 288.5 1447.5 c
332.17 1476.5 393.33 1491 472 1491 c
522.67 1491 578.67 1485 640 1473 c
613 1316 640 1473 613 1316 c
575.67 1322.67 540.33 1326 507 1326 c
452.33 1326 413.67 1314.33 391 1291 c
368.33 1267.67 357 1224 357 1160 c
357 1062 357 1160 357 1062 c
564 1062 357 1062 564 1062 c
564 922 564 1062 564 922 c
357 922 564 922 357 922 c
357 0 357 922 357 0 c
178 0 357 0 178 0 c
closepath } bind def
/s104 {
135 0 m
135 1466 135 0 135 1466 c
315 1466 135 1466 315 1466 c
315 940 315 1466 315 940 c
399 1037.33 505 1086 633 1086 c
711.67 1086 780 1070.5 838 1039.5 c
896 1008.5 937.5 965.67 962.5 911 c
987.5 856.33 1000 777 1000 673 c
1000 0 1000 673 1000 0 c
820 0 1000 0 820 0 c
820 673 820 0 820 673 c
820 763 800.5 828.5 761.5 869.5 c
722.5 910.5 667.33 931 596 931 c
542.67 931 492.5 917.17 445.5 889.5 c
398.5 861.83 365 824.33 345 777 c
325 729.67 315 664.33 315 581 c
315 0 315 581 315 0 c
135 0 315 0 135 0 c
closepath } bind def
/s105 {
136 1259 m
136 1466 136 1259 136 1466 c
316 1466 136 1466 316 1466 c
316 1259 316 1466 316 1259 c
136 1259 316 1259 136 1259 c
closepath 136 0 m
136 1062 136 0 136 1062 c
316 1062 136 1062 316 1062 c
316 0 316 1062 316 0 c
136 0 316 0 136 0 c
closepath } bind def
/s106 {
134 1257 m
134 1466 134 1257 134 1466 c
314 1466 134 1466 314 1466 c
314 1257 314 1466 314 1257 c
134 1257 314 1257 134 1257 c
closepath -94 -412 m
-60 -259 -94 -412 -60 -259 c
-24 -268.33 4.33 -273 25 -273 c
61.67 -273 89 -260.83 107 -236.5 c
125 -212.17 134 -151.33 134 -54 c
134 1062 134 -54 134 1062 c
314 1062 134 1062 314 1062 c
314 -58 314 1062 314 -58 c
314 -188.67 297 -279.67 263 -331 c
219.67 -397.67 147.67 -431 47 -431 c
-1.67 -431 -48.67 -424.67 -94 -412 c
closepath } bind def
/s109 {
135 0 m
135 1062 135 0 135 1062 c
296 1062 135 1062 296 1062 c
296 913 296 1062 296 913 c
329.33 965 373.67 1006.83 429 1038.5 c
484.33 1070.17 547.33 1086 618 1086 c
696.67 1086 761.17 1069.67 811.5 1037 c
861.83 1004.33 897.33 958.67 918 900 c
1002 1024 1111.33 1086 1246 1086 c
1351.33 1086 1432.33 1056.83 1489 998.5 c
1545.67 940.17 1574 850.33 1574 729 c
1574 0 1574 729 1574 0 c
1395 0 1574 0 1395 0 c
1395 669 1395 0 1395 669 c
1395 741 1389.17 792.83 1377.5 824.5 c
1365.83 856.17 1344.67 881.67 1314 901 c
1283.33 920.33 1247.33 930 1206 930 c
1131.33 930 1069.33 905.17 1020 855.5 c
970.67 805.83 946 726.33 946 617 c
946 0 946 617 946 0 c
766 0 946 0 766 0 c
766 690 766 0 766 690 c
766 770 751.33 830 722 870 c
692.67 910 644.67 930 578 930 c
527.33 930 480.5 916.67 437.5 890 c
394.5 863.33 363.33 824.33 344 773 c
324.67 721.67 315 647.67 315 551 c
315 0 315 551 315 0 c
135 0 315 0 135 0 c
closepath } bind def
/s110 {
135 0 m
135 1062 135 0 135 1062 c
297 1062 135 1062 297 1062 c
297 911 297 1062 297 911 c
375 1027.67 487.67 1086 635 1086 c
699 1086 757.83 1074.5 811.5 1051.5 c
865.17 1028.5 905.33 998.33 932 961 c
958.67 923.67 977.33 879.33 988 828 c
994.67 794.67 998 736.33 998 653 c
998 0 998 653 998 0 c
818 0 998 0 818 0 c
818 646 818 0 818 646 c
818 719.33 811 774.17 797 810.5 c
783 846.83 758.17 875.83 722.5 897.5 c
686.83 919.17 645 930 597 930 c
520.33 930 454.17 905.67 398.5 857 c
342.83 808.33 315 716 315 580 c
315 0 315 580 315 0 c
135 0 315 0 135 0 c
closepath } bind def
/s111 {
68 531 m
68 727.67 122.67 873.33 232 968 c
323.33 1046.67 434.67 1086 566 1086 c
712 1086 831.33 1038.17 924 942.5 c
1016.67 846.83 1063 714.67 1063 546 c
1063 409.33 1042.5 301.83 1001.5 223.5 c
960.5 145.17 900.83 84.33 822.5 41 c
744.17 -2.33 658.67 -24 566 -24 c
417.33 -24 297.17 23.67 205.5 119 c
113.83 214.33 68 351.67 68 531 c
closepath 253 531 m
253 395 282.67 293.17 342 225.5 c
401.33 157.83 476 124 566 124 c
655.33 124 729.67 158 789 226 c
848.33 294 878 397.67 878 537 c
878 668.33 848.17 767.83 788.5 835.5 c
728.83 903.17 654.67 937 566 937 c
476 937 401.33 903.33 342 836 c
282.67 768.67 253 667 253 531 c
closepath } bind def
/s112 {
135 -407 m
135 1062 135 -407 135 1062 c
299 1062 135 1062 299 1062 c
299 924 299 1062 299 924 c
337.67 978 381.33 1018.5 430 1045.5 c
478.67 1072.5 537.67 1086 607 1086 c
697.67 1086 777.67 1062.67 847 1016 c
916.33 969.33 968.67 903.5 1004 818.5 c
1039.33 733.5 1057 640.33 1057 539 c
1057 430.33 1037.5 332.5 998.5 245.5 c
959.5 158.5 902.83 91.83 828.5 45.5 c
754.17 -0.83 676 -24 594 -24 c
534 -24 480.17 -11.33 432.5 14 c
384.83 39.33 345.67 71.33 315 110 c
315 -407 315 110 315 -407 c
135 -407 315 -407 135 -407 c
closepath 298 525 m
298 388.33 325.67 287.33 381 222 c
436.33 156.67 503.33 124 582 124 c
662 124 730.5 157.83 787.5 225.5 c
844.5 293.17 873 398 873 540 c
873 675.33 845.17 776.67 789.5 844 c
733.83 911.33 667.33 945 590 945 c
513.33 945 445.5 909.17 386.5 837.5 c
327.5 765.83 298 661.67 298 525 c
closepath } bind def
/s114 {
133 0 m
133 1062 133 0 133 1062 c
295 1062 133 1062 295 1062 c
295 901 295 1062 295 901 c
336.33 976.33 374.5 1026 409.5 1050 c
444.5 1074 483 1086 525 1086 c
585.67 1086 647.33 1066.67 710 1028 c
648 861 710 1028 648 861 c
604 887 560 900 516 900 c
476.67 900 441.33 888.17 410 864.5 c
378.67 840.83 356.33 808 343 766 c
323 702 313 632 313 556 c
313 0 313 556 313 0 c
133 0 313 0 133 0 c
closepath } bind def
/s115 {
63 317 m
241 345 63 317 241 345 c
251 273.67 278.83 219 324.5 181 c
370.17 143 434 124 516 124 c
598.67 124 660 140.83 700 174.5 c
740 208.17 760 247.67 760 293 c
760 333.67 742.33 365.67 707 389 c
682.33 405 621 425.33 523 450 c
391 483.33 299.5 512.17 248.5 536.5 c
197.5 560.83 158.83 594.5 132.5 637.5 c
106.17 680.5 93 728 93 780 c
93 827.33 103.83 871.17 125.5 911.5 c
147.17 951.83 176.67 985.33 214 1012 c
242 1032.67 280.17 1050.17 328.5 1064.5 c
376.83 1078.83 428.67 1086 484 1086 c
567.33 1086 640.5 1074 703.5 1050 c
766.5 1026 813 993.5 843 952.5 c
873 911.5 893.67 856.67 905 788 c
729 764 905 788 729 764 c
721 818.67 697.83 861.33 659.5 892 c
621.17 922.67 567 938 497 938 c
414.33 938 355.33 924.33 320 897 c
284.67 869.67 267 837.67 267 801 c
267 777.67 274.33 756.67 289 738 c
303.67 718.67 326.67 702.67 358 690 c
376 683.33 429 668 517 644 c
644.33 610 733.17 582.17 783.5 560.5 c
833.83 538.83 873.33 507.33 902 466 c
930.67 424.67 945 373.33 945 312 c
945 252 927.5 195.5 892.5 142.5 c
857.5 89.5 807 48.5 741 19.5 c
675 -9.5 600.33 -24 517 -24 c
379 -24 273.83 4.67 201.5 62 c
129.17 119.33 83 204.33 63 317 c
closepath } bind def
/s117 {
831 0 m
831 156 831 0 831 156 c
748.33 36 636 -24 494 -24 c
431.33 -24 372.83 -12 318.5 12 c
264.17 36 223.83 66.17 197.5 102.5 c
171.17 138.83 152.67 183.33 142 236 c
134.67 271.33 131 327.33 131 404 c
131 1062 131 404 131 1062 c
311 1062 131 1062 311 1062 c
311 473 311 1062 311 473 c
311 379 314.67 315.67 322 283 c
333.33 235.67 357.33 198.5 394 171.5 c
430.67 144.5 476 131 530 131 c
584 131 634.67 144.83 682 172.5 c
729.33 200.17 762.83 237.83 782.5 285.5 c
802.17 333.17 812 402.33 812 493 c
812 1062 812 493 812 1062 c
992 1062 812 1062 992 1062 c
992 0 992 1062 992 0 c
831 0 992 0 831 0 c
closepath } bind def
/s120 {
15 0 m
403 552 15 0 403 552 c
44 1062 403 552 44 1062 c
269 1062 44 1062 269 1062 c
432 813 269 1062 432 813 c
462.67 765.67 487.33 726 506 694 c
535.33 738 562.33 777 587 811 c
766 1062 587 811 766 1062 c
981 1062 766 1062 981 1062 c
614 562 981 1062 614 562 c
1009 0 614 562 1009 0 c
788 0 1009 0 788 0 c
570 330 788 0 570 330 c
512 419 570 330 512 419 c
233 0 512 419 233 0 c
15 0 233 0 15 0 c
closepath } bind def
/s121 {
127 -409 m
107 -240 127 -409 107 -240 c
146.33 -250.67 180.67 -256 210 -256 c
250 -256 282 -249.33 306 -236 c
330 -222.67 349.67 -204 365 -180 c
376.33 -162 394.67 -117.33 420 -46 c
423.33 -36 428.67 -21.33 436 -2 c
33 1062 436 -2 33 1062 c
227 1062 33 1062 227 1062 c
448 447 227 1062 448 447 c
476.67 369 502.33 287 525 201 c
545.67 283.67 570.33 364.33 599 443 c
826 1062 599 443 826 1062 c
1006 1062 826 1062 1006 1062 c
602 -18 1006 1062 602 -18 c
558.67 -134.67 525 -215 501 -259 c
469 -318.33 432.33 -361.83 391 -389.5 c
349.67 -417.17 300.33 -431 243 -431 c
208.33 -431 169.67 -423.67 127 -409 c
closepath } bind def
end
/BuildGlyph {
 exch dup /Metrics get 2 index get 0 setcharwidth
/CharProcs get exch 2 copy known not{pop/.notdef}if get exec fill}bind def
/BuildChar {
1 index /Encoding get exch get
1 index /BuildGlyph get exec
} bind def
currentdict end /MC1_Arial exch definefont pop
%%EndFont
%%BeginFont: /MC2_Arial
12 dict begin
/FontInfo 8 dict dup begin
/ItalicAngle 0 def
/UnderlinePosition -217.00 def
/UnderlineThickness 150.00 def
/StrikeoutPosition 530.00 def
/StrikeoutThickness 102.00 def
/isFixedPitch false def
end readonly def
/FontName /MC2_Arial def
/FontType 3 def
/FontMatrix [1 2048 div 0 0 1 2048 div 0 0] def
/FontBBox [-1361 -665 4096 2060] def
/Encoding 256 array def 0 1 255{Encoding exch/.notdef put}for
Encoding 32/s32 put
Encoding 46/s46 put
Encoding 47/s47 put
Encoding 67/s67 put
Encoding 68/s68 put
Encoding 69/s69 put
Encoding 78/s78 put
Encoding 80/s80 put
Encoding 82/s82 put
Encoding 97/s97 put
Encoding 99/s99 put
Encoding 101/s101 put
Encoding 102/s102 put
Encoding 105/s105 put
Encoding 108/s108 put
Encoding 109/s109 put
Encoding 111/s111 put
Encoding 114/s114 put
Encoding 115/s115 put
Encoding 116/s116 put
Encoding 118/s118 put
Encoding 121/s121 put
/BoundingBoxes 23 dict def
BoundingBoxes begin
/s32 [0 -434 569 1854] def
/s46 [0 -434 569 1854] def
/s47 [0 -434 569 1854] def
/s67 [0 -434 1479 1854] def
/s68 [0 -434 1479 1854] def
/s69 [0 -434 1366 1854] def
/s78 [0 -434 1479 1854] def
/s80 [0 -434 1366 1854] def
/s82 [0 -434 1479 1854] def
/s97 [0 -434 1139 1854] def
/s99 [0 -434 1024 1854] def
/s101 [0 -434 1139 1854] def
/s102 [0 -434 569 1854] def
/s105 [0 -434 455 1854] def
/s108 [0 -434 455 1854] def
/s109 [0 -434 1706 1854] def
/s111 [0 -434 1139 1854] def
/s114 [0 -434 682 1854] def
/s115 [0 -434 1024 1854] def
/s116 [0 -434 569 1854] def
/s118 [0 -434 1024 1854] def
/s121 [0 -434 1024 1854] def
end
/Metrics 23 dict def
 Metrics begin
/s32 569 def
/s46 569 def
/s47 569 def
/s67 1479 def
/s68 1479 def
/s69 1366 def
/s78 1479 def
/s80 1366 def
/s82 1479 def
/s97 1139 def
/s99 1024 def
/s101 1139 def
/s102 569 def
/s105 455 def
/s108 455 def
/s109 1706 def
/s111 1139 def
/s114 682 def
/s115 1024 def
/s116 569 def
/s118 1024 def
/s121 1024 def
end
/CharProcs 23 dict def
CharProcs begin
/.notdef {} def
/s46 {
186 0 m
186 205 186 0 186 205 c
391 205 186 205 391 205 c
391 0 391 205 391 0 c
186 0 391 0 186 0 c
closepath } bind def
/s47 {
0 -25 m
425 1491 0 -25 425 1491 c
569 1491 425 1491 569 1491 c
145 -25 569 1491 145 -25 c
0 -25 145 -25 0 -25 c
closepath } bind def
/s67 {
1204 514 m
1398 465 1204 514 1398 465 c
1357.33 305.67 1284.17 184.17 1178.5 100.5 c
1072.83 16.83 943.67 -25 791 -25 c
633 -25 504.5 7.17 405.5 71.5 c
306.5 135.83 231.17 229 179.5 351 c
127.83 473 102 604 102 744 c
102 896.67 131.17 1029.83 189.5 1143.5 c
247.83 1257.17 330.83 1343.5 438.5 1402.5 c
546.17 1461.5 664.67 1491 794 1491 c
940.67 1491 1064 1453.67 1164 1379 c
1264 1304.33 1333.67 1199.33 1373 1064 c
1182 1019 1373 1064 1182 1019 c
1148 1125.67 1098.67 1203.33 1034 1252 c
969.33 1300.67 888 1325 790 1325 c
677.33 1325 583.17 1298 507.5 1244 c
431.83 1190 378.67 1117.5 348 1026.5 c
317.33 935.5 302 841.67 302 745 c
302 620.33 320.17 511.5 356.5 418.5 c
392.83 325.5 449.33 256 526 210 c
602.67 164 685.67 141 775 141 c
883.67 141 975.67 172.33 1051 235 c
1126.33 297.67 1177.33 390.67 1204 514 c
closepath } bind def
/s68 {
158 0 m
158 1466 158 0 158 1466 c
663 1466 158 1466 663 1466 c
777 1466 864 1459 924 1445 c
1008 1425.67 1079.67 1390.67 1139 1340 c
1216.33 1274.67 1274.17 1191.17 1312.5 1089.5 c
1350.83 987.83 1370 871.67 1370 741 c
1370 629.67 1357 531 1331 445 c
1305 359 1271.67 287.83 1231 231.5 c
1190.33 175.17 1145.83 130.83 1097.5 98.5 c
1049.17 66.17 990.83 41.67 922.5 25 c
854.17 8.33 775.67 0 687 0 c
158 0 687 0 158 0 c
closepath 352 173 m
665 173 352 173 665 173 c
761.67 173 837.5 182 892.5 200 c
947.5 218 991.33 243.33 1024 276 c
1070 322 1105.83 383.83 1131.5 461.5 c
1157.17 539.17 1170 633.33 1170 744 c
1170 897.33 1144.83 1015.17 1094.5 1097.5 c
1044.17 1179.83 983 1235 911 1263 c
859 1283 775.33 1293 660 1293 c
352 1293 660 1293 352 1293 c
352 173 352 1293 352 173 c
closepath } bind def
/s69 {
162 0 m
162 1466 162 0 162 1466 c
1222 1466 162 1466 1222 1466 c
1222 1293 1222 1466 1222 1293 c
356 1293 1222 1293 356 1293 c
356 844 356 1293 356 844 c
1167 844 356 844 1167 844 c
1167 672 1167 844 1167 672 c
356 672 1167 672 356 672 c
356 173 356 672 356 173 c
1256 173 356 173 1256 173 c
1256 0 1256 173 1256 0 c
162 0 1256 0 162 0 c
closepath } bind def
/s78 {
156 0 m
156 1466 156 0 156 1466 c
355 1466 156 1466 355 1466 c
1125 315 355 1466 1125 315 c
1125 1466 1125 315 1125 1466 c
1311 1466 1125 1466 1311 1466 c
1311 0 1311 1466 1311 0 c
1112 0 1311 0 1112 0 c
342 1152 1112 0 342 1152 c
342 0 342 1152 342 0 c
156 0 342 0 156 0 c
closepath } bind def
/s80 {
158 0 m
158 1466 158 0 158 1466 c
711 1466 158 1466 711 1466 c
808.33 1466 882.67 1461.33 934 1452 c
1006 1440 1066.33 1417.17 1115 1383.5 c
1163.67 1349.83 1202.83 1302.67 1232.5 1242 c
1262.17 1181.33 1277 1114.67 1277 1042 c
1277 917.33 1237.33 811.83 1158 725.5 c
1078.67 639.17 935.33 596 728 596 c
352 596 728 596 352 596 c
352 0 352 596 352 0 c
158 0 352 0 158 0 c
closepath 352 769 m
731 769 352 769 731 769 c
856.33 769 945.33 792.33 998 839 c
1050.67 885.67 1077 951.33 1077 1036 c
1077 1097.33 1061.5 1149.83 1030.5 1193.5 c
999.5 1237.17 958.67 1266 908 1280 c
875.33 1288.67 815 1293 727 1293 c
352 1293 727 1293 352 1293 c
352 769 352 1293 352 769 c
closepath } bind def
/s82 {
161 0 m
161 1466 161 0 161 1466 c
811 1466 161 1466 811 1466 c
941.67 1466 1041 1452.83 1109 1426.5 c
1177 1400.17 1231.33 1353.67 1272 1287 c
1312.67 1220.33 1333 1146.67 1333 1066 c
1333 962 1299.33 874.33 1232 803 c
1164.67 731.67 1060.67 686.33 920 667 c
971.33 642.33 1010.33 618 1037 594 c
1093.67 542 1147.33 477 1198 399 c
1453 0 1198 399 1453 0 c
1209 0 1453 0 1209 0 c
1015 305 1209 0 1015 305 c
958.33 393 911.67 460.33 875 507 c
838.33 553.67 805.5 586.33 776.5 605 c
747.5 623.67 718 636.67 688 644 c
666 648.67 630 651 580 651 c
355 651 580 651 355 651 c
355 0 355 651 355 0 c
161 0 355 0 161 0 c
closepath 355 819 m
772 819 355 819 772 819 c
860.67 819 930 828.17 980 846.5 c
1030 864.83 1068 894.17 1094 934.5 c
1120 974.83 1133 1018.67 1133 1066 c
1133 1135.33 1107.83 1192.33 1057.5 1237 c
1007.17 1281.67 927.67 1304 819 1304 c
355 1304 819 1304 355 1304 c
355 819 355 1304 355 819 c
closepath } bind def
/s97 {
828 131 m
761.33 74.33 697.17 34.33 635.5 11 c
573.83 -12.33 507.67 -24 437 -24 c
320.33 -24 230.67 4.5 168 61.5 c
105.33 118.5 74 191.33 74 280 c
74 332 85.83 379.5 109.5 422.5 c
133.17 465.5 164.17 500 202.5 526 c
240.83 552 284 571.67 332 585 c
367.33 594.33 420.67 603.33 492 612 c
637.33 629.33 744.33 650 813 674 c
813.67 698.67 814 714.33 814 721 c
814 794.33 797 846 763 876 c
717 916.67 648.67 937 558 937 c
473.33 937 410.83 922.17 370.5 892.5 c
330.17 862.83 300.33 810.33 281 735 c
105 759 281 735 105 759 c
121 834.33 147.33 895.17 184 941.5 c
220.67 987.83 273.67 1023.5 343 1048.5 c
412.33 1073.5 492.67 1086 584 1086 c
674.67 1086 748.33 1075.33 805 1054 c
861.67 1032.67 903.33 1005.83 930 973.5 c
956.67 941.17 975.33 900.33 986 851 c
992 820.33 995 765 995 685 c
995 445 995 685 995 445 c
995 277.67 998.83 171.83 1006.5 127.5 c
1014.17 83.17 1029.33 40.67 1052 0 c
864 0 1052 0 864 0 c
845.33 37.33 833.33 81 828 131 c
closepath 813 533 m
747.67 506.33 649.67 483.67 519 465 c
445 454.33 392.67 442.33 362 429 c
331.33 415.67 307.67 396.17 291 370.5 c
274.33 344.83 266 316.33 266 285 c
266 237 284.17 197 320.5 165 c
356.83 133 410 117 480 117 c
549.33 117 611 132.17 665 162.5 c
719 192.83 758.67 234.33 784 287 c
803.33 327.67 813 387.67 813 467 c
813 533 813 467 813 533 c
closepath } bind def
/s99 {
828 389 m
1005 366 828 389 1005 366 c
985.67 244 936.17 148.5 856.5 79.5 c
776.83 10.5 679 -24 563 -24 c
417.67 -24 300.83 23.5 212.5 118.5 c
124.17 213.5 80 349.67 80 527 c
80 641.67 99 742 137 828 c
175 914 232.83 978.5 310.5 1021.5 c
388.17 1064.5 472.67 1086 564 1086 c
679.33 1086 773.67 1056.83 847 998.5 c
920.33 940.17 967.33 857.33 988 750 c
813 723 988 750 813 723 c
796.33 794.33 766.83 848 724.5 884 c
682.17 920 631 938 571 938 c
480.33 938 406.67 905.5 350 840.5 c
293.33 775.5 265 672.67 265 532 c
265 389.33 292.33 285.67 347 221 c
401.67 156.33 473 124 561 124 c
631.67 124 690.67 145.67 738 189 c
785.33 232.33 815.33 299 828 389 c
closepath } bind def
/s101 {
862 342 m
1048 319 862 342 1048 319 c
1018.67 210.33 964.33 126 885 66 c
805.67 6 704.33 -24 581 -24 c
425.67 -24 302.5 23.83 211.5 119.5 c
120.5 215.17 75 349.33 75 522 c
75 700.67 121 839.33 213 938 c
305 1036.67 424.33 1086 571 1086 c
713 1086 829 1037.67 919 941 c
1009 844.33 1054 708.33 1054 533 c
1054 522.33 1053.67 506.33 1053 485 c
261 485 1053 485 261 485 c
267.67 368.33 300.67 279 360 217 c
419.33 155 493.33 124 582 124 c
648 124 704.33 141.33 751 176 c
797.67 210.67 834.67 266 862 342 c
closepath 271 633 m
864 633 271 633 864 633 c
856 722.33 833.33 789.33 796 834 c
738.67 903.33 664.33 938 573 938 c
490.33 938 420.83 910.33 364.5 855 c
308.17 799.67 277 725.67 271 633 c
closepath } bind def
/s102 {
178 0 m
178 922 178 0 178 922 c
19 922 178 922 19 922 c
19 1062 19 922 19 1062 c
178 1062 19 1062 178 1062 c
178 1175 178 1062 178 1175 c
178 1246.33 184.33 1299.33 197 1334 c
214.33 1380.67 244.83 1418.5 288.5 1447.5 c
332.17 1476.5 393.33 1491 472 1491 c
522.67 1491 578.67 1485 640 1473 c
613 1316 640 1473 613 1316 c
575.67 1322.67 540.33 1326 507 1326 c
452.33 1326 413.67 1314.33 391 1291 c
368.33 1267.67 357 1224 357 1160 c
357 1062 357 1160 357 1062 c
564 1062 357 1062 564 1062 c
564 922 564 1062 564 922 c
357 922 564 922 357 922 c
357 0 357 922 357 0 c
178 0 357 0 178 0 c
closepath } bind def
/s105 {
136 1259 m
136 1466 136 1259 136 1466 c
316 1466 136 1466 316 1466 c
316 1259 316 1466 316 1259 c
136 1259 316 1259 136 1259 c
closepath 136 0 m
136 1062 136 0 136 1062 c
316 1062 136 1062 316 1062 c
316 0 316 1062 316 0 c
136 0 316 0 136 0 c
closepath } bind def
/s108 {
131 0 m
131 1466 131 0 131 1466 c
311 1466 131 1466 311 1466 c
311 0 311 1466 311 0 c
131 0 311 0 131 0 c
closepath } bind def
/s109 {
135 0 m
135 1062 135 0 135 1062 c
296 1062 135 1062 296 1062 c
296 913 296 1062 296 913 c
329.33 965 373.67 1006.83 429 1038.5 c
484.33 1070.17 547.33 1086 618 1086 c
696.67 1086 761.17 1069.67 811.5 1037 c
861.83 1004.33 897.33 958.67 918 900 c
1002 1024 1111.33 1086 1246 1086 c
1351.33 1086 1432.33 1056.83 1489 998.5 c
1545.67 940.17 1574 850.33 1574 729 c
1574 0 1574 729 1574 0 c
1395 0 1574 0 1395 0 c
1395 669 1395 0 1395 669 c
1395 741 1389.17 792.83 1377.5 824.5 c
1365.83 856.17 1344.67 881.67 1314 901 c
1283.33 920.33 1247.33 930 1206 930 c
1131.33 930 1069.33 905.17 1020 855.5 c
970.67 805.83 946 726.33 946 617 c
946 0 946 617 946 0 c
766 0 946 0 766 0 c
766 690 766 0 766 690 c
766 770 751.33 830 722 870 c
692.67 910 644.67 930 578 930 c
527.33 930 480.5 916.67 437.5 890 c
394.5 863.33 363.33 824.33 344 773 c
324.67 721.67 315 647.67 315 551 c
315 0 315 551 315 0 c
135 0 315 0 135 0 c
closepath } bind def
/s111 {
68 531 m
68 727.67 122.67 873.33 232 968 c
323.33 1046.67 434.67 1086 566 1086 c
712 1086 831.33 1038.17 924 942.5 c
1016.67 846.83 1063 714.67 1063 546 c
1063 409.33 1042.5 301.83 1001.5 223.5 c
960.5 145.17 900.83 84.33 822.5 41 c
744.17 -2.33 658.67 -24 566 -24 c
417.33 -24 297.17 23.67 205.5 119 c
113.83 214.33 68 351.67 68 531 c
closepath 253 531 m
253 395 282.67 293.17 342 225.5 c
401.33 157.83 476 124 566 124 c
655.33 124 729.67 158 789 226 c
848.33 294 878 397.67 878 537 c
878 668.33 848.17 767.83 788.5 835.5 c
728.83 903.17 654.67 937 566 937 c
476 937 401.33 903.33 342 836 c
282.67 768.67 253 667 253 531 c
closepath } bind def
/s114 {
133 0 m
133 1062 133 0 133 1062 c
295 1062 133 1062 295 1062 c
295 901 295 1062 295 901 c
336.33 976.33 374.5 1026 409.5 1050 c
444.5 1074 483 1086 525 1086 c
585.67 1086 647.33 1066.67 710 1028 c
648 861 710 1028 648 861 c
604 887 560 900 516 900 c
476.67 900 441.33 888.17 410 864.5 c
378.67 840.83 356.33 808 343 766 c
323 702 313 632 313 556 c
313 0 313 556 313 0 c
133 0 313 0 133 0 c
closepath } bind def
/s115 {
63 317 m
241 345 63 317 241 345 c
251 273.67 278.83 219 324.5 181 c
370.17 143 434 124 516 124 c
598.67 124 660 140.83 700 174.5 c
740 208.17 760 247.67 760 293 c
760 333.67 742.33 365.67 707 389 c
682.33 405 621 425.33 523 450 c
391 483.33 299.5 512.17 248.5 536.5 c
197.5 560.83 158.83 594.5 132.5 637.5 c
106.17 680.5 93 728 93 780 c
93 827.33 103.83 871.17 125.5 911.5 c
147.17 951.83 176.67 985.33 214 1012 c
242 1032.67 280.17 1050.17 328.5 1064.5 c
376.83 1078.83 428.67 1086 484 1086 c
567.33 1086 640.5 1074 703.5 1050 c
766.5 1026 813 993.5 843 952.5 c
873 911.5 893.67 856.67 905 788 c
729 764 905 788 729 764 c
721 818.67 697.83 861.33 659.5 892 c
621.17 922.67 567 938 497 938 c
414.33 938 355.33 924.33 320 897 c
284.67 869.67 267 837.67 267 801 c
267 777.67 274.33 756.67 289 738 c
303.67 718.67 326.67 702.67 358 690 c
376 683.33 429 668 517 644 c
644.33 610 733.17 582.17 783.5 560.5 c
833.83 538.83 873.33 507.33 902 466 c
930.67 424.67 945 373.33 945 312 c
945 252 927.5 195.5 892.5 142.5 c
857.5 89.5 807 48.5 741 19.5 c
675 -9.5 600.33 -24 517 -24 c
379 -24 273.83 4.67 201.5 62 c
129.17 119.33 83 204.33 63 317 c
closepath } bind def
/s116 {
528 161 m
554 2 528 161 554 2 c
503.33 -8.67 458 -14 418 -14 c
352.67 -14 302 -3.67 266 17 c
230 37.67 204.67 64.83 190 98.5 c
175.33 132.17 168 203 168 311 c
168 922 168 311 168 922 c
36 922 168 922 36 922 c
36 1062 36 922 36 1062 c
168 1062 36 1062 168 1062 c
168 1325 168 1062 168 1325 c
347 1433 168 1325 347 1433 c
347 1062 347 1433 347 1062 c
528 1062 347 1062 528 1062 c
528 922 528 1062 528 922 c
347 922 528 922 347 922 c
347 301 347 922 347 301 c
347 249.67 350.17 216.67 356.5 202 c
362.83 187.33 373.17 175.67 387.5 167 c
401.83 158.33 422.33 154 449 154 c
469 154 495.33 156.33 528 161 c
closepath } bind def
/s118 {
430 0 m
26 1062 430 0 26 1062 c
216 1062 26 1062 216 1062 c
444 426 216 1062 444 426 c
468.67 357.33 491.33 286 512 212 c
528 268 550.33 335.33 579 414 c
815 1062 579 414 815 1062 c
1000 1062 815 1062 1000 1062 c
598 0 1000 1062 598 0 c
430 0 598 0 430 0 c
closepath } bind def
/s121 {
127 -409 m
107 -240 127 -409 107 -240 c
146.33 -250.67 180.67 -256 210 -256 c
250 -256 282 -249.33 306 -236 c
330 -222.67 349.67 -204 365 -180 c
376.33 -162 394.67 -117.33 420 -46 c
423.33 -36 428.67 -21.33 436 -2 c
33 1062 436 -2 33 1062 c
227 1062 33 1062 227 1062 c
448 447 227 1062 448 447 c
476.67 369 502.33 287 525 201 c
545.67 283.67 570.33 364.33 599 443 c
826 1062 599 443 826 1062 c
1006 1062 826 1062 1006 1062 c
602 -18 1006 1062 602 -18 c
558.67 -134.67 525 -215 501 -259 c
469 -318.33 432.33 -361.83 391 -389.5 c
349.67 -417.17 300.33 -431 243 -431 c
208.33 -431 169.67 -423.67 127 -409 c
closepath } bind def
end
/BuildGlyph {
 exch dup /Metrics get 2 index get 0 setcharwidth
/CharProcs get exch 2 copy known not{pop/.notdef}if get exec fill}bind def
/BuildChar {
1 index /Encoding get exch get
1 index /BuildGlyph get exec
} bind def
currentdict end /MC2_Arial exch definefont pop
%%EndFont
%%BeginFont: /MC3_Arial
12 dict begin
/FontInfo 8 dict dup begin
/ItalicAngle 0 def
/UnderlinePosition -217.00 def
/UnderlineThickness 150.00 def
/StrikeoutPosition 530.00 def
/StrikeoutThickness 102.00 def
/isFixedPitch false def
end readonly def
/FontName /MC3_Arial def
/FontType 3 def
/FontMatrix [1 2048 div 0 0 1 2048 div 0 0] def
/FontBBox [-1361 -665 4096 2060] def
/Encoding 256 array def 0 1 255{Encoding exch/.notdef put}for
Encoding 32/s32 put
/BoundingBoxes 2 dict def
BoundingBoxes begin
/s32 [0 -434 569 1854] def
end
/Metrics 2 dict def
 Metrics begin
/s32 569 def
end
/CharProcs 2 dict def
CharProcs begin
/.notdef {} def
end
/BuildGlyph {
 exch dup /Metrics get 2 index get 0 setcharwidth
/CharProcs get exch 2 copy known not{pop/.notdef}if get exec fill}bind def
/BuildChar {
1 index /Encoding get exch get
1 index /BuildGlyph get exec
} bind def
currentdict end /MC3_Arial exch definefont pop
%%EndFont
/clipproc{clippath{[{/m cvx}{/l cvx}{/c cvx}{/cp cvx}pathforall}stopped
{cleartomark[pathbbox exch 3 i sub exch 2 i sub/rectpath cvx}if]np}bd
/iclmtx mtx cmtx def/iclpath clipproc xd/clinit{pathproc initclip np iclpath cl np exec}bd
/clmove{pathproc 3 1 roll clippath pathproc 2 i neg 2 i neg tr initclip np exec cl tr np exec}bd
/clrect[gs np iclpath{pathbbox}stopped{0 0 720 360 }if gr]def
/cloper{mtx cmtx iclmtx smtx exch exec smtx}bd
/cland{{exch cvx exec}cloper}bd
/clcopy{{exch clinit cvx exec}cloper}bd
/cldiff{{exch pathbbox 4 -1 roll clrect 0 get 2 copy gt{exch}if pop 4 1 roll
 3 -1 roll clrect 1 get 2 copy gt{exch}if pop 3 1 roll
 2 -1 roll clrect 2 get 2 copy lt{exch}if pop 2 1 roll
 1 -1 roll clrect 3 get 2 copy lt{exch}if pop 1 1 roll
 exch 3 i sub exch 2 i sub rectpath cvx exec}cloper}bd
/icl{{clinit}cloper}bd
0.239949 0.239944 sc

/initmtx mtx cmtx def
[1.00022 -0 0 -1.00025 0 1500.35] concat
gs
496 1061 m
2549 1061 l
2 sw
0.753 0.753 0.753 rgb
1 sj
1 scap
st
496 883 m
2549 883 l
st
496 705 m
2549 705 l
st
496 528 m
2549 528 l
st
496 350 m
2549 350 l
st
496 172 m
2549 172 l
st
496 972 m
2549 972 l
3 sw
st
496 794 m
2549 794 l
st
496 617 m
2549 617 l
st
496 439 m
2549 439 l
st
496 261 m
2549 261 l
st
gs
pathproc 496 83 2054 1068 np rectpath
/eocl cland
np exec
608 116 m
757 116 l
757 1150 l
608 1150 l
cp
gs
eofi
gr
st
608 116 m
757 116 l
0 0 0 rgb
st
757 116 m
757 1150 l
st
608 1150 m
608 116 l
st
795 645 m
944 645 l
944 1150 l
795 1150 l
cp
gs
0.753 0.753 0.753 rgb
eofi
gr
0.753 0.753 0.753 rgb
st
795 645 m
944 645 l
0 0 0 rgb
st
944 645 m
944 1150 l
st
795 1150 m
795 645 l
st
981 261 m
1131 261 l
1131 1150 l
981 1150 l
cp
gs
0.753 0.753 0.753 rgb
eofi
gr
0.753 0.753 0.753 rgb
st
981 261 m
1131 261 l
0 0 0 rgb
st
1131 261 m
1131 1150 l
st
981 1150 m
981 261 l
st
1168 406 m
1317 406 l
1317 1150 l
1168 1150 l
cp
gs
0.753 0.753 0.753 rgb
eofi
gr
0.753 0.753 0.753 rgb
st
1168 406 m
1317 406 l
0 0 0 rgb
st
1317 406 m
1317 1150 l
st
1168 1150 m
1168 406 l
st
1355 428 m
1504 428 l
1504 1150 l
1355 1150 l
cp
gs
0.753 0.753 0.753 rgb
eofi
gr
0.753 0.753 0.753 rgb
st
1355 428 m
1504 428 l
0 0 0 rgb
st
1504 428 m
1504 1150 l
st
1355 1150 m
1355 428 l
st
1541 729 m
1690 729 l
1690 1150 l
1541 1150 l
cp
gs
0.753 0.753 0.753 rgb
eofi
gr
0.753 0.753 0.753 rgb
st
1541 729 m
1690 729 l
0 0 0 rgb
st
1690 729 m
1690 1150 l
st
1541 1150 m
1541 729 l
st
1728 438 m
1877 438 l
1877 1150 l
1728 1150 l
cp
gs
0.753 0.753 0.753 rgb
eofi
gr
0.753 0.753 0.753 rgb
st
1728 438 m
1877 438 l
0 0 0 rgb
st
1877 438 m
1877 1150 l
st
1728 1150 m
1728 438 l
st
1914 261 m
2064 261 l
2064 1150 l
1914 1150 l
cp
gs
0.753 0.753 0.753 rgb
eofi
gr
0.753 0.753 0.753 rgb
st
1914 261 m
2064 261 l
0 0 0 rgb
st
2064 261 m
2064 1150 l
st
1914 1150 m
1914 261 l
st
2101 181 m
2250 181 l
2250 1150 l
2101 1150 l
cp
gs
0.753 0.753 0.753 rgb
eofi
gr
0.753 0.753 0.753 rgb
st
2101 181 m
2250 181 l
0 0 0 rgb
st
2250 181 m
2250 1150 l
st
2101 1150 m
2101 181 l
st
2288 576 m
2437 576 l
2437 1150 l
2288 1150 l
cp
gs
0.753 0.753 0.753 rgb
eofi
gr
0.753 0.753 0.753 rgb
st
2288 576 m
2437 576 l
0 0 0 rgb
st
2437 576 m
2437 1150 l
st
2288 1150 m
2288 576 l
st
gr
gs
pathproc 497 83 2053 1068 np rectpath
/eocl cland
np exec
684 50 m
748 161 l
619 161 l
cp
gs
1 0 0 rgb
eofi
gr
8 sw
1 0 0 rgb
st
870 788 m
934 899 l
805 899 l
cp
gs
eofi
gr
st
1057 228 m
1121 339 l
992 339 l
cp
gs
eofi
gr
st
1243 396 m
1307 507 l
1178 507 l
cp
gs
eofi
gr
st
1430 437 m
1494 548 l
1365 548 l
cp
gs
eofi
gr
st
1616 939 m
1680 1050 l
1551 1050 l
cp
gs
eofi
gr
st
1803 456 m
1867 567 l
1738 567 l
cp
gs
eofi
gr
st
1989 227 m
2053 338 l
1924 338 l
cp
gs
eofi
gr
st
2176 130 m
2240 241 l
2111 241 l
cp
gs
eofi
gr
st
2362 687 m
2426 798 l
2297 798 l
cp
gs
eofi
gr
st
gr
gs
gs
1 -1 sc
650 -1370 tr
45 ro
0 0 0 rgb
/MC1_Arial 142 self 0 0 m
(cfs)[71 39 71 ] xs
1 -1 sc
gr
gr
gs
gs
1 -1 sc
858 -1348 tr
45 ro
0 0 0 rgb
/MC1_Arial 142 self 0 0 m
(fin)[39 32 79 ] xs
1 -1 sc
gr
gr
gs
gs
1 -1 sc
1012 -1381 tr
45 ro
0 0 0 rgb
/MC1_Arial 142 self 0 0 m
(hm)[79 118 ] xs
1 -1 sc
gr
gr
gs
gs
1 -1 sc
1148 -1431 tr
45 ro
0 0 0 rgb
/MC1_Arial 142 self 0 0 m
(mds)[118 79 71 ] xs
1 -1 sc
gr
gr
gs
gs
1 -1 sc
1257 -1509 tr
45 ro
0 0 0 rgb
/MC1_Arial 142 self 0 0 m
(msnfs)[118 71 79 39 71 ] xs
1 -1 sc
gr
gr
gs
gs
1 -1 sc
1523 -1429 tr
45 ro
0 0 0 rgb
/MC1_Arial 142 self 0 0 m
(prxy)[79 47 70 69 ] xs
1 -1 sc
gr
gr
gs
gs
1 -1 sc
1752 -1387 tr
45 ro
0 0 0 rgb
/MC1_Arial 142 self 0 0 m
(prn)[79 47 79 ] xs
1 -1 sc
gr
gr
gs
gs
1 -1 sc
1916 -1409 tr
45 ro
0 0 0 rgb
/MC1_Arial 142 self 0 0 m
(proj)[79 47 79 32 ] xs
1 -1 sc
gr
gr
gs
gs
1 -1 sc
2132 -1381 tr
45 ro
0 0 0 rgb
/MC1_Arial 142 self 0 0 m
(usr)[79 71 47 ] xs
1 -1 sc
gr
gr
gs
gs
1 -1 sc
2267 -1432 tr
45 ro
0 0 0 rgb
/MC1_Arial 142 self 0 0 m
(hpio)[79 79 32 79 ] xs
1 -1 sc
gr
gr
gs
1 -1 sc
0 0 0 rgb
/MC1_Arial 150 self 251 -1195 m
(0.4)[83 42 83 ] xs
1 -1 sc
gr
gs
1 -1 sc
0 0 0 rgb
/MC1_Arial 150 self 251 -1017 m
(0.5)[83 42 83 ] xs
1 -1 sc
gr
gs
1 -1 sc
0 0 0 rgb
/MC1_Arial 150 self 251 -839 m
(0.6)[83 42 83 ] xs
1 -1 sc
gr
gs
1 -1 sc
0 0 0 rgb
/MC1_Arial 150 self 251 -662 m
(0.7)[83 42 83 ] xs
1 -1 sc
gr
gs
1 -1 sc
0 0 0 rgb
/MC1_Arial 150 self 251 -484 m
(0.8)[83 42 83 ] xs
1 -1 sc
gr
gs
1 -1 sc
0 0 0 rgb
/MC1_Arial 150 self 251 -306 m
(0.9)[83 42 83 ] xs
1 -1 sc
gr
gs
1 -1 sc
0 0 0 rgb
/MC1_Arial 150 self 251 -128 m
(1.0)[83 42 83 ] xs
1 -1 sc
gr
496 1150 m
496 1150 l
7 sw
0 0 0 rgb
st
589 1167 m
589 1150 l
st
683 1150 m
683 1150 l
st
776 1167 m
776 1150 l
st
869 1150 m
869 1150 l
st
963 1167 m
963 1150 l
st
1056 1150 m
1056 1150 l
st
1149 1167 m
1149 1150 l
st
1243 1150 m
1243 1150 l
st
1336 1167 m
1336 1150 l
st
1429 1150 m
1429 1150 l
st
1523 1167 m
1523 1150 l
st
1616 1150 m
1616 1150 l
st
1709 1167 m
1709 1150 l
st
1802 1150 m
1802 1150 l
st
1896 1167 m
1896 1150 l
st
1989 1150 m
1989 1150 l
st
2082 1167 m
2082 1150 l
st
2176 1150 m
2176 1150 l
st
2269 1167 m
2269 1150 l
st
2362 1150 m
2362 1150 l
st
2456 1167 m
2456 1150 l
st
2549 1150 m
2549 1150 l
st
496 1150 m
2549 1150 l
st
496 1150 m
530 1150 l
0.753 0.753 0.753 rgb
st
496 1061 m
513 1061 l
st
496 972 m
530 972 l
st
496 883 m
513 883 l
st
496 794 m
530 794 l
st
496 705 m
513 705 l
st
496 617 m
530 617 l
st
496 528 m
513 528 l
st
496 439 m
530 439 l
st
496 350 m
513 350 l
st
496 261 m
530 261 l
st
496 172 m
513 172 l
st
496 83 m
530 83 l
st
496 1150 m
496 83 l
st
496 83 m
496 83 l
0 0 0 rgb
st
589 83 m
589 83 l
st
683 83 m
683 83 l
st
776 83 m
776 83 l
st
869 83 m
869 83 l
st
963 83 m
963 83 l
st
1056 83 m
1056 83 l
st
1149 83 m
1149 83 l
st
1243 83 m
1243 83 l
st
1336 83 m
1336 83 l
st
1429 83 m
1429 83 l
st
1523 83 m
1523 83 l
st
1616 83 m
1616 83 l
st
1709 83 m
1709 83 l
st
1802 83 m
1802 83 l
st
1896 83 m
1896 83 l
st
1989 83 m
1989 83 l
st
2082 83 m
2082 83 l
st
2176 83 m
2176 83 l
st
2269 83 m
2269 83 l
st
2362 83 m
2362 83 l
st
2456 83 m
2456 83 l
st
2549 83 m
2549 83 l
st
496 83 m
2549 83 l
st
2549 1150 m
2515 1150 l
0.753 0.753 0.753 rgb
st
2549 1061 m
2532 1061 l
st
2549 972 m
2515 972 l
st
2549 883 m
2532 883 l
st
2549 794 m
2515 794 l
st
2549 705 m
2532 705 l
st
2549 617 m
2515 617 l
st
2549 528 m
2532 528 l
st
2549 439 m
2515 439 l
st
2549 350 m
2532 350 l
st
2549 261 m
2515 261 l
st
2549 172 m
2532 172 l
st
2549 83 m
2515 83 l
st
2549 1150 m
2549 83 l
st
gs
gs
1 -1 sc
2687 -688 tr
90 ro
0 0 0 rgb
/MC2_Arial 91 self 0 0 m
( )[25 ] xs
1 -1 sc
gr
gr
gs
1 -1 sc
0 0 0 rgb
/MC3_Arial 91 self 1510 11 m
( )[25 ] xs
1 -1 sc
gr
gs
gs
1 -1 sc
189 -1249 tr
90 ro
0 0 0 rgb
/MC2_Arial 150 self 0 0 m
(Norm. P/E Cycles)[108 83 50 125 42 42 100 42 100 42 108 75 75 33 83 75 ] xs
1 -1 sc
gr
gr
463 1150 m
531 1150 l
0 0 0 rgb
st
480 1061 m
514 1061 l
st
463 972 m
531 972 l
st
480 883 m
514 883 l
st
463 794 m
531 794 l
st
480 705 m
514 705 l
st
463 617 m
531 617 l
st
480 528 m
514 528 l
st
463 439 m
531 439 l
st
480 350 m
514 350 l
st
463 261 m
531 261 l
st
480 172 m
514 172 l
st
463 83 m
531 83 l
st
497 1150 m
497 83 l
st
gs
1 -1 sc
/MC1_Arial 150 self 2606 -1195 m
(0.4)[83 42 83 ] xs
1 -1 sc
gr
gs
1 -1 sc
/MC1_Arial 150 self 2606 -1017 m
(0.5)[83 42 83 ] xs
1 -1 sc
gr
gs
1 -1 sc
/MC1_Arial 150 self 2606 -839 m
(0.6)[83 42 83 ] xs
1 -1 sc
gr
gs
1 -1 sc
/MC1_Arial 150 self 2606 -662 m
(0.7)[83 42 83 ] xs
1 -1 sc
gr
gs
1 -1 sc
/MC1_Arial 150 self 2606 -484 m
(0.8)[83 42 83 ] xs
1 -1 sc
gr
gs
1 -1 sc
/MC1_Arial 150 self 2606 -306 m
(0.9)[83 42 83 ] xs
1 -1 sc
gr
gs
1 -1 sc
/MC1_Arial 150 self 2606 -128 m
(1.0)[83 42 83 ] xs
1 -1 sc
gr
2583 1150 m
2549 1150 l
st
2566 1061 m
2549 1061 l
st
2583 972 m
2549 972 l
st
2566 883 m
2549 883 l
st
2583 794 m
2549 794 l
st
2566 705 m
2549 705 l
st
2583 617 m
2549 617 l
st
2566 528 m
2549 528 l
st
2583 439 m
2549 439 l
st
2566 350 m
2549 350 l
st
2583 261 m
2549 261 l
st
2566 172 m
2549 172 l
st
2583 83 m
2549 83 l
st
2549 1150 m
2549 83 l
st
gs
gs
1 -1 sc
2924 -1297 tr
90 ro
/MC2_Arial 146 self 0 0 m
( Effective Data Rate)[41 97 41 41 81 73 41 32 73 81 41 105 81 41 81 41 105 81 41 81 ] xs
1 -1 sc
gr
gr
gr
Save0 restore end
showpage
%%EOF
