%!PS-Adobe-3.0 EPSF-3.0
%%BoundingBox: 0 0 1800 720
%%LanguageLevel: 2
%%Creator: OriginLab Corporation
%%Title: (C:\Users\Administrator\Documents\micro15-pagesplit\data\ecc-pe.eps)
%%CreationDate: Mon Apr 27 23:37:47 2015
%%EndComments

/OriginLab::PSL1 128 dict dup begin def
/Save0 save def
%%BeginResource: procset OriginLab::PSL1
/wd{1 index where{pop pop pop}{bind def}ifelse}bind def
/setcmykcolor{1 sub 4 1 roll 3{3 index add neg dup 0 lt{pop 0}if 3 1 roll}repeat setrgbcolor pop}wd
/selectfont{dup type/arraytype eq{exch findfont exch makefont setfont}{exch findfont exch scalefont setfont}ifelse}wd
/xshow{1 index length 0 le{}{currentpoint exch 3 index length 1 sub 0 exch 1 exch{dup 5 index exch 1 getinterval show 3 index exch get add 2 copy exch moveto}for pop pop}ifelse pop pop}wd
/glyphshow{matrix currentmatrix exch currentfont dup/FontMatrix get concat currentpoint translate
 dup/Metrics get 2 index get 0 4 2 roll gsave/CharProcs get exch 2 copy known not{pop/.notdef}if
 get exec fill grestore moveto setmatrix}wd
/grayimage/image load def/rgbtogray{cvx exec dup length 3 idiv 1 sub 0 exch 1 exch{dup 3 mul dup 3 index exch get 255 div .3 mul exch
 1 add dup 4 index exch get 255 div .59 mul exch 1 add 4 index exch get 255 div .11 mul add add
 255 mul dup 255 gt{255}if round cvi 2 index 3 1 roll put}for dup length 3 idiv 0 exch getinterval}bind def
/colorimage{0 setgray pop pop cvlit/rgbtogray cvx 2 packedarray cvx grayimage}wd
/bd{bind def}bind def/ld{load def}bd/ed{exch def}bd/xd{cvx def}bd
/np/newpath ld/a/arc ld/m/moveto ld/l/lineto ld/c/curveto ld/rm/rmoveto ld/rl/rlineto ld/rc/rcurveto ld/cp/closepath ld/cpt/currentpoint ld
/tr/translate ld/sc/scale ld/ro/rotate ld/t/transform ld/it/itransform ld/dt/dtransform ld/idt/idtransform ld
/mtx/matrix ld/cmtx/currentmatrix ld/dmtx/defaultmatrix ld/smtx/setmatrix ld/catmtx/concatmatrix ld
/sw/setlinewidth ld/scap/setlinecap ld/sj/setlinejoin ld/sm/setmiterlimit ld/sd/setdash ld/rgb/setrgbcolor ld/crgb/currentrgbcolor ld/cmyk/setcmykcolor ld/gs/gsave ld/gr/grestore ld
/st/stroke ld/fi/fill ld/eofi/eofill ld/cl/clip ld/eocl/eoclip ld
/df/definefont ld/ff/findfont ld/sf/setfont ld/scf/scalefont ld/self/selectfont ld/cf/currentfont ld
/s/show ld/xs/xshow ld/gls/glyphshow ld/xgls{cpt 3 1 roll add exch 3 -1 roll gls m}bd
/cd/currentdict ld/i/index ld
/DrawBox{4 2 roll m 1 index 0 rl 0 exch rl neg 0 rl cp}bd
/plus.re { 6 { 3 index } repeat moveto 0 exch rlineto 0 rlineto pop pop neg 0 exch rlineto pop lineto closepath } def
/DrawBcc{4 2 roll m 2 copy 0 lt exch 0 lt xor{dup 0 exch rl exch 0 rl neg 0 exch rl}{exch dup 0 rl exch 0 exch rl neg 0 rl}ifelse cp}bd
/rectline{dup type/arraytype eq{dup length 0 exch 4 exch 4 sub{0 1 3{3 copy add get 4 1 roll pop}for pop 5 1 roll DrawBox}for pop}{DrawBox}ifelse}bd
/rectpath{dup type/arraytype eq{dup length 0 exch 4 exch 4 sub{0 1 3{3 copy add get 4 1 roll pop}for pop 5 1 roll DrawBcc}for pop}{DrawBcc}ifelse}bd
/pathproc{[{/m cvx}{/l cvx}{/c cvx}{/cp cvx}pathforall]cvx}bd
/L1img/image ld/L1idx[{0}
 {dup 7 and 3 1 roll -3 bitshift get exch 7 sub 1 mul bitshift  1 and}bind 1 index dup
 {dup 1 and 3 1 roll -1 bitshift get exch 1 sub 4 mul bitshift 15 and}bind 1 index dup dup
 {get}bind]def
/image{dup type/dicttype eq {dup/ImgCS get 0 get/Indexed eq}{false}ifelse
 {begin Width Height 8 ImageMatrix {rgb_string rgb_lookup
 cd/DataSource get dup type/filetype eq
 {mystring readstring pop}{exec}ifelse
 dup length 0 ne
 {L1idx BitsPerComponent get 0 1 Width 1 sub
 {3 copy exch exec exch 3 mul exch
 3 mul dup 5 index exch get exch 1 add dup 6 index exch get exch 1 add 6 index exch get
 7 index exch 4 index 2 add exch put 6 index exch 3 index 1 add exch put 5 index exch 2 index exch put pop
 }for pop pop pop }{pop pop pop ()}ifelse }false 3 colorimage end} {dup type/dicttype eq
 {{dup mark exch L1img pop pop}stopped{cleartomark begin Width Height BitsPerComponent ImageMatrix
 {cd/DataSource get dup type/filetype eq {mystring readstring pop}{exec}ifelse
 }false 3 colorimage end} if}{L1img}ifelse}ifelse
 }bd
/L1imgmask/imagemask ld/imagemask{dup type/dicttype eq
 {{dup mark exch L1imgmask pop pop}stopped {cleartomark begin Width Height polarityflag ImageMatrix
 {cd/DataSource get dup type/filetype eq {mystring readstring pop}{exec}ifelse
 }L1imgmask end}if}{L1imgmask}ifelse
 }bd
% Gradient function
/GradientStep 1 150 div def
/GradientStartRGB { /R1 exch def /G1 exch def /B1 exch def } def
/GradientEndRGB { /R2 exch def /G2 exch def /B2 exch def
/GradientSteps GradientLength GradientStep div def
/GradientRStep R2 R1 sub GradientSteps div def
/GradientGStep G2 G1 sub GradientSteps div def
/GradientBStep B2 B1 sub GradientSteps div def
} def
/GradientStepRGB { /R1 R1 GradientRStep add def
/G1 G1 GradientGStep add def
/B1 B1 GradientBStep add def
R1 G1 B1 setrgbcolor
} def
%%EndResource
/rectclip{np rectpath clip np}wd
/rectfill{gs np rectpath fi gr}wd
/rectstroke{gs np dup type/arraytype eq{dup length 6 eq}{false}ifelse{1 index type/arraytype eq{exch}{5 1 roll}ifelse rectline concat st}{rectline st}ifelse gr}wd
%%BeginResource: procset OriginLab::Image
/OriginLab::Image 32 dict dup begin
/BinProc{[currentfile mystring /readstring cvx /pop cvx] cvx bind}bd
/HexProc{[currentfile mystring /readhexstring cvx /pop cvx] cvx bind}bd
/Ascii85Proc{currentfile /ASCII85Decode filter}bd
/LZWA85{currentfile /ASCII85Decode filter /LZWDecode filter}bd
/ImgProcArray[/BinProc /HexProc /Ascii85Proc /LZWA85]def
/ImgDict{/ImgDict 16 dict def ImgDict dup begin /ImageType 1 def /MultipleDataSource false def end}bd
/L2Dec{{[1 0]}{[0 1]}ifelse}bd
/BegImg{ /Img_sv save def
 /ImgDir ed ImgProcArray exch get /ImgProc exch ld
 dup /polarityflag ed L2Dec /polarity ed /smoothflag ed
 tr /dx 2 index def /dy 1 index abs def sc
 string /mystring ed /bpc ed /ih ed /iw ed
 }bd
/EndImg {Img_sv restore}bd
/DoXImg{ /rgb_lookup ed /hival ed ImgDict dup begin
 [/Indexed /DeviceRGB hival rgb_lookup] /L1img where{pop/ImgCS ed}{setcolorspace}ifelse
 /rgb_string iw 3 mul string def
 /Width iw def
 /Height ih def
 /Decode [0 1 bpc{2 mul}repeat 1 sub] def
 /ImageMatrix
  ImgDir 0 eq{[iw 0 0 ih 0 0]}if
  ImgDir 1 eq{[iw neg 0 0 ih iw 0]}if
  ImgDir 2 eq{[iw 0 0 ih neg 0 ih]}if
  ImgDir 3 eq{[iw neg 0 0 ih neg iw ih]}if
  def
 /DataSource ImgProc def
 /BitsPerComponent bpc def
 /Interpolate smoothflag def
 end image}bd
/DoImg{ ImgDict dup begin
 [/DeviceRGB] /L1img where{pop/ImgCS ed}{setcolorspace}ifelse
 /rgb_string iw 3 mul string def
 /Width iw def
 /Height ih def
 /Decode [0 1 0 1 0 1] def
 /ImageMatrix
  ImgDir 0 eq{[iw 0 0 ih 0 0]}if
  ImgDir 1 eq{[iw neg 0 0 ih iw 0]}if
  ImgDir 2 eq{[iw 0 0 ih neg 0 ih]}if
  ImgDir 3 eq{[iw neg 0 0 ih neg iw ih]}if
  def
 /DataSource ImgProc def
 /BitsPerComponent 8 def
 /Interpolate smoothflag def
 end image}bd
end def
%%EndResource
%%BeginFont: /MC1_Arial
12 dict begin
/FontInfo 8 dict dup begin
/ItalicAngle 0 def
/UnderlinePosition -217.00 def
/UnderlineThickness 150.00 def
/StrikeoutPosition 530.00 def
/StrikeoutThickness 102.00 def
/isFixedPitch false def
end readonly def
/FontName /MC1_Arial def
/FontType 3 def
/FontMatrix [1 2048 div 0 0 1 2048 div 0 0] def
/FontBBox [-1361 -665 4096 2060] def
/Encoding 256 array def 0 1 255{Encoding exch/.notdef put}for
Encoding 32/s32 put
Encoding 46/s46 put
Encoding 48/s48 put
Encoding 49/s49 put
Encoding 50/s50 put
Encoding 51/s51 put
Encoding 52/s52 put
Encoding 53/s53 put
Encoding 54/s54 put
Encoding 55/s55 put
Encoding 56/s56 put
Encoding 57/s57 put
Encoding 69/s69 put
/BoundingBoxes 14 dict def
BoundingBoxes begin
/s32 [0 -434 569 1854] def
/s46 [0 -434 569 1854] def
/s48 [0 -434 1139 1854] def
/s49 [0 -434 1139 1854] def
/s50 [0 -434 1139 1854] def
/s51 [0 -434 1139 1854] def
/s52 [0 -434 1139 1854] def
/s53 [0 -434 1139 1854] def
/s54 [0 -434 1139 1854] def
/s55 [0 -434 1139 1854] def
/s56 [0 -434 1139 1854] def
/s57 [0 -434 1139 1854] def
/s69 [0 -434 1366 1854] def
end
/Metrics 14 dict def
 Metrics begin
/s32 569 def
/s46 569 def
/s48 1139 def
/s49 1139 def
/s50 1139 def
/s51 1139 def
/s52 1139 def
/s53 1139 def
/s54 1139 def
/s55 1139 def
/s56 1139 def
/s57 1139 def
/s69 1366 def
end
/CharProcs 14 dict def
CharProcs begin
/.notdef {} def
/s46 {
186 0 m
186 205 186 0 186 205 c
391 205 186 205 391 205 c
391 0 391 205 391 0 c
186 0 391 0 186 0 c
closepath } bind def
/s48 {
85 723 m
85 896.33 102.83 1035.83 138.5 1141.5 c
174.17 1247.17 227.17 1328.67 297.5 1386 c
367.83 1443.33 456.33 1472 563 1472 c
641.67 1472 710.67 1456.17 770 1424.5 c
829.33 1392.83 878.33 1347.17 917 1287.5 c
955.67 1227.83 986 1155.17 1008 1069.5 c
1030 983.83 1041 868.33 1041 723 c
1041 551 1023.33 412.17 988 306.5 c
952.67 200.83 899.83 119.17 829.5 61.5 c
759.17 3.83 670.33 -25 563 -25 c
421.67 -25 310.67 25.67 230 127 c
133.33 249 85 447.67 85 723 c
closepath 270 723 m
270 482.33 298.17 322.17 354.5 242.5 c
410.83 162.83 480.33 123 563 123 c
645.67 123 715.17 163 771.5 243 c
827.83 323 856 483 856 723 c
856 964.33 827.83 1124.67 771.5 1204 c
715.17 1283.33 645 1323 561 1323 c
478.33 1323 412.33 1288 363 1218 c
301 1128.67 270 963.67 270 723 c
closepath } bind def
/s49 {
763 0 m
583 0 763 0 583 0 c
583 1147 583 0 583 1147 c
539.67 1105.67 482.83 1064.33 412.5 1023 c
342.17 981.67 279 950.67 223 930 c
223 1104 223 930 223 1104 c
323.67 1151.33 411.67 1208.67 487 1276 c
562.33 1343.33 615.67 1408.67 647 1472 c
763 1472 647 1472 763 1472 c
763 0 763 1472 763 0 c
closepath } bind def
/s50 {
1031 173 m
1031 0 1031 173 1031 0 c
62 0 1031 0 62 0 c
60.67 43.33 67.67 85 83 125 c
107.67 191 147.17 256 201.5 320 c
255.83 384 334.33 458 437 542 c
596.33 672.67 704 776.17 760 852.5 c
816 928.83 844 1001 844 1069 c
844 1140.33 818.5 1200.5 767.5 1249.5 c
716.5 1298.5 650 1323 568 1323 c
481.33 1323 412 1297 360 1245 c
308 1193 281.67 1121 281 1029 c
96 1048 281 1029 96 1048 c
108.67 1186 156.33 1291.17 239 1363.5 c
321.67 1435.83 432.67 1472 572 1472 c
712.67 1472 824 1433 906 1355 c
988 1277 1029 1180.33 1029 1065 c
1029 1006.33 1017 948.67 993 892 c
969 835.33 929.17 775.67 873.5 713 c
817.83 650.33 725.33 564.33 596 455 c
488 364.33 418.67 302.83 388 270.5 c
357.33 238.17 332 205.67 312 173 c
1031 173 312 173 1031 173 c
closepath } bind def
/s51 {
86 387 m
266 411 86 387 266 411 c
286.67 309 321.83 235.5 371.5 190.5 c
421.17 145.5 481.67 123 553 123 c
637.67 123 709.17 152.33 767.5 211 c
825.83 269.67 855 342.33 855 429 c
855 511.67 828 579.83 774 633.5 c
720 687.17 651.33 714 568 714 c
534 714 491.67 707.33 441 694 c
461 852 441 694 461 852 c
473 850.67 482.67 850 490 850 c
566.67 850 635.67 870 697 910 c
758.33 950 789 1011.67 789 1095 c
789 1161 766.67 1215.67 722 1259 c
677.33 1302.33 619.67 1324 549 1324 c
479 1324 420.67 1302 374 1258 c
327.33 1214 297.33 1148 284 1060 c
104 1092 284 1060 104 1092 c
126 1212.67 176 1306.17 254 1372.5 c
332 1438.83 429 1472 545 1472 c
625 1472 698.67 1454.83 766 1420.5 c
833.33 1386.17 884.83 1339.33 920.5 1280 c
956.17 1220.67 974 1157.67 974 1091 c
974 1027.67 957 970 923 918 c
889 866 838.67 824.67 772 794 c
858.67 774 926 732.5 974 669.5 c
1022 606.5 1046 527.67 1046 433 c
1046 305 999.33 196.5 906 107.5 c
812.67 18.5 694.67 -26 552 -26 c
423.33 -26 316.5 12.33 231.5 89 c
146.5 165.67 98 265 86 387 c
closepath } bind def
/s52 {
662 0 m
662 351 662 0 662 351 c
26 351 662 351 26 351 c
26 516 26 351 26 516 c
695 1466 26 516 695 1466 c
842 1466 695 1466 842 1466 c
842 516 842 1466 842 516 c
1040 516 842 516 1040 516 c
1040 351 1040 516 1040 351 c
842 351 1040 351 842 351 c
842 0 842 351 842 0 c
662 0 842 0 662 0 c
closepath 662 516 m
662 1177 662 516 662 1177 c
203 516 662 1177 203 516 c
662 516 203 516 662 516 c
closepath } bind def
/s53 {
85 384 m
274 400 85 384 274 400 c
288 308 320.5 238.83 371.5 192.5 c
422.5 146.17 484 123 556 123 c
642.67 123 716 155.67 776 221 c
836 286.33 866 373 866 481 c
866 583.67 837.17 664.67 779.5 724 c
721.83 783.33 646.33 813 553 813 c
495 813 442.67 799.83 396 773.5 c
349.33 747.17 312.67 713 286 671 c
117 693 286 671 117 693 c
259 1446 117 693 259 1446 c
988 1446 259 1446 988 1446 c
988 1274 988 1446 988 1274 c
403 1274 988 1274 403 1274 c
324 880 403 1274 324 880 c
412 941.33 504.33 972 601 972 c
729 972 837 927.67 925 839 c
1013 750.33 1057 636.33 1057 497 c
1057 364.33 1018.33 249.67 941 153 c
847 34.33 718.67 -25 556 -25 c
422.67 -25 313.83 12.33 229.5 87 c
145.17 161.67 97 260.67 85 384 c
closepath } bind def
/s54 {
1019 1107 m
840 1093 1019 1107 840 1093 c
824 1163.67 801.33 1215 772 1247 c
723.33 1298.33 663.33 1324 592 1324 c
534.67 1324 484.33 1308 441 1276 c
384.33 1234.67 339.67 1174.33 307 1095 c
274.33 1015.67 257.33 902.67 256 756 c
299.33 822 352.33 871 415 903 c
477.67 935 543.33 951 612 951 c
732 951 834.17 906.83 918.5 818.5 c
1002.83 730.17 1045 616 1045 476 c
1045 384 1025.17 298.5 985.5 219.5 c
945.83 140.5 891.33 80 822 38 c
752.67 -4 674 -25 586 -25 c
436 -25 313.67 30.17 219 140.5 c
124.33 250.83 77 432.67 77 686 c
77 969.33 129.33 1175.33 234 1304 c
325.33 1416 448.33 1472 603 1472 c
718.33 1472 812.83 1439.67 886.5 1375 c
960.17 1310.33 1004.33 1221 1019 1107 c
closepath 284 475 m
284 413 297.17 353.67 323.5 297 c
349.83 240.33 386.67 197.17 434 167.5 c
481.33 137.83 531 123 583 123 c
659 123 724.33 153.67 779 215 c
833.67 276.33 861 359.67 861 465 c
861 566.33 834 646.17 780 704.5 c
726 762.83 658 792 576 792 c
494.67 792 425.67 762.83 369 704.5 c
312.33 646.17 284 569.67 284 475 c
closepath } bind def
/s55 {
97 1274 m
97 1447 97 1274 97 1447 c
1046 1447 97 1447 1046 1447 c
1046 1307 1046 1447 1046 1307 c
952.67 1207.67 860.17 1075.67 768.5 911 c
676.83 746.33 606 577 556 403 c
520 280.33 497 146 487 0 c
302 0 487 0 302 0 c
304 115.33 326.67 254.67 370 418 c
413.33 581.33 475.5 738.83 556.5 890.5 c
637.5 1042.17 723.67 1170 815 1274 c
97 1274 815 1274 97 1274 c
closepath } bind def
/s56 {
362 795 m
287.33 822.33 232 861.33 196 912 c
160 962.67 142 1023.33 142 1094 c
142 1200.67 180.33 1290.33 257 1363 c
333.67 1435.67 435.67 1472 563 1472 c
691 1472 794 1434.83 872 1360.5 c
950 1286.17 989 1195.67 989 1089 c
989 1021 971.17 961.83 935.5 911.5 c
899.83 861.17 845.67 822.33 773 795 c
863 765.67 931.5 718.33 978.5 653 c
1025.5 587.67 1049 509.67 1049 419 c
1049 293.67 1004.67 188.33 916 103 c
827.33 17.67 710.67 -25 566 -25 c
421.33 -25 304.67 17.83 216 103.5 c
127.33 189.17 83 296 83 424 c
83 519.33 107.17 599.17 155.5 663.5 c
203.83 727.83 272.67 771.67 362 795 c
closepath 326 1100 m
326 1030.67 348.33 974 393 930 c
437.67 886 495.67 864 567 864 c
636.33 864 693.17 885.83 737.5 929.5 c
781.83 973.17 804 1026.67 804 1090 c
804 1156 781.17 1211.5 735.5 1256.5 c
689.83 1301.5 633 1324 565 1324 c
496.33 1324 439.33 1302 394 1258 c
348.67 1214 326 1161.33 326 1100 c
closepath 268 423 m
268 371.67 280.17 322 304.5 274 c
328.83 226 365 188.83 413 162.5 c
461 136.17 512.67 123 568 123 c
654 123 725 150.67 781 206 c
837 261.33 865 331.67 865 417 c
865 503.67 836.17 575.33 778.5 632 c
720.83 688.67 648.67 717 562 717 c
477.33 717 407.17 689 351.5 633 c
295.83 577 268 507 268 423 c
closepath } bind def
/s57 {
112 339 m
285 355 112 339 285 355 c
299.67 273.67 327.67 214.67 369 178 c
410.33 141.33 463.33 123 528 123 c
583.33 123 631.83 135.67 673.5 161 c
715.17 186.33 749.33 220.17 776 262.5 c
802.67 304.83 825 362 843 434 c
861 506 870 579.33 870 654 c
870 662 869.67 674 869 690 c
833 632.67 783.83 586.17 721.5 550.5 c
659.17 514.83 591.67 497 519 497 c
397.67 497 295 541 211 629 c
127 717 85 833 85 977 c
85 1125.67 128.83 1245.33 216.5 1336 c
304.17 1426.67 414 1472 546 1472 c
641.33 1472 728.5 1446.33 807.5 1395 c
886.5 1343.67 946.5 1270.5 987.5 1175.5 c
1028.5 1080.5 1049 943 1049 763 c
1049 575.67 1028.67 426.5 988 315.5 c
947.33 204.5 886.83 120 806.5 62 c
726.17 4 632 -25 524 -25 c
409.33 -25 315.67 6.83 243 70.5 c
170.33 134.17 126.67 223.67 112 339 c
closepath 849 986 m
849 1089.33 821.5 1171.33 766.5 1232 c
711.5 1292.67 645.33 1323 568 1323 c
488 1323 418.33 1290.33 359 1225 c
299.67 1159.67 270 1075 270 971 c
270 877.67 298.17 801.83 354.5 743.5 c
410.83 685.17 480.33 656 563 656 c
646.33 656 714.83 685.17 768.5 743.5 c
822.17 801.83 849 882.67 849 986 c
closepath } bind def
/s69 {
162 0 m
162 1466 162 0 162 1466 c
1222 1466 162 1466 1222 1466 c
1222 1293 1222 1466 1222 1293 c
356 1293 1222 1293 356 1293 c
356 844 356 1293 356 844 c
1167 844 356 844 1167 844 c
1167 672 1167 844 1167 672 c
356 672 1167 672 356 672 c
356 173 356 672 356 173 c
1256 173 356 173 1256 173 c
1256 0 1256 173 1256 0 c
162 0 1256 0 162 0 c
closepath } bind def
end
/BuildGlyph {
 exch dup /Metrics get 2 index get 0 setcharwidth
/CharProcs get exch 2 copy known not{pop/.notdef}if get exec fill}bind def
/BuildChar {
1 index /Encoding get exch get
1 index /BuildGlyph get exec
} bind def
currentdict end /MC1_Arial exch definefont pop
%%EndFont
%%BeginFont: /MC2_ArialBold
12 dict begin
/FontInfo 8 dict dup begin
/ItalicAngle 0 def
/UnderlinePosition -217.00 def
/UnderlineThickness 215.00 def
/StrikeoutPosition 530.00 def
/StrikeoutThickness 102.00 def
/isFixedPitch false def
end readonly def
/FontName /MC2_ArialBold def
/FontType 3 def
/FontMatrix [1 2048 div 0 0 1 2048 div 0 0] def
/FontBBox [-1286 -771 4096 2084] def
/Encoding 256 array def 0 1 255{Encoding exch/.notdef put}for
Encoding 32/s32 put
Encoding 68/s68 put
Encoding 70/s70 put
Encoding 83/s83 put
Encoding 97/s97 put
Encoding 99/s99 put
Encoding 100/s100 put
Encoding 101/s101 put
Encoding 103/s103 put
Encoding 105/s105 put
Encoding 108/s108 put
Encoding 110/s110 put
Encoding 111/s111 put
Encoding 114/s114 put
Encoding 115/s115 put
Encoding 117/s117 put
/BoundingBoxes 17 dict def
BoundingBoxes begin
/s32 [0 -434 569 1854] def
/s68 [0 -434 1479 1854] def
/s70 [0 -434 1251 1854] def
/s83 [0 -434 1366 1854] def
/s97 [0 -434 1139 1854] def
/s99 [0 -434 1139 1854] def
/s100 [0 -434 1251 1854] def
/s101 [0 -434 1139 1854] def
/s103 [0 -434 1251 1854] def
/s105 [0 -434 569 1854] def
/s108 [0 -434 569 1854] def
/s110 [0 -434 1251 1854] def
/s111 [0 -434 1251 1854] def
/s114 [0 -434 797 1854] def
/s115 [0 -434 1139 1854] def
/s117 [0 -434 1251 1854] def
end
/Metrics 17 dict def
 Metrics begin
/s32 569 def
/s68 1479 def
/s70 1251 def
/s83 1366 def
/s97 1139 def
/s99 1139 def
/s100 1251 def
/s101 1139 def
/s103 1251 def
/s105 569 def
/s108 569 def
/s110 1251 def
/s111 1251 def
/s114 797 def
/s115 1139 def
/s117 1251 def
end
/CharProcs 17 dict def
CharProcs begin
/.notdef {} def
/s68 {
148 1466 m
689 1466 148 1466 689 1466 c
811 1466 904 1456.67 968 1438 c
1054 1412.67 1127.67 1367.67 1189 1303 c
1250.33 1238.33 1297 1159.17 1329 1065.5 c
1361 971.83 1377 856.33 1377 719 c
1377 598.33 1362 494.33 1332 407 c
1295.33 300.33 1243 214 1175 148 c
1123.67 98 1054.33 59 967 31 c
901.67 10.33 814.33 0 705 0 c
148 0 705 0 148 0 c
148 1466 148 0 148 1466 c
closepath 444 1218 m
444 247 444 1218 444 247 c
665 247 444 247 665 247 c
747.67 247 807.33 251.67 844 261 c
892 273 931.83 293.33 963.5 322 c
995.17 350.67 1021 397.83 1041 463.5 c
1061 529.17 1071 618.67 1071 732 c
1071 845.33 1061 932.33 1041 993 c
1021 1053.67 993 1101 957 1135 c
921 1169 875.33 1192 820 1204 c
778.67 1213.33 697.67 1218 577 1218 c
444 1218 577 1218 444 1218 c
closepath } bind def
/s70 {
151 0 m
151 1466 151 0 151 1466 c
1156 1466 151 1466 1156 1466 c
1156 1218 1156 1466 1156 1218 c
447 1218 1156 1218 447 1218 c
447 871 447 1218 447 871 c
1059 871 447 871 1059 871 c
1059 623 1059 871 1059 623 c
447 623 1059 623 447 623 c
447 0 447 623 447 0 c
151 0 447 0 151 0 c
closepath } bind def
/s83 {
74 477 m
362 505 74 477 362 505 c
379.33 408.33 414.5 337.33 467.5 292 c
520.5 246.67 592 224 682 224 c
777.33 224 849.17 244.17 897.5 284.5 c
945.83 324.83 970 372 970 426 c
970 460.67 959.83 490.17 939.5 514.5 c
919.17 538.83 883.67 560 833 578 c
798.33 590 719.33 611.33 596 642 c
437.33 681.33 326 729.67 262 787 c
172 867.67 127 966 127 1082 c
127 1156.67 148.17 1226.5 190.5 1291.5 c
232.83 1356.5 293.83 1406 373.5 1440 c
453.17 1474 549.33 1491 662 1491 c
846 1491 984.5 1450.67 1077.5 1370 c
1170.5 1289.33 1219.33 1181.67 1224 1047 c
928 1034 1224 1047 928 1034 c
915.33 1109.33 888.17 1163.5 846.5 1196.5 c
804.83 1229.5 742.33 1246 659 1246 c
573 1246 505.67 1228.33 457 1193 c
425.67 1170.33 410 1140 410 1102 c
410 1067.33 424.67 1037.67 454 1013 c
491.33 981.67 582 949 726 915 c
870 881 976.5 845.83 1045.5 809.5 c
1114.5 773.17 1168.5 723.5 1207.5 660.5 c
1246.5 597.5 1266 519.67 1266 427 c
1266 343 1242.67 264.33 1196 191 c
1149.33 117.67 1083.33 63.17 998 27.5 c
912.67 -8.17 806.33 -26 679 -26 c
493.67 -26 351.33 16.83 252 102.5 c
152.67 188.17 93.33 313 74 477 c
closepath } bind def
/s97 {
357 738 m
102 784 357 738 102 784 c
130.67 886.67 180 962.67 250 1012 c
320 1061.33 424 1086 562 1086 c
687.33 1086 780.67 1071.17 842 1041.5 c
903.33 1011.83 946.5 974.17 971.5 928.5 c
996.5 882.83 1009 799 1009 677 c
1006 349 1009 677 1006 349 c
1006 255.67 1010.5 186.83 1019.5 142.5 c
1028.5 98.17 1045.33 50.67 1070 0 c
792 0 1070 0 792 0 c
784.67 18.67 775.67 46.33 765 83 c
760.33 99.67 757 110.67 755 116 c
707 69.33 655.67 34.33 601 11 c
546.33 -12.33 488 -24 426 -24 c
316.67 -24 230.5 5.67 167.5 65 c
104.5 124.33 73 199.33 73 290 c
73 350 87.33 403.5 116 450.5 c
144.67 497.5 184.83 533.5 236.5 558.5 c
288.17 583.5 362.67 605.33 460 624 c
591.33 648.67 682.33 671.67 733 693 c
733 721 733 693 733 721 c
733 775 719.67 813.5 693 836.5 c
666.33 859.5 616 871 542 871 c
492 871 453 861.17 425 841.5 c
397 821.83 374.33 787.33 357 738 c
closepath 733 510 m
697 498 640 483.67 562 467 c
484 450.33 433 434 409 418 c
372.33 392 354 359 354 319 c
354 279.67 368.67 245.67 398 217 c
427.33 188.33 464.67 174 510 174 c
560.67 174 609 190.67 655 224 c
689 249.33 711.33 280.33 722 317 c
729.33 341 733 386.67 733 454 c
733 510 733 454 733 510 c
closepath } bind def
/s99 {
1073 748 m
796 698 1073 748 796 698 c
786.67 753.33 765.5 795 732.5 823 c
699.5 851 656.67 865 604 865 c
534 865 478.17 840.83 436.5 792.5 c
394.83 744.17 374 663.33 374 550 c
374 424 395.17 335 437.5 283 c
479.83 231 536.67 205 608 205 c
661.33 205 705 220.17 739 250.5 c
773 280.83 797 333 811 407 c
1087 360 811 407 1087 360 c
1058.33 233.33 1003.33 137.67 922 73 c
840.67 8.33 731.67 -24 595 -24 c
439.67 -24 315.83 25 223.5 123 c
131.17 221 85 356.67 85 530 c
85 705.33 131.33 841.83 224 939.5 c
316.67 1037.17 442 1086 600 1086 c
729.33 1086 832.17 1058.17 908.5 1002.5 c
984.83 946.83 1039.67 862 1073 748 c
closepath } bind def
/s100 {
1121 0 m
860 0 1121 0 860 0 c
860 156 860 0 860 156 c
816.67 95.33 765.5 50.17 706.5 20.5 c
647.5 -9.17 588 -24 528 -24 c
406 -24 301.5 25.17 214.5 123.5 c
127.5 221.83 84 359 84 535 c
84 715 126.33 851.83 211 945.5 c
295.67 1039.17 402.67 1086 532 1086 c
650.67 1086 753.33 1036.67 840 938 c
840 1466 840 938 840 1466 c
1121 1466 840 1466 1121 1466 c
1121 0 1121 1466 1121 0 c
closepath 371 554 m
371 440.67 386.67 358.67 418 308 c
463.33 234.67 526.67 198 608 198 c
672.67 198 727.67 225.5 773 280.5 c
818.33 335.5 841 417.67 841 527 c
841 649 819 736.83 775 790.5 c
731 844.17 674.67 871 606 871 c
539.33 871 483.5 844.5 438.5 791.5 c
393.5 738.5 371 659.33 371 554 c
closepath } bind def
/s101 {
762 338 m
1042 291 762 338 1042 291 c
1006 188.33 949.17 110.17 871.5 56.5 c
793.83 2.83 696.67 -24 580 -24 c
395.33 -24 258.67 36.33 170 157 c
100 253.67 65 375.67 65 523 c
65 699 111 836.83 203 936.5 c
295 1036.17 411.33 1086 552 1086 c
710 1086 834.67 1033.83 926 929.5 c
1017.33 825.17 1061 665.33 1057 450 c
353 450 1057 450 353 450 c
355 366.67 377.67 301.83 421 255.5 c
464.33 209.17 518.33 186 583 186 c
627 186 664 198 694 222 c
724 246 746.67 284.67 762 338 c
closepath 778 622 m
776 703.33 755 765.17 715 807.5 c
675 849.83 626.33 871 569 871 c
507.67 871 457 848.67 417 804 c
377 759.33 357.33 698.67 358 622 c
778 622 358 622 778 622 c
closepath } bind def
/s103 {
121 -70 m
442 -109 121 -70 442 -109 c
447.33 -146.33 459.67 -172 479 -186 c
505.67 -206 547.67 -216 605 -216 c
678.33 -216 733.33 -205 770 -183 c
794.67 -168.33 813.33 -144.67 826 -112 c
834.67 -88.67 839 -45.67 839 17 c
839 172 839 17 839 172 c
755 57.33 649 0 521 0 c
378.33 0 265.33 60.33 182 181 c
116.67 276.33 84 395 84 537 c
84 715 126.83 851 212.5 945 c
298.17 1039 404.67 1086 532 1086 c
663.33 1086 771.67 1028.33 857 913 c
857 1062 857 913 857 1062 c
1120 1062 857 1062 1120 1062 c
1120 109 1120 1062 1120 109 c
1120 -16.33 1109.67 -110 1089 -172 c
1068.33 -234 1039.33 -282.67 1002 -318 c
964.67 -353.33 914.83 -381 852.5 -401 c
790.17 -421 711.33 -431 616 -431 c
436 -431 308.33 -400.17 233 -338.5 c
157.67 -276.83 120 -198.67 120 -104 c
120 -94.67 120.33 -83.33 121 -70 c
closepath 372 553 m
372 440.33 393.83 357.83 437.5 305.5 c
481.17 253.17 535 227 599 227 c
667.67 227 725.67 253.83 773 307.5 c
820.33 361.17 844 440.67 844 546 c
844 656 821.33 737.67 776 791 c
730.67 844.33 673.33 871 604 871 c
536.67 871 481.17 844.83 437.5 792.5 c
393.83 740.17 372 660.33 372 553 c
closepath } bind def
/s105 {
147 1206 m
147 1466 147 1206 147 1466 c
428 1466 147 1466 428 1466 c
428 1206 428 1466 428 1206 c
147 1206 428 1206 147 1206 c
closepath 147 0 m
147 1062 147 0 147 1062 c
428 1062 147 1062 428 1062 c
428 0 428 1062 428 0 c
147 0 428 0 147 0 c
closepath } bind def
/s108 {
147 0 m
147 1466 147 0 147 1466 c
428 1466 147 1466 428 1466 c
428 0 428 1466 428 0 c
147 0 428 0 147 0 c
closepath } bind def
/s110 {
1113 0 m
832 0 1113 0 832 0 c
832 542 832 0 832 542 c
832 656.67 826 730.83 814 764.5 c
802 798.17 782.5 824.33 755.5 843 c
728.5 861.67 696 871 658 871 c
609.33 871 565.67 857.67 527 831 c
488.33 804.33 461.83 769 447.5 725 c
433.17 681 426 599.67 426 481 c
426 0 426 481 426 0 c
145 0 426 0 145 0 c
145 1062 145 0 145 1062 c
406 1062 145 1062 406 1062 c
406 906 406 1062 406 906 c
498.67 1026 615.33 1086 756 1086 c
818 1086 874.67 1074.83 926 1052.5 c
977.33 1030.17 1016.17 1001.67 1042.5 967 c
1068.83 932.33 1087.17 893 1097.5 849 c
1107.83 805 1113 742 1113 660 c
1113 0 1113 660 1113 0 c
closepath } bind def
/s111 {
82 546 m
82 639.33 105 729.67 151 817 c
197 904.33 262.17 971 346.5 1017 c
430.83 1063 525 1086 629 1086 c
789.67 1086 921.33 1033.83 1024 929.5 c
1126.67 825.17 1178 693.33 1178 534 c
1178 373.33 1126.17 240.17 1022.5 134.5 c
918.83 28.83 788.33 -24 631 -24 c
533.67 -24 440.83 -2 352.5 42 c
264.17 86 197 150.5 151 235.5 c
105 320.5 82 424 82 546 c
closepath 370 531 m
370 425.67 395 345 445 289 c
495 233 556.67 205 630 205 c
703.33 205 764.83 233 814.5 289 c
864.17 345 889 426.33 889 533 c
889 637 864.17 717 814.5 773 c
764.83 829 703.33 857 630 857 c
556.67 857 495 829 445 773 c
395 717 370 636.33 370 531 c
closepath } bind def
/s114 {
416 0 m
135 0 416 0 135 0 c
135 1062 135 0 135 1062 c
396 1062 135 1062 396 1062 c
396 911 396 1062 396 911 c
440.67 982.33 480.83 1029.33 516.5 1052 c
552.17 1074.67 592.67 1086 638 1086 c
702 1086 763.67 1068.33 823 1033 c
736 788 823 1033 736 788 c
688.67 818.67 644.67 834 604 834 c
564.67 834 531.33 823.17 504 801.5 c
476.67 779.83 455.17 740.67 439.5 684 c
423.83 627.33 416 508.67 416 328 c
416 0 416 328 416 0 c
closepath } bind def
/s115 {
48 303 m
330 346 48 303 330 346 c
342 291.33 366.33 249.83 403 221.5 c
439.67 193.17 491 179 557 179 c
629.67 179 684.33 192.33 721 219 c
745.67 237.67 758 262.67 758 294 c
758 315.33 751.33 333 738 347 c
724 360.33 692.67 372.67 644 384 c
417.33 434 273.67 479.67 213 521 c
129 578.33 87 658 87 760 c
87 852 123.33 929.33 196 992 c
268.67 1054.67 381.33 1086 534 1086 c
679.33 1086 787.33 1062.33 858 1015 c
928.67 967.67 977.33 897.67 1004 805 c
739 756 1004 805 739 756 c
727.67 797.33 706.17 829 674.5 851 c
642.83 873 597.67 884 539 884 c
465 884 412 873.67 380 853 c
358.67 838.33 348 819.33 348 796 c
348 776 357.33 759 376 745 c
401.33 726.33 488.83 700 638.5 666 c
788.17 632 892.67 590.33 952 541 c
1010.67 491 1040 421.33 1040 332 c
1040 234.67 999.33 151 918 81 c
836.67 11 716.33 -24 557 -24 c
412.33 -24 297.83 5.33 213.5 64 c
129.17 122.67 74 202.33 48 303 c
closepath } bind def
/s117 {
846 0 m
846 159 846 0 846 159 c
807.33 102.33 756.5 57.67 693.5 25 c
630.5 -7.67 564 -24 494 -24 c
422.67 -24 358.67 -8.33 302 23 c
245.33 54.33 204.33 98.33 179 155 c
153.67 211.67 141 290 141 390 c
141 1062 141 390 141 1062 c
422 1062 141 1062 422 1062 c
422 574 422 1062 422 574 c
422 424.67 427.17 333.17 437.5 299.5 c
447.83 265.83 466.67 239.17 494 219.5 c
521.33 199.83 556 190 598 190 c
646 190 689 203.17 727 229.5 c
765 255.83 791 288.5 805 327.5 c
819 366.5 826 462 826 614 c
826 1062 826 614 826 1062 c
1107 1062 826 1062 1107 1062 c
1107 0 1107 1062 1107 0 c
846 0 1107 0 846 0 c
closepath } bind def
end
/BuildGlyph {
 exch dup /Metrics get 2 index get 0 setcharwidth
/CharProcs get exch 2 copy known not{pop/.notdef}if get exec fill}bind def
/BuildChar {
1 index /Encoding get exch get
1 index /BuildGlyph get exec
} bind def
currentdict end /MC2_ArialBold exch definefont pop
%%EndFont
%%BeginFont: /MC3_ArialBold
12 dict begin
/FontInfo 8 dict dup begin
/ItalicAngle 0 def
/UnderlinePosition -217.00 def
/UnderlineThickness 215.00 def
/StrikeoutPosition 530.00 def
/StrikeoutThickness 102.00 def
/isFixedPitch false def
end readonly def
/FontName /MC3_ArialBold def
/FontType 3 def
/FontMatrix [1 2048 div 0 0 1 2048 div 0 0] def
/FontBBox [-1286 -771 4096 2084] def
/Encoding 256 array def 0 1 255{Encoding exch/.notdef put}for
Encoding 32/s32 put
Encoding 37/s37 put
Encoding 45/s45 put
Encoding 48/s48 put
Encoding 49/s49 put
Encoding 50/s50 put
Encoding 52/s52 put
Encoding 53/s53 put
Encoding 54/s54 put
Encoding 57/s57 put
/BoundingBoxes 11 dict def
BoundingBoxes begin
/s32 [0 -434 569 1854] def
/s37 [0 -434 1821 1854] def
/s45 [0 -434 682 1854] def
/s48 [0 -434 1139 1854] def
/s49 [0 -434 1139 1854] def
/s50 [0 -434 1139 1854] def
/s52 [0 -434 1139 1854] def
/s53 [0 -434 1139 1854] def
/s54 [0 -434 1139 1854] def
/s57 [0 -434 1139 1854] def
end
/Metrics 11 dict def
 Metrics begin
/s32 569 def
/s37 1821 def
/s45 682 def
/s48 1139 def
/s49 1139 def
/s50 1139 def
/s52 1139 def
/s53 1139 def
/s54 1139 def
/s57 1139 def
end
/CharProcs 11 dict def
CharProcs begin
/.notdef {} def
/s37 {
89 1104 m
89 1235.33 117.83 1332.67 175.5 1396 c
233.17 1459.33 311.33 1491 410 1491 c
512 1491 591.83 1459.5 649.5 1396.5 c
707.17 1333.5 736 1236 736 1104 c
736 972.67 707.17 875.33 649.5 812 c
591.83 748.67 513.67 717 415 717 c
313 717 233.17 748.5 175.5 811.5 c
117.83 874.5 89 972 89 1104 c
closepath 308 1106 m
308 1010.67 319 946.67 341 914 c
357.67 890 380.67 878 410 878 c
440 878 463.33 890 480 914 c
501.33 946.67 512 1010.67 512 1106 c
512 1201.33 501.33 1265 480 1297 c
463.33 1321.67 440 1334 410 1334 c
380.67 1334 357.67 1322 341 1298 c
319 1265.33 308 1201.33 308 1106 c
closepath 624 -56 m
416 -56 624 -56 416 -56 c
1197 1491 416 -56 1197 1491 c
1399 1491 1197 1491 1399 1491 c
624 -56 1399 1491 624 -56 c
closepath 1078 329 m
1078 460.33 1106.83 557.67 1164.5 621 c
1222.17 684.33 1301 716 1401 716 c
1501.67 716 1580.83 684.33 1638.5 621 c
1696.17 557.67 1725 460.33 1725 329 c
1725 197 1696.17 99.33 1638.5 36 c
1580.83 -27.33 1502.67 -59 1404 -59 c
1302 -59 1222.17 -27.33 1164.5 36 c
1106.83 99.33 1078 197 1078 329 c
closepath 1297 330 m
1297 234.67 1308 171 1330 139 c
1346.67 114.33 1369.67 102 1399 102 c
1429 102 1452 114 1468 138 c
1490 170.67 1501 234.67 1501 330 c
1501 425.33 1490.33 489.33 1469 522 c
1452.33 546 1429 558 1399 558 c
1369 558 1346 546 1330 522 c
1308 489.33 1297 425.33 1297 330 c
closepath } bind def
/s45 {
115 391 m
115 672 115 391 115 672 c
667 672 115 672 667 672 c
667 391 667 672 667 391 c
115 391 667 391 115 391 c
closepath } bind def
/s48 {
562 1472 m
704 1472 815 1421.33 895 1320 c
990.33 1200 1038 1001 1038 723 c
1038 445.67 990 246.33 894 125 c
814.67 25 704 -25 562 -25 c
419.33 -25 304.33 29.83 217 139.5 c
129.67 249.17 86 444.67 86 726 c
86 1002 134 1200.67 230 1322 c
309.33 1422 420 1472 562 1472 c
closepath 562 1239 m
528 1239 497.67 1228.17 471 1206.5 c
444.33 1184.83 423.67 1146 409 1090 c
389.67 1017.33 380 895 380 723 c
380 551 388.67 432.83 406 368.5 c
423.33 304.17 445.17 261.33 471.5 240 c
497.83 218.67 528 208 562 208 c
596 208 626.33 218.83 653 240.5 c
679.67 262.17 700.33 301 715 357 c
734.33 429 744 551 744 723 c
744 895 735.33 1013.17 718 1077.5 c
700.67 1141.83 678.83 1184.83 652.5 1206.5 c
626.17 1228.17 596 1239 562 1239 c
closepath } bind def
/s49 {
806 0 m
525 0 806 0 525 0 c
525 1059 525 0 525 1059 c
422.33 963 301.33 892 162 846 c
162 1101 162 846 162 1101 c
235.33 1125 315 1170.5 401 1237.5 c
487 1304.5 546 1382.67 578 1472 c
806 1472 578 1472 806 1472 c
806 0 806 1472 806 0 c
closepath } bind def
/s50 {
1036 261 m
1036 0 1036 261 1036 0 c
51 0 1036 0 51 0 c
61.67 98.67 93.67 192.17 147 280.5 c
200.33 368.83 305.67 486 463 632 c
589.67 750 667.33 830 696 872 c
734.67 930 754 987.33 754 1044 c
754 1106.67 737.17 1154.83 703.5 1188.5 c
669.83 1222.17 623.33 1239 564 1239 c
505.33 1239 458.67 1221.33 424 1186 c
389.33 1150.67 369.33 1092 364 1010 c
84 1038 364 1010 84 1038 c
100.67 1192.67 153 1303.67 241 1371 c
329 1438.33 439 1472 571 1472 c
715.67 1472 829.33 1433 912 1355 c
994.67 1277 1036 1180 1036 1064 c
1036 998 1024.17 935.17 1000.5 875.5 c
976.83 815.83 939.33 753.33 888 688 c
854 644.67 792.67 582.33 704 501 c
615.33 419.67 559.17 365.67 535.5 339 c
511.83 312.33 492.67 286.33 478 261 c
1036 261 478 261 1036 261 c
closepath } bind def
/s52 {
638 0 m
638 295 638 0 638 295 c
38 295 638 295 38 295 c
38 541 38 295 38 541 c
674 1472 38 541 674 1472 c
910 1472 674 1472 910 1472 c
910 542 910 1472 910 542 c
1092 542 910 542 1092 542 c
1092 295 1092 542 1092 295 c
910 295 1092 295 910 295 c
910 0 910 295 910 0 c
638 0 910 0 638 0 c
closepath 638 542 m
638 1043 638 542 638 1043 c
301 542 638 1043 301 542 c
638 542 301 542 638 542 c
closepath } bind def
/s53 {
91 377 m
371 406 91 377 371 406 c
379 342.67 402.67 292.5 442 255.5 c
481.33 218.5 526.67 200 578 200 c
636.67 200 686.33 223.83 727 271.5 c
767.67 319.17 788 391 788 487 c
788 577 767.83 644.5 727.5 689.5 c
687.17 734.5 634.67 757 570 757 c
489.33 757 417 721.33 353 650 c
125 683 353 650 125 683 c
269 1446 125 683 269 1446 c
1012 1446 269 1446 1012 1446 c
1012 1183 1012 1446 1012 1183 c
482 1183 1012 1183 482 1183 c
438 934 482 1183 438 934 c
500.67 965.33 564.67 981 630 981 c
754.67 981 860.33 935.67 947 845 c
1033.67 754.33 1077 636.67 1077 492 c
1077 371.33 1042 263.67 972 169 c
876.67 39.67 744.33 -25 575 -25 c
439.67 -25 329.33 11.33 244 84 c
158.67 156.67 107.67 254.33 91 377 c
closepath } bind def
/s54 {
1039 1107 m
767 1077 1039 1107 767 1077 c
760.33 1133 743 1174.33 715 1201 c
687 1227.67 650.67 1241 606 1241 c
546.67 1241 496.5 1214.33 455.5 1161 c
414.5 1107.67 388.67 996.67 378 828 c
448 910.67 535 952 639 952 c
756.33 952 856.83 907.33 940.5 818 c
1024.17 728.67 1066 613.33 1066 472 c
1066 322 1022 201.67 934 111 c
846 20.33 733 -25 595 -25 c
447 -25 325.33 32.5 230 147.5 c
134.67 262.5 87 451 87 713 c
87 981.67 136.67 1175.33 236 1294 c
335.33 1412.67 464.33 1472 623 1472 c
734.33 1472 826.5 1440.83 899.5 1378.5 c
972.5 1316.17 1019 1225.67 1039 1107 c
closepath 402 494 m
402 402.67 423 332.17 465 282.5 c
507 232.83 555 208 609 208 c
661 208 704.33 228.33 739 269 c
773.67 309.67 791 376.33 791 469 c
791 564.33 772.33 634.17 735 678.5 c
697.67 722.83 651 745 595 745 c
541 745 495.33 723.83 458 681.5 c
420.67 639.17 402 576.67 402 494 c
closepath } bind def
/s57 {
93 339 m
365 369 93 339 365 369 c
371.67 313.67 389 272.67 417 246 c
445 219.33 482 206 528 206 c
586 206 635.33 232.67 676 286 c
716.67 339.33 742.67 450 754 618 c
683.33 536 595 495 489 495 c
373.67 495 274.17 539.5 190.5 628.5 c
106.83 717.5 65 833.33 65 976 c
65 1124.67 109.17 1244.5 197.5 1335.5 c
285.83 1426.5 398.33 1472 535 1472 c
683.67 1472 805.67 1414.5 901 1299.5 c
996.33 1184.5 1044 995.33 1044 732 c
1044 464 994.33 270.67 895 152 c
795.67 33.33 666.33 -26 507 -26 c
392.33 -26 299.67 4.5 229 65.5 c
158.33 126.5 113 217.67 93 339 c
closepath 729 953 m
729 1043.67 708.17 1114 666.5 1164 c
624.83 1214 576.67 1239 522 1239 c
470 1239 426.83 1218.5 392.5 1177.5 c
358.17 1136.5 341 1069.33 341 976 c
341 881.33 359.67 811.83 397 767.5 c
434.33 723.17 481 701 537 701 c
591 701 636.5 722.33 673.5 765 c
710.5 807.67 729 870.33 729 953 c
closepath } bind def
end
/BuildGlyph {
 exch dup /Metrics get 2 index get 0 setcharwidth
/CharProcs get exch 2 copy known not{pop/.notdef}if get exec fill}bind def
/BuildChar {
1 index /Encoding get exch get
1 index /BuildGlyph get exec
} bind def
currentdict end /MC3_ArialBold exch definefont pop
%%EndFont
%%BeginFont: /MC4_ArialBoldItalic
12 dict begin
/FontInfo 8 dict dup begin
/ItalicAngle 12 def
/UnderlinePosition -217.00 def
/UnderlineThickness 215.00 def
/StrikeoutPosition 530.00 def
/StrikeoutThickness 102.00 def
/isFixedPitch false def
end readonly def
/FontName /MC4_ArialBoldItalic def
/FontType 3 def
/FontMatrix [1 2048 div 0 0 1 2048 div 0 0] def
/FontBBox [-1146 -771 3454 2084] def
/Encoding 256 array def 0 1 255{Encoding exch/.notdef put}for
Encoding 32/s32 put
Encoding 67/s67 put
Encoding 69/s69 put
Encoding 99/s99 put
Encoding 101/s101 put
Encoding 105/s105 put
Encoding 110/s110 put
Encoding 111/s111 put
Encoding 114/s114 put
Encoding 116/s116 put
/BoundingBoxes 11 dict def
BoundingBoxes begin
/s32 [0 -434 1055 1854] def
/s67 [0 -434 1965 1854] def
/s69 [0 -434 1852 1854] def
/s99 [0 -434 1625 1854] def
/s101 [0 -434 1625 1854] def
/s105 [0 -434 1055 1854] def
/s110 [0 -434 1737 1854] def
/s111 [0 -434 1737 1854] def
/s114 [0 -434 1283 1854] def
/s116 [0 -434 1168 1854] def
end
/Metrics 11 dict def
 Metrics begin
/s32 569 def
/s67 1479 def
/s69 1366 def
/s99 1139 def
/s101 1139 def
/s105 569 def
/s110 1251 def
/s111 1251 def
/s114 797 def
/s116 682 def
end
/CharProcs 11 dict def
CharProcs begin
/.notdef {} def
/s67 {
1146 528 m
1450 482 1146 528 1450 482 c
1390.67 317.33 1301.67 191.5 1183 104.5 c
1064.33 17.5 925.33 -26 766 -26 c
586.67 -26 446.5 28 345.5 136 c
244.5 244 194 400.67 194 606 c
194 772.67 227.83 925.17 295.5 1063.5 c
363.17 1201.83 457 1307.67 577 1381 c
697 1454.33 827.67 1491 969 1491 c
1127.67 1491 1256 1448.5 1354 1363.5 c
1452 1278.5 1509.67 1162.67 1527 1016 c
1238 988 1527 1016 1238 988 c
1222 1073.33 1191.17 1135.17 1145.5 1173.5 c
1099.83 1211.83 1039 1231 963 1231 c
879.67 1231 801.83 1205.67 729.5 1155 c
657.17 1104.33 599.33 1025.17 556 917.5 c
512.67 809.83 491 702.33 491 595 c
491 477.67 519.17 387 575.5 323 c
631.83 259 702 227 786 227 c
864 227 935.5 252.33 1000.5 303 c
1065.5 353.67 1114 428.67 1146 528 c
closepath } bind def
/s69 {
84 0 m
390 1466 84 0 390 1466 c
1477 1466 390 1466 1477 1466 c
1426 1221 1477 1466 1426 1221 c
641 1221 1426 1221 641 1221 c
571 888 641 1221 571 888 c
1330 888 571 888 1330 888 c
1279 643 1330 888 1279 643 c
520 643 1279 643 520 643 c
428 245 520 643 428 245 c
1281 245 428 245 1281 245 c
1229 0 1281 245 1229 0 c
84 0 1229 0 84 0 c
closepath } bind def
/s99 {
802 400 m
1081 355 802 400 1081 355 c
1035 231 967 136.67 877 72 c
787 7.33 682.67 -25 564 -25 c
428.67 -25 321.33 15.33 242 96 c
162.67 176.67 123 287.67 123 429 c
123 544.33 147 653.33 195 756 c
243 858.67 315.33 939.5 412 998.5 c
508.67 1057.5 614.67 1087 730 1087 c
855.33 1087 955.33 1054.33 1030 989 c
1104.67 923.67 1146.67 837.67 1156 731 c
883 702 1156 731 883 702 c
876.33 761.33 858.17 805 828.5 833 c
798.83 861 760 875 712 875 c
656.67 875 605 854.33 557 813 c
509 771.67 472.17 709.83 446.5 627.5 c
420.83 545.17 408 468 408 396 c
408 333.33 423.33 285 454 251 c
484.67 217 523 200 569 200 c
615 200 659.33 216.67 702 250 c
744.67 283.33 778 333.33 802 400 c
closepath } bind def
/s101 {
1116 442 m
396 442 1116 442 396 442 c
395.33 430.67 395 422 395 416 c
395 345.33 415.17 288.33 455.5 245 c
495.83 201.67 545 180 603 180 c
698.33 180 772.67 229.33 826 328 c
1083 285 826 328 1083 285 c
1033 181.67 966.17 104.17 882.5 52.5 c
798.83 0.83 705 -25 601 -25 c
458.33 -25 342.33 20.17 253 110.5 c
163.67 200.83 119 320.33 119 469 c
119 614.33 159.33 743.67 240 857 c
350 1010.33 507 1087 711 1087 c
841 1087 944.33 1046.83 1021 966.5 c
1097.67 886.17 1136 773.67 1136 629 c
1136 559.67 1129.33 497.33 1116 442 c
closepath 874 617 m
874.67 629.67 875 639.33 875 646 c
875 724.67 857.33 783.67 822 823 c
786.67 862.33 739.33 882 680 882 c
620.67 882 567.5 859.67 520.5 815 c
473.5 770.33 441.67 704.33 425 617 c
874 617 425 617 874 617 c
closepath } bind def
/s105 {
388 1466 m
675 1466 388 1466 675 1466 c
621 1206 675 1466 621 1206 c
334 1206 621 1206 334 1206 c
388 1466 334 1206 388 1466 c
closepath 304 1062 m
591 1062 304 1062 591 1062 c
369 0 591 1062 369 0 c
82 0 369 0 82 0 c
304 1062 82 0 304 1062 c
closepath } bind def
/s110 {
308 1062 m
580 1062 308 1062 580 1062 c
552 924 580 1062 552 924 c
620 982.67 683.5 1024.5 742.5 1049.5 c
801.5 1074.5 863.67 1087 929 1087 c
1016.33 1087 1085.17 1062 1135.5 1012 c
1185.83 962 1211 895.67 1211 813 c
1211 775.67 1200 705 1178 601 c
1053 0 1178 601 1053 0 c
766 0 1053 0 766 0 c
892 603 766 0 892 603 c
910.67 693 920 746.67 920 764 c
920 800.67 909.17 829.5 887.5 850.5 c
865.83 871.5 835.67 882 797 882 c
755 882 708.33 864.33 657 829 c
605.67 793.67 565.33 747 536 689 c
514.67 647.67 490.67 563.33 464 436 c
373 0 464 436 373 0 c
86 0 373 0 86 0 c
308 1062 86 0 308 1062 c
closepath } bind def
/s111 {
124 441 m
124 637.67 179.5 794.5 290.5 911.5 c
401.5 1028.5 547.33 1087 728 1087 c
884.67 1087 1007 1043.83 1095 957.5 c
1183 871.17 1227 755 1227 609 c
1227 437 1172 288.33 1062 163 c
952 37.67 804.67 -25 620 -25 c
520 -25 431.33 -5 354 35 c
276.67 75 219 131.67 181 205 c
143 278.33 124 357 124 441 c
closepath 942 646 m
942 714 922.17 768.5 882.5 809.5 c
842.83 850.5 791.67 871 729 871 c
667 871 612 851.83 564 813.5 c
516 775.17 478.67 719.5 452 646.5 c
425.33 573.5 412 506.33 412 445 c
412 369 432.67 308.67 474 264 c
515.33 219.33 567.33 197 630 197 c
708.67 197 774.67 230.67 828 298 c
904 393.33 942 509.33 942 646 c
closepath } bind def
/s114 {
288 1062 m
556 1062 288 1062 556 1062 c
513 856 556 1062 513 856 c
613 1010 721.33 1087 838 1087 c
879.33 1087 923.67 1076.67 971 1056 c
861 821 971 1056 861 821 c
835 830.33 807.33 835 778 835 c
728.67 835 678.5 816.33 627.5 779 c
576.5 741.67 536.67 691.83 508 629.5 c
479.33 567.17 451 468.33 423 333 c
353 0 423 333 353 0 c
66 0 353 0 66 0 c
288 1062 66 0 288 1062 c
closepath } bind def
/s116 {
154 849 m
198 1062 154 849 198 1062 c
338 1062 198 1062 338 1062 c
373 1232 338 1062 373 1232 c
702 1430 373 1232 702 1430 c
625 1062 702 1430 625 1062 c
800 1062 625 1062 800 1062 c
756 849 800 1062 756 849 c
580 849 756 849 580 849 c
487 404 580 849 487 404 c
470.33 323.33 462 277.33 462 266 c
462 244 469 226.83 483 214.5 c
497 202.17 522.33 196 559 196 c
571.67 196 603.33 198.33 654 203 c
609 -10 654 203 609 -10 c
559.67 -20 509 -25 457 -25 c
355.67 -25 282 -5.5 236 33.5 c
190 72.5 167 126.67 167 196 c
167 228.67 179.33 304 204 422 c
293 849 204 422 293 849 c
154 849 293 849 154 849 c
closepath } bind def
end
/BuildGlyph {
 exch dup /Metrics get 2 index get 0 setcharwidth
/CharProcs get exch 2 copy known not{pop/.notdef}if get exec fill}bind def
/BuildChar {
1 index /Encoding get exch get
1 index /BuildGlyph get exec
} bind def
currentdict end /MC4_ArialBoldItalic exch definefont pop
%%EndFont
%%BeginFont: /MC5_Arial
12 dict begin
/FontInfo 8 dict dup begin
/ItalicAngle 0 def
/UnderlinePosition -217.00 def
/UnderlineThickness 150.00 def
/StrikeoutPosition 530.00 def
/StrikeoutThickness 102.00 def
/isFixedPitch false def
end readonly def
/FontName /MC5_Arial def
/FontType 3 def
/FontMatrix [1 2048 div 0 0 1 2048 div 0 0] def
/FontBBox [-1361 -665 4096 2060] def
/Encoding 256 array def 0 1 255{Encoding exch/.notdef put}for
Encoding 32/s32 put
Encoding 66/s66 put
Encoding 69/s69 put
Encoding 78/s78 put
Encoding 84/s84 put
Encoding 98/s98 put
Encoding 101/s101 put
Encoding 102/s102 put
Encoding 104/s104 put
Encoding 105/s105 put
Encoding 109/s109 put
Encoding 111/s111 put
Encoding 114/s114 put
Encoding 115/s115 put
Encoding 116/s116 put
Encoding 117/s117 put
/BoundingBoxes 17 dict def
BoundingBoxes begin
/s32 [0 -434 569 1854] def
/s66 [0 -434 1366 1854] def
/s69 [0 -434 1366 1854] def
/s78 [0 -434 1479 1854] def
/s84 [0 -434 1251 1854] def
/s98 [0 -434 1139 1854] def
/s101 [0 -434 1139 1854] def
/s102 [0 -434 569 1854] def
/s104 [0 -434 1139 1854] def
/s105 [0 -434 455 1854] def
/s109 [0 -434 1706 1854] def
/s111 [0 -434 1139 1854] def
/s114 [0 -434 682 1854] def
/s115 [0 -434 1024 1854] def
/s116 [0 -434 569 1854] def
/s117 [0 -434 1139 1854] def
end
/Metrics 17 dict def
 Metrics begin
/s32 569 def
/s66 1366 def
/s69 1366 def
/s78 1479 def
/s84 1251 def
/s98 1139 def
/s101 1139 def
/s102 569 def
/s104 1139 def
/s105 455 def
/s109 1706 def
/s111 1139 def
/s114 682 def
/s115 1024 def
/s116 569 def
/s117 1139 def
end
/CharProcs 17 dict def
CharProcs begin
/.notdef {} def
/s66 {
150 0 m
150 1466 150 0 150 1466 c
700 1466 150 1466 700 1466 c
812 1466 901.83 1451.17 969.5 1421.5 c
1037.17 1391.83 1090.17 1346.17 1128.5 1284.5 c
1166.83 1222.83 1186 1158.33 1186 1091 c
1186 1028.33 1169 969.33 1135 914 c
1101 858.67 1049.67 814 981 780 c
1069.67 754 1137.83 709.67 1185.5 647 c
1233.17 584.33 1257 510.33 1257 425 c
1257 356.33 1242.5 292.5 1213.5 233.5 c
1184.5 174.5 1148.67 129 1106 97 c
1063.33 65 1009.83 40.83 945.5 24.5 c
881.17 8.17 802.33 0 709 0 c
150 0 709 0 150 0 c
closepath 344 850 m
661 850 344 850 661 850 c
747 850 808.67 855.67 846 867 c
895.33 881.67 932.5 906 957.5 940 c
982.5 974 995 1016.67 995 1068 c
995 1116.67 983.33 1159.5 960 1196.5 c
936.67 1233.5 903.33 1258.83 860 1272.5 c
816.67 1286.17 742.33 1293 637 1293 c
344 1293 637 1293 344 1293 c
344 850 344 1293 344 850 c
closepath 344 173 m
709 173 344 173 709 173 c
771.67 173 815.67 175.33 841 180 c
885.67 188 923 201.33 953 220 c
983 238.67 1007.67 265.83 1027 301.5 c
1046.33 337.17 1056 378.33 1056 425 c
1056 479.67 1042 527.17 1014 567.5 c
986 607.83 947.17 636.17 897.5 652.5 c
847.83 668.83 776.33 677 683 677 c
344 677 683 677 344 677 c
344 173 344 677 344 173 c
closepath } bind def
/s69 {
162 0 m
162 1466 162 0 162 1466 c
1222 1466 162 1466 1222 1466 c
1222 1293 1222 1466 1222 1293 c
356 1293 1222 1293 356 1293 c
356 844 356 1293 356 844 c
1167 844 356 844 1167 844 c
1167 672 1167 844 1167 672 c
356 672 1167 672 356 672 c
356 173 356 672 356 173 c
1256 173 356 173 1256 173 c
1256 0 1256 173 1256 0 c
162 0 1256 0 162 0 c
closepath } bind def
/s78 {
156 0 m
156 1466 156 0 156 1466 c
355 1466 156 1466 355 1466 c
1125 315 355 1466 1125 315 c
1125 1466 1125 315 1125 1466 c
1311 1466 1125 1466 1311 1466 c
1311 0 1311 1466 1311 0 c
1112 0 1311 0 1112 0 c
342 1152 1112 0 342 1152 c
342 0 342 1152 342 0 c
156 0 342 0 156 0 c
closepath } bind def
/s84 {
531 0 m
531 1293 531 0 531 1293 c
48 1293 531 1293 48 1293 c
48 1466 48 1293 48 1466 c
1210 1466 48 1466 1210 1466 c
1210 1293 1210 1466 1210 1293 c
725 1293 1210 1293 725 1293 c
725 0 725 1293 725 0 c
531 0 725 0 531 0 c
closepath } bind def
/s98 {
301 0 m
134 0 301 0 134 0 c
134 1466 134 0 134 1466 c
314 1466 134 1466 314 1466 c
314 943 314 1466 314 943 c
390 1038.33 487 1086 605 1086 c
670.33 1086 732.17 1072.83 790.5 1046.5 c
848.83 1020.17 896.83 983.17 934.5 935.5 c
972.17 887.83 1001.67 830.33 1023 763 c
1044.33 695.67 1055 623.67 1055 547 c
1055 365 1010 224.33 920 125 c
830 25.67 722 -24 596 -24 c
470.67 -24 372.33 28.33 301 133 c
301 0 301 133 301 0 c
closepath 299 539 m
299 411.67 316.33 319.67 351 263 c
407.67 170.33 484.33 124 581 124 c
659.67 124 727.67 158.17 785 226.5 c
842.33 294.83 871 396.67 871 532 c
871 670.67 843.5 773 788.5 839 c
733.5 905 667 938 589 938 c
510.33 938 442.33 903.83 385 835.5 c
327.67 767.17 299 668.33 299 539 c
closepath } bind def
/s101 {
862 342 m
1048 319 862 342 1048 319 c
1018.67 210.33 964.33 126 885 66 c
805.67 6 704.33 -24 581 -24 c
425.67 -24 302.5 23.83 211.5 119.5 c
120.5 215.17 75 349.33 75 522 c
75 700.67 121 839.33 213 938 c
305 1036.67 424.33 1086 571 1086 c
713 1086 829 1037.67 919 941 c
1009 844.33 1054 708.33 1054 533 c
1054 522.33 1053.67 506.33 1053 485 c
261 485 1053 485 261 485 c
267.67 368.33 300.67 279 360 217 c
419.33 155 493.33 124 582 124 c
648 124 704.33 141.33 751 176 c
797.67 210.67 834.67 266 862 342 c
closepath 271 633 m
864 633 271 633 864 633 c
856 722.33 833.33 789.33 796 834 c
738.67 903.33 664.33 938 573 938 c
490.33 938 420.83 910.33 364.5 855 c
308.17 799.67 277 725.67 271 633 c
closepath } bind def
/s102 {
178 0 m
178 922 178 0 178 922 c
19 922 178 922 19 922 c
19 1062 19 922 19 1062 c
178 1062 19 1062 178 1062 c
178 1175 178 1062 178 1175 c
178 1246.33 184.33 1299.33 197 1334 c
214.33 1380.67 244.83 1418.5 288.5 1447.5 c
332.17 1476.5 393.33 1491 472 1491 c
522.67 1491 578.67 1485 640 1473 c
613 1316 640 1473 613 1316 c
575.67 1322.67 540.33 1326 507 1326 c
452.33 1326 413.67 1314.33 391 1291 c
368.33 1267.67 357 1224 357 1160 c
357 1062 357 1160 357 1062 c
564 1062 357 1062 564 1062 c
564 922 564 1062 564 922 c
357 922 564 922 357 922 c
357 0 357 922 357 0 c
178 0 357 0 178 0 c
closepath } bind def
/s104 {
135 0 m
135 1466 135 0 135 1466 c
315 1466 135 1466 315 1466 c
315 940 315 1466 315 940 c
399 1037.33 505 1086 633 1086 c
711.67 1086 780 1070.5 838 1039.5 c
896 1008.5 937.5 965.67 962.5 911 c
987.5 856.33 1000 777 1000 673 c
1000 0 1000 673 1000 0 c
820 0 1000 0 820 0 c
820 673 820 0 820 673 c
820 763 800.5 828.5 761.5 869.5 c
722.5 910.5 667.33 931 596 931 c
542.67 931 492.5 917.17 445.5 889.5 c
398.5 861.83 365 824.33 345 777 c
325 729.67 315 664.33 315 581 c
315 0 315 581 315 0 c
135 0 315 0 135 0 c
closepath } bind def
/s105 {
136 1259 m
136 1466 136 1259 136 1466 c
316 1466 136 1466 316 1466 c
316 1259 316 1466 316 1259 c
136 1259 316 1259 136 1259 c
closepath 136 0 m
136 1062 136 0 136 1062 c
316 1062 136 1062 316 1062 c
316 0 316 1062 316 0 c
136 0 316 0 136 0 c
closepath } bind def
/s109 {
135 0 m
135 1062 135 0 135 1062 c
296 1062 135 1062 296 1062 c
296 913 296 1062 296 913 c
329.33 965 373.67 1006.83 429 1038.5 c
484.33 1070.17 547.33 1086 618 1086 c
696.67 1086 761.17 1069.67 811.5 1037 c
861.83 1004.33 897.33 958.67 918 900 c
1002 1024 1111.33 1086 1246 1086 c
1351.33 1086 1432.33 1056.83 1489 998.5 c
1545.67 940.17 1574 850.33 1574 729 c
1574 0 1574 729 1574 0 c
1395 0 1574 0 1395 0 c
1395 669 1395 0 1395 669 c
1395 741 1389.17 792.83 1377.5 824.5 c
1365.83 856.17 1344.67 881.67 1314 901 c
1283.33 920.33 1247.33 930 1206 930 c
1131.33 930 1069.33 905.17 1020 855.5 c
970.67 805.83 946 726.33 946 617 c
946 0 946 617 946 0 c
766 0 946 0 766 0 c
766 690 766 0 766 690 c
766 770 751.33 830 722 870 c
692.67 910 644.67 930 578 930 c
527.33 930 480.5 916.67 437.5 890 c
394.5 863.33 363.33 824.33 344 773 c
324.67 721.67 315 647.67 315 551 c
315 0 315 551 315 0 c
135 0 315 0 135 0 c
closepath } bind def
/s111 {
68 531 m
68 727.67 122.67 873.33 232 968 c
323.33 1046.67 434.67 1086 566 1086 c
712 1086 831.33 1038.17 924 942.5 c
1016.67 846.83 1063 714.67 1063 546 c
1063 409.33 1042.5 301.83 1001.5 223.5 c
960.5 145.17 900.83 84.33 822.5 41 c
744.17 -2.33 658.67 -24 566 -24 c
417.33 -24 297.17 23.67 205.5 119 c
113.83 214.33 68 351.67 68 531 c
closepath 253 531 m
253 395 282.67 293.17 342 225.5 c
401.33 157.83 476 124 566 124 c
655.33 124 729.67 158 789 226 c
848.33 294 878 397.67 878 537 c
878 668.33 848.17 767.83 788.5 835.5 c
728.83 903.17 654.67 937 566 937 c
476 937 401.33 903.33 342 836 c
282.67 768.67 253 667 253 531 c
closepath } bind def
/s114 {
133 0 m
133 1062 133 0 133 1062 c
295 1062 133 1062 295 1062 c
295 901 295 1062 295 901 c
336.33 976.33 374.5 1026 409.5 1050 c
444.5 1074 483 1086 525 1086 c
585.67 1086 647.33 1066.67 710 1028 c
648 861 710 1028 648 861 c
604 887 560 900 516 900 c
476.67 900 441.33 888.17 410 864.5 c
378.67 840.83 356.33 808 343 766 c
323 702 313 632 313 556 c
313 0 313 556 313 0 c
133 0 313 0 133 0 c
closepath } bind def
/s115 {
63 317 m
241 345 63 317 241 345 c
251 273.67 278.83 219 324.5 181 c
370.17 143 434 124 516 124 c
598.67 124 660 140.83 700 174.5 c
740 208.17 760 247.67 760 293 c
760 333.67 742.33 365.67 707 389 c
682.33 405 621 425.33 523 450 c
391 483.33 299.5 512.17 248.5 536.5 c
197.5 560.83 158.83 594.5 132.5 637.5 c
106.17 680.5 93 728 93 780 c
93 827.33 103.83 871.17 125.5 911.5 c
147.17 951.83 176.67 985.33 214 1012 c
242 1032.67 280.17 1050.17 328.5 1064.5 c
376.83 1078.83 428.67 1086 484 1086 c
567.33 1086 640.5 1074 703.5 1050 c
766.5 1026 813 993.5 843 952.5 c
873 911.5 893.67 856.67 905 788 c
729 764 905 788 729 764 c
721 818.67 697.83 861.33 659.5 892 c
621.17 922.67 567 938 497 938 c
414.33 938 355.33 924.33 320 897 c
284.67 869.67 267 837.67 267 801 c
267 777.67 274.33 756.67 289 738 c
303.67 718.67 326.67 702.67 358 690 c
376 683.33 429 668 517 644 c
644.33 610 733.17 582.17 783.5 560.5 c
833.83 538.83 873.33 507.33 902 466 c
930.67 424.67 945 373.33 945 312 c
945 252 927.5 195.5 892.5 142.5 c
857.5 89.5 807 48.5 741 19.5 c
675 -9.5 600.33 -24 517 -24 c
379 -24 273.83 4.67 201.5 62 c
129.17 119.33 83 204.33 63 317 c
closepath } bind def
/s116 {
528 161 m
554 2 528 161 554 2 c
503.33 -8.67 458 -14 418 -14 c
352.67 -14 302 -3.67 266 17 c
230 37.67 204.67 64.83 190 98.5 c
175.33 132.17 168 203 168 311 c
168 922 168 311 168 922 c
36 922 168 922 36 922 c
36 1062 36 922 36 1062 c
168 1062 36 1062 168 1062 c
168 1325 168 1062 168 1325 c
347 1433 168 1325 347 1433 c
347 1062 347 1433 347 1062 c
528 1062 347 1062 528 1062 c
528 922 528 1062 528 922 c
347 922 528 922 347 922 c
347 301 347 922 347 301 c
347 249.67 350.17 216.67 356.5 202 c
362.83 187.33 373.17 175.67 387.5 167 c
401.83 158.33 422.33 154 449 154 c
469 154 495.33 156.33 528 161 c
closepath } bind def
/s117 {
831 0 m
831 156 831 0 831 156 c
748.33 36 636 -24 494 -24 c
431.33 -24 372.83 -12 318.5 12 c
264.17 36 223.83 66.17 197.5 102.5 c
171.17 138.83 152.67 183.33 142 236 c
134.67 271.33 131 327.33 131 404 c
131 1062 131 404 131 1062 c
311 1062 131 1062 311 1062 c
311 473 311 1062 311 473 c
311 379 314.67 315.67 322 283 c
333.33 235.67 357.33 198.5 394 171.5 c
430.67 144.5 476 131 530 131 c
584 131 634.67 144.83 682 172.5 c
729.33 200.17 762.83 237.83 782.5 285.5 c
802.17 333.17 812 402.33 812 493 c
812 1062 812 493 812 1062 c
992 1062 812 1062 992 1062 c
992 0 992 1062 992 0 c
831 0 992 0 831 0 c
closepath } bind def
end
/BuildGlyph {
 exch dup /Metrics get 2 index get 0 setcharwidth
/CharProcs get exch 2 copy known not{pop/.notdef}if get exec fill}bind def
/BuildChar {
1 index /Encoding get exch get
1 index /BuildGlyph get exec
} bind def
currentdict end /MC5_Arial exch definefont pop
%%EndFont
%%BeginFont: /MC6_Arial
12 dict begin
/FontInfo 8 dict dup begin
/ItalicAngle 0 def
/UnderlinePosition -217.00 def
/UnderlineThickness 150.00 def
/StrikeoutPosition 530.00 def
/StrikeoutThickness 102.00 def
/isFixedPitch false def
end readonly def
/FontName /MC6_Arial def
/FontType 3 def
/FontMatrix [1 2048 div 0 0 1 2048 div 0 0] def
/FontBBox [-1361 -665 4096 2060] def
/Encoding 256 array def 0 1 255{Encoding exch/.notdef put}for
Encoding 32/s32 put
Encoding 40/s40 put
Encoding 41/s41 put
Encoding 46/s46 put
Encoding 47/s47 put
Encoding 48/s48 put
Encoding 49/s49 put
Encoding 50/s50 put
Encoding 52/s52 put
Encoding 54/s54 put
Encoding 56/s56 put
Encoding 67/s67 put
Encoding 68/s68 put
Encoding 69/s69 put
Encoding 80/s80 put
Encoding 82/s82 put
Encoding 99/s99 put
Encoding 101/s101 put
Encoding 108/s108 put
Encoding 115/s115 put
Encoding 121/s121 put
/BoundingBoxes 22 dict def
BoundingBoxes begin
/s32 [0 -434 569 1854] def
/s40 [0 -434 682 1854] def
/s41 [0 -434 682 1854] def
/s46 [0 -434 569 1854] def
/s47 [0 -434 569 1854] def
/s48 [0 -434 1139 1854] def
/s49 [0 -434 1139 1854] def
/s50 [0 -434 1139 1854] def
/s52 [0 -434 1139 1854] def
/s54 [0 -434 1139 1854] def
/s56 [0 -434 1139 1854] def
/s67 [0 -434 1479 1854] def
/s68 [0 -434 1479 1854] def
/s69 [0 -434 1366 1854] def
/s80 [0 -434 1366 1854] def
/s82 [0 -434 1479 1854] def
/s99 [0 -434 1024 1854] def
/s101 [0 -434 1139 1854] def
/s108 [0 -434 455 1854] def
/s115 [0 -434 1024 1854] def
/s121 [0 -434 1024 1854] def
end
/Metrics 22 dict def
 Metrics begin
/s32 569 def
/s40 682 def
/s41 682 def
/s46 569 def
/s47 569 def
/s48 1139 def
/s49 1139 def
/s50 1139 def
/s52 1139 def
/s54 1139 def
/s56 1139 def
/s67 1479 def
/s68 1479 def
/s69 1366 def
/s80 1366 def
/s82 1479 def
/s99 1024 def
/s101 1139 def
/s108 455 def
/s115 1024 def
/s121 1024 def
end
/CharProcs 22 dict def
CharProcs begin
/.notdef {} def
/s40 {
479 -431 m
379.67 -305.67 295.67 -159 227 9 c
158.33 177 124 351 124 531 c
124 689.67 149.67 841.67 201 987 c
261 1155.67 353.67 1323.67 479 1491 c
608 1491 479 1491 608 1491 c
527.33 1352.33 474 1253.33 448 1194 c
407.33 1102 375.33 1006 352 906 c
323.33 781.33 309 656 309 530 c
309 209.33 408.67 -111 608 -431 c
479 -431 608 -431 479 -431 c
closepath } bind def
/s41 {
253 -431 m
124 -431 253 -431 124 -431 c
323.33 -111 423 209.33 423 530 c
423 655.33 408.67 779.67 380 903 c
357.33 1003 325.67 1099 285 1191 c
259 1251 205.33 1351 124 1491 c
253 1491 124 1491 253 1491 c
378.33 1323.67 471 1155.67 531 987 c
582.33 841.67 608 689.67 608 531 c
608 351 573.5 177 504.5 9 c
435.5 -159 351.67 -305.67 253 -431 c
closepath } bind def
/s46 {
186 0 m
186 205 186 0 186 205 c
391 205 186 205 391 205 c
391 0 391 205 391 0 c
186 0 391 0 186 0 c
closepath } bind def
/s47 {
0 -25 m
425 1491 0 -25 425 1491 c
569 1491 425 1491 569 1491 c
145 -25 569 1491 145 -25 c
0 -25 145 -25 0 -25 c
closepath } bind def
/s48 {
85 723 m
85 896.33 102.83 1035.83 138.5 1141.5 c
174.17 1247.17 227.17 1328.67 297.5 1386 c
367.83 1443.33 456.33 1472 563 1472 c
641.67 1472 710.67 1456.17 770 1424.5 c
829.33 1392.83 878.33 1347.17 917 1287.5 c
955.67 1227.83 986 1155.17 1008 1069.5 c
1030 983.83 1041 868.33 1041 723 c
1041 551 1023.33 412.17 988 306.5 c
952.67 200.83 899.83 119.17 829.5 61.5 c
759.17 3.83 670.33 -25 563 -25 c
421.67 -25 310.67 25.67 230 127 c
133.33 249 85 447.67 85 723 c
closepath 270 723 m
270 482.33 298.17 322.17 354.5 242.5 c
410.83 162.83 480.33 123 563 123 c
645.67 123 715.17 163 771.5 243 c
827.83 323 856 483 856 723 c
856 964.33 827.83 1124.67 771.5 1204 c
715.17 1283.33 645 1323 561 1323 c
478.33 1323 412.33 1288 363 1218 c
301 1128.67 270 963.67 270 723 c
closepath } bind def
/s49 {
763 0 m
583 0 763 0 583 0 c
583 1147 583 0 583 1147 c
539.67 1105.67 482.83 1064.33 412.5 1023 c
342.17 981.67 279 950.67 223 930 c
223 1104 223 930 223 1104 c
323.67 1151.33 411.67 1208.67 487 1276 c
562.33 1343.33 615.67 1408.67 647 1472 c
763 1472 647 1472 763 1472 c
763 0 763 1472 763 0 c
closepath } bind def
/s50 {
1031 173 m
1031 0 1031 173 1031 0 c
62 0 1031 0 62 0 c
60.67 43.33 67.67 85 83 125 c
107.67 191 147.17 256 201.5 320 c
255.83 384 334.33 458 437 542 c
596.33 672.67 704 776.17 760 852.5 c
816 928.83 844 1001 844 1069 c
844 1140.33 818.5 1200.5 767.5 1249.5 c
716.5 1298.5 650 1323 568 1323 c
481.33 1323 412 1297 360 1245 c
308 1193 281.67 1121 281 1029 c
96 1048 281 1029 96 1048 c
108.67 1186 156.33 1291.17 239 1363.5 c
321.67 1435.83 432.67 1472 572 1472 c
712.67 1472 824 1433 906 1355 c
988 1277 1029 1180.33 1029 1065 c
1029 1006.33 1017 948.67 993 892 c
969 835.33 929.17 775.67 873.5 713 c
817.83 650.33 725.33 564.33 596 455 c
488 364.33 418.67 302.83 388 270.5 c
357.33 238.17 332 205.67 312 173 c
1031 173 312 173 1031 173 c
closepath } bind def
/s52 {
662 0 m
662 351 662 0 662 351 c
26 351 662 351 26 351 c
26 516 26 351 26 516 c
695 1466 26 516 695 1466 c
842 1466 695 1466 842 1466 c
842 516 842 1466 842 516 c
1040 516 842 516 1040 516 c
1040 351 1040 516 1040 351 c
842 351 1040 351 842 351 c
842 0 842 351 842 0 c
662 0 842 0 662 0 c
closepath 662 516 m
662 1177 662 516 662 1177 c
203 516 662 1177 203 516 c
662 516 203 516 662 516 c
closepath } bind def
/s54 {
1019 1107 m
840 1093 1019 1107 840 1093 c
824 1163.67 801.33 1215 772 1247 c
723.33 1298.33 663.33 1324 592 1324 c
534.67 1324 484.33 1308 441 1276 c
384.33 1234.67 339.67 1174.33 307 1095 c
274.33 1015.67 257.33 902.67 256 756 c
299.33 822 352.33 871 415 903 c
477.67 935 543.33 951 612 951 c
732 951 834.17 906.83 918.5 818.5 c
1002.83 730.17 1045 616 1045 476 c
1045 384 1025.17 298.5 985.5 219.5 c
945.83 140.5 891.33 80 822 38 c
752.67 -4 674 -25 586 -25 c
436 -25 313.67 30.17 219 140.5 c
124.33 250.83 77 432.67 77 686 c
77 969.33 129.33 1175.33 234 1304 c
325.33 1416 448.33 1472 603 1472 c
718.33 1472 812.83 1439.67 886.5 1375 c
960.17 1310.33 1004.33 1221 1019 1107 c
closepath 284 475 m
284 413 297.17 353.67 323.5 297 c
349.83 240.33 386.67 197.17 434 167.5 c
481.33 137.83 531 123 583 123 c
659 123 724.33 153.67 779 215 c
833.67 276.33 861 359.67 861 465 c
861 566.33 834 646.17 780 704.5 c
726 762.83 658 792 576 792 c
494.67 792 425.67 762.83 369 704.5 c
312.33 646.17 284 569.67 284 475 c
closepath } bind def
/s56 {
362 795 m
287.33 822.33 232 861.33 196 912 c
160 962.67 142 1023.33 142 1094 c
142 1200.67 180.33 1290.33 257 1363 c
333.67 1435.67 435.67 1472 563 1472 c
691 1472 794 1434.83 872 1360.5 c
950 1286.17 989 1195.67 989 1089 c
989 1021 971.17 961.83 935.5 911.5 c
899.83 861.17 845.67 822.33 773 795 c
863 765.67 931.5 718.33 978.5 653 c
1025.5 587.67 1049 509.67 1049 419 c
1049 293.67 1004.67 188.33 916 103 c
827.33 17.67 710.67 -25 566 -25 c
421.33 -25 304.67 17.83 216 103.5 c
127.33 189.17 83 296 83 424 c
83 519.33 107.17 599.17 155.5 663.5 c
203.83 727.83 272.67 771.67 362 795 c
closepath 326 1100 m
326 1030.67 348.33 974 393 930 c
437.67 886 495.67 864 567 864 c
636.33 864 693.17 885.83 737.5 929.5 c
781.83 973.17 804 1026.67 804 1090 c
804 1156 781.17 1211.5 735.5 1256.5 c
689.83 1301.5 633 1324 565 1324 c
496.33 1324 439.33 1302 394 1258 c
348.67 1214 326 1161.33 326 1100 c
closepath 268 423 m
268 371.67 280.17 322 304.5 274 c
328.83 226 365 188.83 413 162.5 c
461 136.17 512.67 123 568 123 c
654 123 725 150.67 781 206 c
837 261.33 865 331.67 865 417 c
865 503.67 836.17 575.33 778.5 632 c
720.83 688.67 648.67 717 562 717 c
477.33 717 407.17 689 351.5 633 c
295.83 577 268 507 268 423 c
closepath } bind def
/s67 {
1204 514 m
1398 465 1204 514 1398 465 c
1357.33 305.67 1284.17 184.17 1178.5 100.5 c
1072.83 16.83 943.67 -25 791 -25 c
633 -25 504.5 7.17 405.5 71.5 c
306.5 135.83 231.17 229 179.5 351 c
127.83 473 102 604 102 744 c
102 896.67 131.17 1029.83 189.5 1143.5 c
247.83 1257.17 330.83 1343.5 438.5 1402.5 c
546.17 1461.5 664.67 1491 794 1491 c
940.67 1491 1064 1453.67 1164 1379 c
1264 1304.33 1333.67 1199.33 1373 1064 c
1182 1019 1373 1064 1182 1019 c
1148 1125.67 1098.67 1203.33 1034 1252 c
969.33 1300.67 888 1325 790 1325 c
677.33 1325 583.17 1298 507.5 1244 c
431.83 1190 378.67 1117.5 348 1026.5 c
317.33 935.5 302 841.67 302 745 c
302 620.33 320.17 511.5 356.5 418.5 c
392.83 325.5 449.33 256 526 210 c
602.67 164 685.67 141 775 141 c
883.67 141 975.67 172.33 1051 235 c
1126.33 297.67 1177.33 390.67 1204 514 c
closepath } bind def
/s68 {
158 0 m
158 1466 158 0 158 1466 c
663 1466 158 1466 663 1466 c
777 1466 864 1459 924 1445 c
1008 1425.67 1079.67 1390.67 1139 1340 c
1216.33 1274.67 1274.17 1191.17 1312.5 1089.5 c
1350.83 987.83 1370 871.67 1370 741 c
1370 629.67 1357 531 1331 445 c
1305 359 1271.67 287.83 1231 231.5 c
1190.33 175.17 1145.83 130.83 1097.5 98.5 c
1049.17 66.17 990.83 41.67 922.5 25 c
854.17 8.33 775.67 0 687 0 c
158 0 687 0 158 0 c
closepath 352 173 m
665 173 352 173 665 173 c
761.67 173 837.5 182 892.5 200 c
947.5 218 991.33 243.33 1024 276 c
1070 322 1105.83 383.83 1131.5 461.5 c
1157.17 539.17 1170 633.33 1170 744 c
1170 897.33 1144.83 1015.17 1094.5 1097.5 c
1044.17 1179.83 983 1235 911 1263 c
859 1283 775.33 1293 660 1293 c
352 1293 660 1293 352 1293 c
352 173 352 1293 352 173 c
closepath } bind def
/s69 {
162 0 m
162 1466 162 0 162 1466 c
1222 1466 162 1466 1222 1466 c
1222 1293 1222 1466 1222 1293 c
356 1293 1222 1293 356 1293 c
356 844 356 1293 356 844 c
1167 844 356 844 1167 844 c
1167 672 1167 844 1167 672 c
356 672 1167 672 356 672 c
356 173 356 672 356 173 c
1256 173 356 173 1256 173 c
1256 0 1256 173 1256 0 c
162 0 1256 0 162 0 c
closepath } bind def
/s80 {
158 0 m
158 1466 158 0 158 1466 c
711 1466 158 1466 711 1466 c
808.33 1466 882.67 1461.33 934 1452 c
1006 1440 1066.33 1417.17 1115 1383.5 c
1163.67 1349.83 1202.83 1302.67 1232.5 1242 c
1262.17 1181.33 1277 1114.67 1277 1042 c
1277 917.33 1237.33 811.83 1158 725.5 c
1078.67 639.17 935.33 596 728 596 c
352 596 728 596 352 596 c
352 0 352 596 352 0 c
158 0 352 0 158 0 c
closepath 352 769 m
731 769 352 769 731 769 c
856.33 769 945.33 792.33 998 839 c
1050.67 885.67 1077 951.33 1077 1036 c
1077 1097.33 1061.5 1149.83 1030.5 1193.5 c
999.5 1237.17 958.67 1266 908 1280 c
875.33 1288.67 815 1293 727 1293 c
352 1293 727 1293 352 1293 c
352 769 352 1293 352 769 c
closepath } bind def
/s82 {
161 0 m
161 1466 161 0 161 1466 c
811 1466 161 1466 811 1466 c
941.67 1466 1041 1452.83 1109 1426.5 c
1177 1400.17 1231.33 1353.67 1272 1287 c
1312.67 1220.33 1333 1146.67 1333 1066 c
1333 962 1299.33 874.33 1232 803 c
1164.67 731.67 1060.67 686.33 920 667 c
971.33 642.33 1010.33 618 1037 594 c
1093.67 542 1147.33 477 1198 399 c
1453 0 1198 399 1453 0 c
1209 0 1453 0 1209 0 c
1015 305 1209 0 1015 305 c
958.33 393 911.67 460.33 875 507 c
838.33 553.67 805.5 586.33 776.5 605 c
747.5 623.67 718 636.67 688 644 c
666 648.67 630 651 580 651 c
355 651 580 651 355 651 c
355 0 355 651 355 0 c
161 0 355 0 161 0 c
closepath 355 819 m
772 819 355 819 772 819 c
860.67 819 930 828.17 980 846.5 c
1030 864.83 1068 894.17 1094 934.5 c
1120 974.83 1133 1018.67 1133 1066 c
1133 1135.33 1107.83 1192.33 1057.5 1237 c
1007.17 1281.67 927.67 1304 819 1304 c
355 1304 819 1304 355 1304 c
355 819 355 1304 355 819 c
closepath } bind def
/s99 {
828 389 m
1005 366 828 389 1005 366 c
985.67 244 936.17 148.5 856.5 79.5 c
776.83 10.5 679 -24 563 -24 c
417.67 -24 300.83 23.5 212.5 118.5 c
124.17 213.5 80 349.67 80 527 c
80 641.67 99 742 137 828 c
175 914 232.83 978.5 310.5 1021.5 c
388.17 1064.5 472.67 1086 564 1086 c
679.33 1086 773.67 1056.83 847 998.5 c
920.33 940.17 967.33 857.33 988 750 c
813 723 988 750 813 723 c
796.33 794.33 766.83 848 724.5 884 c
682.17 920 631 938 571 938 c
480.33 938 406.67 905.5 350 840.5 c
293.33 775.5 265 672.67 265 532 c
265 389.33 292.33 285.67 347 221 c
401.67 156.33 473 124 561 124 c
631.67 124 690.67 145.67 738 189 c
785.33 232.33 815.33 299 828 389 c
closepath } bind def
/s101 {
862 342 m
1048 319 862 342 1048 319 c
1018.67 210.33 964.33 126 885 66 c
805.67 6 704.33 -24 581 -24 c
425.67 -24 302.5 23.83 211.5 119.5 c
120.5 215.17 75 349.33 75 522 c
75 700.67 121 839.33 213 938 c
305 1036.67 424.33 1086 571 1086 c
713 1086 829 1037.67 919 941 c
1009 844.33 1054 708.33 1054 533 c
1054 522.33 1053.67 506.33 1053 485 c
261 485 1053 485 261 485 c
267.67 368.33 300.67 279 360 217 c
419.33 155 493.33 124 582 124 c
648 124 704.33 141.33 751 176 c
797.67 210.67 834.67 266 862 342 c
closepath 271 633 m
864 633 271 633 864 633 c
856 722.33 833.33 789.33 796 834 c
738.67 903.33 664.33 938 573 938 c
490.33 938 420.83 910.33 364.5 855 c
308.17 799.67 277 725.67 271 633 c
closepath } bind def
/s108 {
131 0 m
131 1466 131 0 131 1466 c
311 1466 131 1466 311 1466 c
311 0 311 1466 311 0 c
131 0 311 0 131 0 c
closepath } bind def
/s115 {
63 317 m
241 345 63 317 241 345 c
251 273.67 278.83 219 324.5 181 c
370.17 143 434 124 516 124 c
598.67 124 660 140.83 700 174.5 c
740 208.17 760 247.67 760 293 c
760 333.67 742.33 365.67 707 389 c
682.33 405 621 425.33 523 450 c
391 483.33 299.5 512.17 248.5 536.5 c
197.5 560.83 158.83 594.5 132.5 637.5 c
106.17 680.5 93 728 93 780 c
93 827.33 103.83 871.17 125.5 911.5 c
147.17 951.83 176.67 985.33 214 1012 c
242 1032.67 280.17 1050.17 328.5 1064.5 c
376.83 1078.83 428.67 1086 484 1086 c
567.33 1086 640.5 1074 703.5 1050 c
766.5 1026 813 993.5 843 952.5 c
873 911.5 893.67 856.67 905 788 c
729 764 905 788 729 764 c
721 818.67 697.83 861.33 659.5 892 c
621.17 922.67 567 938 497 938 c
414.33 938 355.33 924.33 320 897 c
284.67 869.67 267 837.67 267 801 c
267 777.67 274.33 756.67 289 738 c
303.67 718.67 326.67 702.67 358 690 c
376 683.33 429 668 517 644 c
644.33 610 733.17 582.17 783.5 560.5 c
833.83 538.83 873.33 507.33 902 466 c
930.67 424.67 945 373.33 945 312 c
945 252 927.5 195.5 892.5 142.5 c
857.5 89.5 807 48.5 741 19.5 c
675 -9.5 600.33 -24 517 -24 c
379 -24 273.83 4.67 201.5 62 c
129.17 119.33 83 204.33 63 317 c
closepath } bind def
/s121 {
127 -409 m
107 -240 127 -409 107 -240 c
146.33 -250.67 180.67 -256 210 -256 c
250 -256 282 -249.33 306 -236 c
330 -222.67 349.67 -204 365 -180 c
376.33 -162 394.67 -117.33 420 -46 c
423.33 -36 428.67 -21.33 436 -2 c
33 1062 436 -2 33 1062 c
227 1062 33 1062 227 1062 c
448 447 227 1062 448 447 c
476.67 369 502.33 287 525 201 c
545.67 283.67 570.33 364.33 599 443 c
826 1062 599 443 826 1062 c
1006 1062 826 1062 1006 1062 c
602 -18 1006 1062 602 -18 c
558.67 -134.67 525 -215 501 -259 c
469 -318.33 432.33 -361.83 391 -389.5 c
349.67 -417.17 300.33 -431 243 -431 c
208.33 -431 169.67 -423.67 127 -409 c
closepath } bind def
end
/BuildGlyph {
 exch dup /Metrics get 2 index get 0 setcharwidth
/CharProcs get exch 2 copy known not{pop/.notdef}if get exec fill}bind def
/BuildChar {
1 index /Encoding get exch get
1 index /BuildGlyph get exec
} bind def
currentdict end /MC6_Arial exch definefont pop
%%EndFont
/clipproc{clippath{[{/m cvx}{/l cvx}{/c cvx}{/cp cvx}pathforall}stopped
{cleartomark[pathbbox exch 3 i sub exch 2 i sub/rectpath cvx}if]np}bd
/iclmtx mtx cmtx def/iclpath clipproc xd/clinit{pathproc initclip np iclpath cl np exec}bd
/clmove{pathproc 3 1 roll clippath pathproc 2 i neg 2 i neg tr initclip np exec cl tr np exec}bd
/clrect[gs np iclpath{pathbbox}stopped{0 0 1800 720 }if gr]def
/cloper{mtx cmtx iclmtx smtx exch exec smtx}bd
/cland{{exch cvx exec}cloper}bd
/clcopy{{exch clinit cvx exec}cloper}bd
/cldiff{{exch pathbbox 4 -1 roll clrect 0 get 2 copy gt{exch}if pop 4 1 roll
 3 -1 roll clrect 1 get 2 copy gt{exch}if pop 3 1 roll
 2 -1 roll clrect 2 get 2 copy lt{exch}if pop 2 1 roll
 1 -1 roll clrect 3 get 2 copy lt{exch}if pop 1 1 roll
 exch 3 i sub exch 2 i sub rectpath cvx exec}cloper}bd
/icl{{clinit}cloper}bd
0.239948 0.239942 sc

/initmtx mtx cmtx def
[1.00022 -0 0 -1.00025 0 3000.73] concat
gs
2112 2562 m
2112 127 l
2 sw
0.753 0.753 0.753 rgb
1 sj
1 scap
st
3576 2562 m
3576 127 l
st
5039 2562 m
5039 127 l
st
6502 2562 m
6502 127 l
st
649 2359 m
7234 2359 l
st
649 1953 m
7234 1953 l
st
649 1547 m
7234 1547 l
st
649 1142 m
7234 1142 l
st
649 736 m
7234 736 l
st
649 330 m
7234 330 l
st
1381 2562 m
1381 127 l
3 sw
st
2844 2562 m
2844 127 l
st
4307 2562 m
4307 127 l
st
5771 2562 m
5771 127 l
st
649 2156 m
7234 2156 l
st
649 1750 m
7234 1750 l
st
649 1345 m
7234 1345 l
st
649 939 m
7234 939 l
st
649 533 m
7234 533 l
st
gs
1 -1 sc
0 0 0 rgb
/MC1_Arial 175 self 420 -2757 m
(1.0E4)[97 49 97 117 97 ] xs
1 -1 sc
gr
gs
1 -1 sc
0 0 0 rgb
/MC1_Arial 175 self 1152 -2757 m
(2.0E4)[97 49 97 117 97 ] xs
1 -1 sc
gr
gs
1 -1 sc
0 0 0 rgb
/MC1_Arial 175 self 1883 -2757 m
(3.0E4)[97 49 97 117 97 ] xs
1 -1 sc
gr
gs
1 -1 sc
0 0 0 rgb
/MC1_Arial 175 self 2615 -2757 m
(4.0E4)[97 49 97 117 97 ] xs
1 -1 sc
gr
gs
1 -1 sc
0 0 0 rgb
/MC1_Arial 175 self 3347 -2757 m
(5.0E4)[97 49 97 117 97 ] xs
1 -1 sc
gr
gs
1 -1 sc
0 0 0 rgb
/MC1_Arial 175 self 4078 -2757 m
(6.0E4)[97 49 97 117 97 ] xs
1 -1 sc
gr
gs
1 -1 sc
0 0 0 rgb
/MC1_Arial 175 self 4810 -2757 m
(7.0E4)[97 49 97 117 97 ] xs
1 -1 sc
gr
gs
1 -1 sc
0 0 0 rgb
/MC1_Arial 175 self 5542 -2757 m
(8.0E4)[97 49 97 117 97 ] xs
1 -1 sc
gr
gs
1 -1 sc
0 0 0 rgb
/MC1_Arial 175 self 6273 -2757 m
(9.0E4)[97 49 97 117 97 ] xs
1 -1 sc
gr
gs
1 -1 sc
0 0 0 rgb
/MC1_Arial 175 self 7005 -2757 m
(1.0E5)[97 49 97 117 97 ] xs
1 -1 sc
gr
gs
1 -1 sc
0 0 0 rgb
/MC1_Arial 175 self 495 -2615 m
(0)[97 ] xs
1 -1 sc
gr
gs
1 -1 sc
0 0 0 rgb
/MC1_Arial 175 self 398 -2412 m
(50)[97 97 ] xs
1 -1 sc
gr
gs
1 -1 sc
0 0 0 rgb
/MC1_Arial 175 self 301 -2209 m
(100)[97 97 97 ] xs
1 -1 sc
gr
gs
1 -1 sc
0 0 0 rgb
/MC1_Arial 175 self 301 -2006 m
(150)[97 97 97 ] xs
1 -1 sc
gr
gs
1 -1 sc
0 0 0 rgb
/MC1_Arial 175 self 301 -1803 m
(200)[97 97 97 ] xs
1 -1 sc
gr
gs
1 -1 sc
0 0 0 rgb
/MC1_Arial 175 self 301 -1600 m
(250)[97 97 97 ] xs
1 -1 sc
gr
gs
1 -1 sc
0 0 0 rgb
/MC1_Arial 175 self 301 -1398 m
(300)[97 97 97 ] xs
1 -1 sc
gr
gs
1 -1 sc
0 0 0 rgb
/MC1_Arial 175 self 301 -1195 m
(350)[97 97 97 ] xs
1 -1 sc
gr
gs
1 -1 sc
0 0 0 rgb
/MC1_Arial 175 self 301 -992 m
(400)[97 97 97 ] xs
1 -1 sc
gr
gs
1 -1 sc
0 0 0 rgb
/MC1_Arial 175 self 301 -789 m
(450)[97 97 97 ] xs
1 -1 sc
gr
gs
1 -1 sc
0 0 0 rgb
/MC1_Arial 175 self 301 -586 m
(500)[97 97 97 ] xs
1 -1 sc
gr
gs
1 -1 sc
0 0 0 rgb
/MC1_Arial 175 self 301 -383 m
(550)[97 97 97 ] xs
1 -1 sc
gr
gs
1 -1 sc
0 0 0 rgb
/MC1_Arial 175 self 301 -180 m
(600)[97 97 97 ] xs
1 -1 sc
gr
649 2579 m
649 2562 l
7 sw
0 0 0 rgb
st
1381 2596 m
1381 2562 l
st
2112 2579 m
2112 2562 l
st
2844 2596 m
2844 2562 l
st
3576 2579 m
3576 2562 l
st
4307 2596 m
4307 2562 l
st
5039 2579 m
5039 2562 l
st
5771 2596 m
5771 2562 l
st
6502 2579 m
6502 2562 l
st
7234 2596 m
7234 2562 l
st
649 2562 m
7234 2562 l
st
615 2562 m
649 2562 l
st
632 2359 m
649 2359 l
st
615 2156 m
649 2156 l
st
632 1953 m
649 1953 l
st
615 1750 m
649 1750 l
st
632 1547 m
649 1547 l
st
615 1345 m
649 1345 l
st
632 1142 m
649 1142 l
st
615 939 m
649 939 l
st
632 736 m
649 736 l
st
615 533 m
649 533 l
st
632 330 m
649 330 l
st
615 127 m
649 127 l
st
649 2562 m
649 127 l
st
649 127 m
649 127 l
st
1381 127 m
1381 127 l
st
2112 127 m
2112 127 l
st
2844 127 m
2844 127 l
st
3576 127 m
3576 127 l
st
4307 127 m
4307 127 l
st
5039 127 m
5039 127 l
st
5771 127 m
5771 127 l
st
6502 127 m
6502 127 l
st
7234 127 m
7234 127 l
st
649 127 m
7234 127 l
st
7234 2562 m
7234 2562 l
st
7234 2359 m
7234 2359 l
st
7234 2156 m
7234 2156 l
st
7234 1953 m
7234 1953 l
st
7234 1750 m
7234 1750 l
st
7234 1547 m
7234 1547 l
st
7234 1345 m
7234 1345 l
st
7234 1142 m
7234 1142 l
st
7234 939 m
7234 939 l
st
7234 736 m
7234 736 l
st
7234 533 m
7234 533 l
st
7234 330 m
7234 330 l
st
7234 127 m
7234 127 l
st
7234 2562 m
7234 127 l
st
gs
pathproc 649 127 6586 2436 np rectpath
/eocl cland
np exec
1381 2163 m
649 2402 l
22 sw
st
2112 1631 m
1381 2163 l
st
2844 1232 m
2112 1631 l
st
3576 567 m
2844 1232 l
st
4307 -763 m
3576 567 l
st
5039 -1428 m
4307 -763 l
st
5771 -2757 m
5039 -1428 l
st
6502 -4087 m
5771 -2757 l
st
7234 -5417 m
6502 -4087 l
st
613 2366 72 72 rectfill
6502 -4087 m
6 sw
613 2366 72 72 rectstroke
1345 2127 72 72 rectfill
1345 2127 72 72 rectstroke
2076 1595 72 72 rectfill
2076 1595 72 72 rectstroke
2808 1196 72 72 rectfill
2808 1196 72 72 rectstroke
3540 531 72 72 rectfill
3540 531 72 72 rectstroke
4271 -799 72 72 rectfill
4271 -799 72 72 rectstroke
5003 -1464 72 72 rectfill
5003 -1464 72 72 rectstroke
5735 -2793 72 72 rectfill
5735 -2793 72 72 rectstroke
6466 -4123 72 72 rectfill
6466 -4123 72 72 rectstroke
7198 -5453 72 72 rectfill
7198 -5453 72 72 rectstroke
gr
gs
pathproc 649 127 6586 2436 np rectpath
/eocl cland
np exec
1381 2243 m
649 2434 l
22 sw
1 0 0 rgb
st
2112 1817 m
1381 2243 l
st
2844 1498 m
2112 1817 l
st
3576 966 m
2844 1498 l
st
4307 -98 m
3576 966 l
st
5039 -630 m
4307 -98 l
st
5771 -1693 m
5039 -630 l
st
6502 -2757 m
5771 -1693 l
st
7234 -3821 m
6502 -2757 l
st
np
649 2434 41 0 360  a
cp
gs
eofi
gr
6 sw
st
np
1381 2243 41 0 360  a
cp
gs
eofi
gr
st
np
2112 1817 41 0 360  a
cp
gs
eofi
gr
st
np
2844 1498 41 0 360  a
cp
gs
eofi
gr
st
np
3576 966 41 0 360  a
cp
gs
eofi
gr
st
np
4307 -98 41 0 360  a
cp
gs
eofi
gr
st
np
5039 -630 41 0 360  a
cp
gs
eofi
gr
st
np
5771 -1693 41 0 360  a
cp
gs
eofi
gr
st
np
6502 -2757 41 0 360  a
cp
gs
eofi
gr
st
np
7234 -3821 41 0 360  a
cp
gs
eofi
gr
st
gr
gs
pathproc 649 127 6586 2436 np rectpath
/eocl cland
np exec
1381 2323 m
649 2466 l
22 sw
0 0 1 rgb
st
2112 2003 m
1381 2323 l
st
2844 1764 m
2112 2003 l
st
3576 1365 m
2844 1764 l
st
4307 567 m
3576 1365 l
st
5039 168 m
4307 567 l
st
5771 -630 m
5039 168 l
st
6502 -1428 m
5771 -630 l
st
7234 -2225 m
6502 -1428 l
st
649 2410 m
697 2494 l
600 2494 l
cp
gs
eofi
gr
6 sw
st
1381 2267 m
1429 2351 l
1332 2351 l
cp
gs
eofi
gr
st
2112 1947 m
2160 2031 l
2063 2031 l
cp
gs
eofi
gr
st
2844 1708 m
2892 1792 l
2795 1792 l
cp
gs
eofi
gr
st
3576 1309 m
3624 1393 l
3527 1393 l
cp
gs
eofi
gr
st
4307 511 m
4355 595 l
4258 595 l
cp
gs
eofi
gr
st
5039 112 m
5087 196 l
4990 196 l
cp
gs
eofi
gr
st
5771 -686 m
5819 -602 l
5722 -602 l
cp
gs
eofi
gr
st
6502 -1484 m
6550 -1400 l
6453 -1400 l
cp
gs
eofi
gr
st
7234 -2281 m
7282 -2197 l
7185 -2197 l
cp
gs
eofi
gr
st
gr
gs
pathproc 649 127 6586 2436 np rectpath
/eocl cland
np exec
1381 2402 m
649 2498 l
22 sw
1 0 1 rgb
st
2112 2190 m
1381 2402 l
st
2844 2030 m
2112 2190 l
st
3576 1764 m
2844 2030 l
st
4307 1232 m
3576 1764 l
st
5039 966 m
4307 1232 l
st
5771 434 m
5039 966 l
st
6502 -98 m
5771 434 l
st
7234 -630 m
6502 -98 l
st
697 2470 m
649 2554 l
600 2470 l
cp
gs
eofi
gr
6 sw
st
1429 2374 m
1381 2458 l
1332 2374 l
cp
gs
eofi
gr
st
2160 2162 m
2112 2246 l
2063 2162 l
cp
gs
eofi
gr
st
2892 2002 m
2844 2086 l
2795 2002 l
cp
gs
eofi
gr
st
3624 1736 m
3576 1820 l
3527 1736 l
cp
gs
eofi
gr
st
4355 1204 m
4307 1288 l
4258 1204 l
cp
gs
eofi
gr
st
5087 938 m
5039 1022 l
4990 938 l
cp
gs
eofi
gr
st
5819 406 m
5771 490 l
5722 406 l
cp
gs
eofi
gr
st
6550 -126 m
6502 -42 l
6453 -126 l
cp
gs
eofi
gr
st
7282 -658 m
7234 -574 l
7185 -658 l
cp
gs
eofi
gr
st
gr
gs
pathproc 649 127 6586 2436 np rectpath
/eocl cland
np exec
1381 2482 m
649 2530 l
22 sw
0 0.502 0 rgb
st
2112 2376 m
1381 2482 l
st
2844 2296 m
2112 2376 l
st
3576 2163 m
2844 2296 l
st
4307 1897 m
3576 2163 l
st
5039 1764 m
4307 1897 l
st
5771 1498 m
5039 1764 l
st
6502 1232 m
5771 1498 l
st
7234 966 m
6502 1232 l
st
598 2530 m
649 2479 l
700 2530 l
649 2581 l
cp
gs
eofi
gr
6 sw
st
1330 2482 m
1381 2431 l
1432 2482 l
1381 2533 l
cp
gs
eofi
gr
st
2061 2376 m
2112 2325 l
2163 2376 l
2112 2427 l
cp
gs
eofi
gr
st
2793 2296 m
2844 2245 l
2895 2296 l
2844 2347 l
cp
gs
eofi
gr
st
3525 2163 m
3576 2112 l
3627 2163 l
3576 2214 l
cp
gs
eofi
gr
st
4256 1897 m
4307 1846 l
4358 1897 l
4307 1948 l
cp
gs
eofi
gr
st
4988 1764 m
5039 1713 l
5090 1764 l
5039 1815 l
cp
gs
eofi
gr
st
5720 1498 m
5771 1447 l
5822 1498 l
5771 1549 l
cp
gs
eofi
gr
st
6451 1232 m
6502 1181 l
6553 1232 l
6502 1283 l
cp
gs
eofi
gr
st
7183 966 m
7234 915 l
7285 966 l
7234 1017 l
cp
gs
eofi
gr
st
gr
gs
pathproc 649 127 6586 2436 np rectpath
/eocl cland
np exec
649 1523 m
649 1523 m
1381 1523 l
2112 1523 l
2844 1523 l
3576 1523 l
4307 1523 l
5039 1523 l
5771 1523 l
6502 1523 l
7234 1523 l
22 sw
0 0 0.502 rgb
st
gr
gs
gs
1 -1 sc
6753 -1118 tr
90 ro
0 0 0.502 rgb
/MC2_ArialBold 188 self 0 0 m
(Decoding)[136 105 105 115 115 52 115 115 ] xs
1 -1 sc
gr
gs
1 -1 sc
6992 -1118 tr
90 ro
0 0 0.502 rgb
/MC2_ArialBold 188 self 0 0 m
(  Failure)[52 52 115 105 52 52 115 73 105 ] xs
1 -1 sc
gr
gr
gs
gs
1 -1 sc
6767 -2480 tr
90 ro
0 0 0.502 rgb
/MC2_ArialBold 188 self 0 0 m
(Decoding)[136 105 105 115 115 52 115 115 ] xs
1 -1 sc
gr
gs
1 -1 sc
7006 -2480 tr
90 ro
0 0 0.502 rgb
/MC2_ArialBold 188 self 0 0 m
( Success)[52 125 115 105 105 105 105 105 ] xs
1 -1 sc
gr
gr
gs
1 -1 sc
1 0 0 rgb
/MC3_ArialBold 166 self 2398 -1790 m
(-16%)[55 92 92 141 ] xs
1 -1 sc
gr
gs
1 -1 sc
0 0 0.502 rgb
/MC4_ArialBoldItalic 175 self 675 -1503 m
(ECC )[117 126 126 49 ] xs
1 -1 sc
1 -1 sc
675 -1721 m
(Correction)[126 107 68 68 97 97 58 49 107 107 ] xs
1 -1 sc
gr
gs
1 -1 sc
1 0 1 rgb
/MC3_ArialBold 188 self 3408 -2374 m
(-40%)[63 105 105 163 ] xs
1 -1 sc
gr
gs
1 -1 sc
0 0.502 0 rgb
/MC3_ArialBold 188 self 4619 -2461 m
(-56%)[63 105 105 163 ] xs
1 -1 sc
gr
2288 1532 m
2288 1611 l
22 sw
st
2288 1718 m
2288 1797 l
st
2288 1904 m
2288 1983 l
st
2288 2090 m
2288 2169 l
st
2288 2276 m
2288 2355 l
st
2288 2462 m
2288 2541 l
st
gs
gs
1 -1 sc
7372 -1416 tr
90 ro
/MC5_Arial 91 self 0 0 m
( )[25 ] xs
1 -1 sc
gr
gr
gs
1 -1 sc
/MC6_Arial 91 self 3929 -33 m
( )[25 ] xs
1 -1 sc
gr
gs
gs
1 -1 sc
208 -2412 tr
90 ro
/MC5_Arial 188 self 0 0 m
(The Number of Error Bits)[115 105 105 52 136 105 157 105 105 63 52 105 52 52 125 63 63 105 63 52 125 42 52 94 ] xs
1 -1 sc
gr
gr
gs
1 -1 sc
/MC6_Arial 200 self 3404 -2950 m
(P/E Cycles)[133 56 133 56 144 100 100 44 111 100 ] xs
1 -1 sc
gr
771 115 m
2108 115 l
2108 1308 l
771 1308 l
cp
gs
1 1 1 rgb
eofi
gr
3 sw
st
gs
gs
gs
828 278 m
1248 278 l
22 sw
st
gr
1002 242 72 72 rectfill
771 1308 m
6 sw
1002 242 72 72 rectstroke
gr
1 -1 sc
/MC6_Arial 188 self 1248 -342 m
( EDR\(1.0\))[52 125 136 136 63 105 52 105 63 ] xs
1 -1 sc
gs
gs
828 509 m
1248 509 l
22 sw
1 0 0 rgb
st
gr
np
1038 509 41 0 360  a
cp
gs
1 0 0 rgb
eofi
gr
6 sw
1 0 0 rgb
st
gr
1 -1 sc
1248 -573 m
( EDR\(0.8\))[52 125 136 136 63 105 52 105 63 ] xs
1 -1 sc
gs
gs
828 740 m
1248 740 l
22 sw
0 0 1 rgb
st
gr
1038 684 m
1086 768 l
989 768 l
cp
gs
0 0 1 rgb
eofi
gr
6 sw
0 0 1 rgb
st
gr
1 -1 sc
1248 -804 m
( EDR\(0.6\))[52 125 136 136 63 105 52 105 63 ] xs
1 -1 sc
gs
gs
828 971 m
1248 971 l
22 sw
1 0 1 rgb
st
gr
1086 943 m
1038 1027 l
989 943 l
cp
gs
1 0 1 rgb
eofi
gr
6 sw
1 0 1 rgb
st
gr
1 -1 sc
1248 -1035 m
( EDR\(0.4\))[52 125 136 136 63 105 52 105 63 ] xs
1 -1 sc
gs
gs
828 1202 m
1248 1202 l
22 sw
0 0.502 0 rgb
st
gr
987 1202 m
1038 1151 l
1089 1202 l
1038 1253 l
cp
gs
0 0.502 0 rgb
eofi
gr
6 sw
0 0.502 0 rgb
st
gr
1 -1 sc
1248 -1266 m
( EDR\(0.2\))[52 125 136 136 63 105 52 105 63 ] xs
1 -1 sc
gr
2288 1532 m
2288 1537 l
9 sw
st
2288 1578 m
2288 1583 l
st
2288 1624 m
2288 1629 l
st
2288 1670 m
2288 1675 l
st
2288 1716 m
2288 1721 l
st
2288 1762 m
2288 1767 l
st
2288 1808 m
2288 1813 l
st
2288 1854 m
2288 1859 l
st
2288 1900 m
2288 1905 l
st
2288 1946 m
2288 1951 l
st
2288 1992 m
2288 1997 l
st
2288 2038 m
2288 2043 l
st
2288 2084 m
2288 2089 l
st
2288 2130 m
2288 2135 l
st
2288 2176 m
2288 2181 l
st
2288 2222 m
2288 2227 l
st
2288 2268 m
2288 2273 l
st
2288 2314 m
2288 2319 l
st
2288 2360 m
2288 2365 l
st
2288 2406 m
2288 2411 l
st
2288 2452 m
2288 2457 l
st
2288 2498 m
2288 2503 l
st
2288 2544 m
2288 2549 l
st
3284 1532 m
3284 1537 l
0 0 0.627 rgb
st
3284 1578 m
3284 1583 l
st
3284 1624 m
3284 1629 l
st
3284 1670 m
3284 1675 l
st
3284 1716 m
3284 1721 l
st
3284 1762 m
3284 1767 l
st
3284 1808 m
3284 1813 l
st
3284 1854 m
3284 1859 l
st
3284 1900 m
3284 1905 l
st
3284 1946 m
3284 1951 l
st
3284 1992 m
3284 1997 l
st
3284 2038 m
3284 2043 l
st
3284 2084 m
3284 2089 l
st
3284 2130 m
3284 2135 l
st
3284 2176 m
3284 2181 l
st
3284 2222 m
3284 2227 l
st
3284 2268 m
3284 2273 l
st
3284 2314 m
3284 2319 l
st
3284 2360 m
3284 2365 l
st
3284 2406 m
3284 2411 l
st
3284 2452 m
3284 2457 l
st
3284 2498 m
3284 2503 l
st
3284 2544 m
3284 2549 l
st
3907 1525 m
3907 1530 l
1 0 1 rgb
st
3906 1571 m
3906 1576 l
st
3906 1617 m
3906 1622 l
st
3905 1663 m
3905 1668 l
st
3904 1709 m
3904 1714 l
st
3904 1755 m
3904 1760 l
st
3903 1801 m
3903 1806 l
st
3902 1847 m
3902 1852 l
st
3902 1893 m
3902 1898 l
st
3901 1939 m
3901 1944 l
st
3900 1985 m
3900 1990 l
st
3900 2031 m
3900 2036 l
st
3899 2077 m
3899 2082 l
st
3899 2123 m
3898 2128 l
st
3898 2169 m
3898 2174 l
st
3897 2215 m
3897 2220 l
st
3897 2261 m
3896 2266 l
st
3896 2307 m
3896 2312 l
st
3895 2353 m
3895 2358 l
st
3895 2399 m
3895 2404 l
st
3894 2445 m
3894 2450 l
st
3893 2491 m
3893 2496 l
st
3893 2537 m
3893 2542 l
st
3892 2582 m
5744 1525 m
5744 1530 l
0 0.502 0 rgb
st
5744 1571 m
5744 1576 l
st
5744 1617 m
5744 1622 l
st
5744 1663 m
5744 1668 l
st
5744 1709 m
5744 1714 l
st
5744 1755 m
5744 1760 l
st
5744 1801 m
5744 1806 l
st
5744 1847 m
5744 1852 l
st
5744 1893 m
5744 1898 l
st
5744 1939 m
5744 1944 l
st
5744 1985 m
5744 1990 l
st
5744 2031 m
5744 2036 l
st
5744 2077 m
5744 2082 l
st
5744 2123 m
5744 2128 l
st
5744 2169 m
5744 2174 l
st
5744 2215 m
5744 2220 l
st
5744 2261 m
5744 2266 l
st
5744 2307 m
5744 2312 l
st
5744 2353 m
5744 2358 l
st
5744 2399 m
5744 2404 l
st
5744 2445 m
5744 2450 l
st
5744 2491 m
5744 2496 l
st
5744 2537 m
5744 2542 l
st
5744 2583 m
5744 2588 l
st
5744 2511 m
2303 2511 l
13 sw
st
2303 2511 m
2399 2479 l
2399 2511 l
2399 2543 l
cp
gs
eofi
gr
st
3883 2412 m
2310 2412 l
1 0 1 rgb
st
2310 2412 m
2406 2380 l
2406 2412 l
2406 2444 l
cp
gs
eofi
gr
st
3284 2149 m
2304 2149 l
0 0 1 rgb
st
2304 2149 m
2400 2117 l
2400 2149 l
2400 2181 l
cp
gs
eofi
gr
st
2818 1535 m
2320 1535 l
1 0 0 rgb
st
2320 1535 m
2416 1503 l
2416 1535 l
2416 1567 l
cp
gs
eofi
gr
st
gs
1 -1 sc
0 0 1 rgb
/MC3_ArialBold 166 self 2906 -2126 m
(-29%)[55 92 92 141 ] xs
1 -1 sc
gr
6834 140 m
6834 1524 l
0 0 0.502 rgb
st
6834 140 m
6866 236 l
6834 236 l
6802 236 l
cp
gs
eofi
gr
st
6834 1524 m
6802 1428 l
6834 1428 l
6866 1428 l
cp
gs
eofi
gr
st
6849 1553 m
6849 2555 l
st
6849 1553 m
6881 1649 l
6849 1649 l
6817 1649 l
cp
gs
eofi
gr
st
6849 2555 m
6817 2459 l
6849 2459 l
6881 2459 l
cp
gs
eofi
gr
st
gr
Save0 restore end
showpage
%%EOF
