%!PS-Adobe-3.0 EPSF-3.0
%%BoundingBox: 0 0 900 720
%%LanguageLevel: 2
%%Creator: OriginLab Corporation
%%Title: (C:\Users\Administrator\Documents\PACT'15\data\misalign-frac.eps)
%%CreationDate: Sun Mar 22 01:44:04 2015
%%EndComments

/OriginLab::PSL1 128 dict dup begin def
/Save0 save def
%%BeginResource: procset OriginLab::PSL1
/wd{1 index where{pop pop pop}{bind def}ifelse}bind def
/setcmykcolor{1 sub 4 1 roll 3{3 index add neg dup 0 lt{pop 0}if 3 1 roll}repeat setrgbcolor pop}wd
/selectfont{dup type/arraytype eq{exch findfont exch makefont setfont}{exch findfont exch scalefont setfont}ifelse}wd
/xshow{1 index length 0 le{}{currentpoint exch 3 index length 1 sub 0 exch 1 exch{dup 5 index exch 1 getinterval show 3 index exch get add 2 copy exch moveto}for pop pop}ifelse pop pop}wd
/glyphshow{matrix currentmatrix exch currentfont dup/FontMatrix get concat currentpoint translate
 dup/Metrics get 2 index get 0 4 2 roll gsave/CharProcs get exch 2 copy known not{pop/.notdef}if
 get exec fill grestore moveto setmatrix}wd
/grayimage/image load def/rgbtogray{cvx exec dup length 3 idiv 1 sub 0 exch 1 exch{dup 3 mul dup 3 index exch get 255 div .3 mul exch
 1 add dup 4 index exch get 255 div .59 mul exch 1 add 4 index exch get 255 div .11 mul add add
 255 mul dup 255 gt{255}if round cvi 2 index 3 1 roll put}for dup length 3 idiv 0 exch getinterval}bind def
/colorimage{0 setgray pop pop cvlit/rgbtogray cvx 2 packedarray cvx grayimage}wd
/bd{bind def}bind def/ld{load def}bd/ed{exch def}bd/xd{cvx def}bd
/np/newpath ld/a/arc ld/m/moveto ld/l/lineto ld/c/curveto ld/rm/rmoveto ld/rl/rlineto ld/rc/rcurveto ld/cp/closepath ld/cpt/currentpoint ld
/tr/translate ld/sc/scale ld/ro/rotate ld/t/transform ld/it/itransform ld/dt/dtransform ld/idt/idtransform ld
/mtx/matrix ld/cmtx/currentmatrix ld/dmtx/defaultmatrix ld/smtx/setmatrix ld/catmtx/concatmatrix ld
/sw/setlinewidth ld/scap/setlinecap ld/sj/setlinejoin ld/sm/setmiterlimit ld/sd/setdash ld/rgb/setrgbcolor ld/crgb/currentrgbcolor ld/cmyk/setcmykcolor ld/gs/gsave ld/gr/grestore ld
/st/stroke ld/fi/fill ld/eofi/eofill ld/cl/clip ld/eocl/eoclip ld
/df/definefont ld/ff/findfont ld/sf/setfont ld/scf/scalefont ld/self/selectfont ld/cf/currentfont ld
/s/show ld/xs/xshow ld/gls/glyphshow ld/xgls{cpt 3 1 roll add exch 3 -1 roll gls m}bd
/cd/currentdict ld/i/index ld
/DrawBox{4 2 roll m 1 index 0 rl 0 exch rl neg 0 rl cp}bd
/plus.re { 6 { 3 index } repeat moveto 0 exch rlineto 0 rlineto pop pop neg 0 exch rlineto pop lineto closepath } def
/DrawBcc{4 2 roll m 2 copy 0 lt exch 0 lt xor{dup 0 exch rl exch 0 rl neg 0 exch rl}{exch dup 0 rl exch 0 exch rl neg 0 rl}ifelse cp}bd
/rectline{dup type/arraytype eq{dup length 0 exch 4 exch 4 sub{0 1 3{3 copy add get 4 1 roll pop}for pop 5 1 roll DrawBox}for pop}{DrawBox}ifelse}bd
/rectpath{dup type/arraytype eq{dup length 0 exch 4 exch 4 sub{0 1 3{3 copy add get 4 1 roll pop}for pop 5 1 roll DrawBcc}for pop}{DrawBcc}ifelse}bd
/pathproc{[{/m cvx}{/l cvx}{/c cvx}{/cp cvx}pathforall]cvx}bd
/L1img/image ld/L1idx[{0}
 {dup 7 and 3 1 roll -3 bitshift get exch 7 sub 1 mul bitshift  1 and}bind 1 index dup
 {dup 1 and 3 1 roll -1 bitshift get exch 1 sub 4 mul bitshift 15 and}bind 1 index dup dup
 {get}bind]def
/image{dup type/dicttype eq {dup/ImgCS get 0 get/Indexed eq}{false}ifelse
 {begin Width Height 8 ImageMatrix {rgb_string rgb_lookup
 cd/DataSource get dup type/filetype eq
 {mystring readstring pop}{exec}ifelse
 dup length 0 ne
 {L1idx BitsPerComponent get 0 1 Width 1 sub
 {3 copy exch exec exch 3 mul exch
 3 mul dup 5 index exch get exch 1 add dup 6 index exch get exch 1 add 6 index exch get
 7 index exch 4 index 2 add exch put 6 index exch 3 index 1 add exch put 5 index exch 2 index exch put pop
 }for pop pop pop }{pop pop pop ()}ifelse }false 3 colorimage end} {dup type/dicttype eq
 {{dup mark exch L1img pop pop}stopped{cleartomark begin Width Height BitsPerComponent ImageMatrix
 {cd/DataSource get dup type/filetype eq {mystring readstring pop}{exec}ifelse
 }false 3 colorimage end} if}{L1img}ifelse}ifelse
 }bd
/L1imgmask/imagemask ld/imagemask{dup type/dicttype eq
 {{dup mark exch L1imgmask pop pop}stopped {cleartomark begin Width Height polarityflag ImageMatrix
 {cd/DataSource get dup type/filetype eq {mystring readstring pop}{exec}ifelse
 }L1imgmask end}if}{L1imgmask}ifelse
 }bd
% Gradient function
/GradientStep 1 150 div def
/GradientStartRGB { /R1 exch def /G1 exch def /B1 exch def } def
/GradientEndRGB { /R2 exch def /G2 exch def /B2 exch def
/GradientSteps GradientLength GradientStep div def
/GradientRStep R2 R1 sub GradientSteps div def
/GradientGStep G2 G1 sub GradientSteps div def
/GradientBStep B2 B1 sub GradientSteps div def
} def
/GradientStepRGB { /R1 R1 GradientRStep add def
/G1 G1 GradientGStep add def
/B1 B1 GradientBStep add def
R1 G1 B1 setrgbcolor
} def
%%EndResource
/rectclip{np rectpath clip np}wd
/rectfill{gs np rectpath fi gr}wd
/rectstroke{gs np dup type/arraytype eq{dup length 6 eq}{false}ifelse{1 index type/arraytype eq{exch}{5 1 roll}ifelse rectline concat st}{rectline st}ifelse gr}wd
%%BeginResource: procset OriginLab::Image
/OriginLab::Image 32 dict dup begin
/BinProc{[currentfile mystring /readstring cvx /pop cvx] cvx bind}bd
/HexProc{[currentfile mystring /readhexstring cvx /pop cvx] cvx bind}bd
/Ascii85Proc{currentfile /ASCII85Decode filter}bd
/LZWA85{currentfile /ASCII85Decode filter /LZWDecode filter}bd
/ImgProcArray[/BinProc /HexProc /Ascii85Proc /LZWA85]def
/ImgDict{/ImgDict 16 dict def ImgDict dup begin /ImageType 1 def /MultipleDataSource false def end}bd
/L2Dec{{[1 0]}{[0 1]}ifelse}bd
/BegImg{ /Img_sv save def
 /ImgDir ed ImgProcArray exch get /ImgProc exch ld
 dup /polarityflag ed L2Dec /polarity ed /smoothflag ed
 tr /dx 2 index def /dy 1 index abs def sc
 string /mystring ed /bpc ed /ih ed /iw ed
 }bd
/EndImg {Img_sv restore}bd
/DoXImg{ /rgb_lookup ed /hival ed ImgDict dup begin
 [/Indexed /DeviceRGB hival rgb_lookup] /L1img where{pop/ImgCS ed}{setcolorspace}ifelse
 /rgb_string iw 3 mul string def
 /Width iw def
 /Height ih def
 /Decode [0 1 bpc{2 mul}repeat 1 sub] def
 /ImageMatrix
  ImgDir 0 eq{[iw 0 0 ih 0 0]}if
  ImgDir 1 eq{[iw neg 0 0 ih iw 0]}if
  ImgDir 2 eq{[iw 0 0 ih neg 0 ih]}if
  ImgDir 3 eq{[iw neg 0 0 ih neg iw ih]}if
  def
 /DataSource ImgProc def
 /BitsPerComponent bpc def
 /Interpolate smoothflag def
 end image}bd
/DoImg{ ImgDict dup begin
 [/DeviceRGB] /L1img where{pop/ImgCS ed}{setcolorspace}ifelse
 /rgb_string iw 3 mul string def
 /Width iw def
 /Height ih def
 /Decode [0 1 0 1 0 1] def
 /ImageMatrix
  ImgDir 0 eq{[iw 0 0 ih 0 0]}if
  ImgDir 1 eq{[iw neg 0 0 ih iw 0]}if
  ImgDir 2 eq{[iw 0 0 ih neg 0 ih]}if
  ImgDir 3 eq{[iw neg 0 0 ih neg iw ih]}if
  def
 /DataSource ImgProc def
 /BitsPerComponent 8 def
 /Interpolate smoothflag def
 end image}bd
end def
%%EndResource
%%BeginFont: /MC1_Arial
12 dict begin
/FontInfo 8 dict dup begin
/ItalicAngle 0 def
/UnderlinePosition -217.00 def
/UnderlineThickness 150.00 def
/StrikeoutPosition 530.00 def
/StrikeoutThickness 102.00 def
/isFixedPitch false def
end readonly def
/FontName /MC1_Arial def
/FontType 3 def
/FontMatrix [1 2048 div 0 0 1 2048 div 0 0] def
/FontBBox [-1361 -665 4096 2060] def
/Encoding 256 array def 0 1 255{Encoding exch/.notdef put}for
Encoding 32/s32 put
Encoding 46/s46 put
Encoding 48/s48 put
Encoding 49/s49 put
Encoding 50/s50 put
Encoding 52/s52 put
Encoding 54/s54 put
Encoding 56/s56 put
Encoding 99/s99 put
Encoding 100/s100 put
Encoding 102/s102 put
Encoding 104/s104 put
Encoding 105/s105 put
Encoding 106/s106 put
Encoding 109/s109 put
Encoding 110/s110 put
Encoding 111/s111 put
Encoding 112/s112 put
Encoding 114/s114 put
Encoding 115/s115 put
Encoding 117/s117 put
Encoding 120/s120 put
Encoding 121/s121 put
/BoundingBoxes 24 dict def
BoundingBoxes begin
/s32 [0 -434 569 1854] def
/s46 [0 -434 569 1854] def
/s48 [0 -434 1139 1854] def
/s49 [0 -434 1139 1854] def
/s50 [0 -434 1139 1854] def
/s52 [0 -434 1139 1854] def
/s54 [0 -434 1139 1854] def
/s56 [0 -434 1139 1854] def
/s99 [0 -434 1024 1854] def
/s100 [0 -434 1139 1854] def
/s102 [0 -434 569 1854] def
/s104 [0 -434 1139 1854] def
/s105 [0 -434 455 1854] def
/s106 [-94 -434 455 1854] def
/s109 [0 -434 1706 1854] def
/s110 [0 -434 1139 1854] def
/s111 [0 -434 1139 1854] def
/s112 [0 -434 1139 1854] def
/s114 [0 -434 682 1854] def
/s115 [0 -434 1024 1854] def
/s117 [0 -434 1139 1854] def
/s120 [0 -434 1024 1854] def
/s121 [0 -434 1024 1854] def
end
/Metrics 24 dict def
 Metrics begin
/s32 569 def
/s46 569 def
/s48 1139 def
/s49 1139 def
/s50 1139 def
/s52 1139 def
/s54 1139 def
/s56 1139 def
/s99 1024 def
/s100 1139 def
/s102 569 def
/s104 1139 def
/s105 455 def
/s106 455 def
/s109 1706 def
/s110 1139 def
/s111 1139 def
/s112 1139 def
/s114 682 def
/s115 1024 def
/s117 1139 def
/s120 1024 def
/s121 1024 def
end
/CharProcs 24 dict def
CharProcs begin
/.notdef {} def
/s46 {
186 0 m
186 205 186 0 186 205 c
391 205 186 205 391 205 c
391 0 391 205 391 0 c
186 0 391 0 186 0 c
closepath } bind def
/s48 {
85 723 m
85 896.33 102.83 1035.83 138.5 1141.5 c
174.17 1247.17 227.17 1328.67 297.5 1386 c
367.83 1443.33 456.33 1472 563 1472 c
641.67 1472 710.67 1456.17 770 1424.5 c
829.33 1392.83 878.33 1347.17 917 1287.5 c
955.67 1227.83 986 1155.17 1008 1069.5 c
1030 983.83 1041 868.33 1041 723 c
1041 551 1023.33 412.17 988 306.5 c
952.67 200.83 899.83 119.17 829.5 61.5 c
759.17 3.83 670.33 -25 563 -25 c
421.67 -25 310.67 25.67 230 127 c
133.33 249 85 447.67 85 723 c
closepath 270 723 m
270 482.33 298.17 322.17 354.5 242.5 c
410.83 162.83 480.33 123 563 123 c
645.67 123 715.17 163 771.5 243 c
827.83 323 856 483 856 723 c
856 964.33 827.83 1124.67 771.5 1204 c
715.17 1283.33 645 1323 561 1323 c
478.33 1323 412.33 1288 363 1218 c
301 1128.67 270 963.67 270 723 c
closepath } bind def
/s49 {
763 0 m
583 0 763 0 583 0 c
583 1147 583 0 583 1147 c
539.67 1105.67 482.83 1064.33 412.5 1023 c
342.17 981.67 279 950.67 223 930 c
223 1104 223 930 223 1104 c
323.67 1151.33 411.67 1208.67 487 1276 c
562.33 1343.33 615.67 1408.67 647 1472 c
763 1472 647 1472 763 1472 c
763 0 763 1472 763 0 c
closepath } bind def
/s50 {
1031 173 m
1031 0 1031 173 1031 0 c
62 0 1031 0 62 0 c
60.67 43.33 67.67 85 83 125 c
107.67 191 147.17 256 201.5 320 c
255.83 384 334.33 458 437 542 c
596.33 672.67 704 776.17 760 852.5 c
816 928.83 844 1001 844 1069 c
844 1140.33 818.5 1200.5 767.5 1249.5 c
716.5 1298.5 650 1323 568 1323 c
481.33 1323 412 1297 360 1245 c
308 1193 281.67 1121 281 1029 c
96 1048 281 1029 96 1048 c
108.67 1186 156.33 1291.17 239 1363.5 c
321.67 1435.83 432.67 1472 572 1472 c
712.67 1472 824 1433 906 1355 c
988 1277 1029 1180.33 1029 1065 c
1029 1006.33 1017 948.67 993 892 c
969 835.33 929.17 775.67 873.5 713 c
817.83 650.33 725.33 564.33 596 455 c
488 364.33 418.67 302.83 388 270.5 c
357.33 238.17 332 205.67 312 173 c
1031 173 312 173 1031 173 c
closepath } bind def
/s52 {
662 0 m
662 351 662 0 662 351 c
26 351 662 351 26 351 c
26 516 26 351 26 516 c
695 1466 26 516 695 1466 c
842 1466 695 1466 842 1466 c
842 516 842 1466 842 516 c
1040 516 842 516 1040 516 c
1040 351 1040 516 1040 351 c
842 351 1040 351 842 351 c
842 0 842 351 842 0 c
662 0 842 0 662 0 c
closepath 662 516 m
662 1177 662 516 662 1177 c
203 516 662 1177 203 516 c
662 516 203 516 662 516 c
closepath } bind def
/s54 {
1019 1107 m
840 1093 1019 1107 840 1093 c
824 1163.67 801.33 1215 772 1247 c
723.33 1298.33 663.33 1324 592 1324 c
534.67 1324 484.33 1308 441 1276 c
384.33 1234.67 339.67 1174.33 307 1095 c
274.33 1015.67 257.33 902.67 256 756 c
299.33 822 352.33 871 415 903 c
477.67 935 543.33 951 612 951 c
732 951 834.17 906.83 918.5 818.5 c
1002.83 730.17 1045 616 1045 476 c
1045 384 1025.17 298.5 985.5 219.5 c
945.83 140.5 891.33 80 822 38 c
752.67 -4 674 -25 586 -25 c
436 -25 313.67 30.17 219 140.5 c
124.33 250.83 77 432.67 77 686 c
77 969.33 129.33 1175.33 234 1304 c
325.33 1416 448.33 1472 603 1472 c
718.33 1472 812.83 1439.67 886.5 1375 c
960.17 1310.33 1004.33 1221 1019 1107 c
closepath 284 475 m
284 413 297.17 353.67 323.5 297 c
349.83 240.33 386.67 197.17 434 167.5 c
481.33 137.83 531 123 583 123 c
659 123 724.33 153.67 779 215 c
833.67 276.33 861 359.67 861 465 c
861 566.33 834 646.17 780 704.5 c
726 762.83 658 792 576 792 c
494.67 792 425.67 762.83 369 704.5 c
312.33 646.17 284 569.67 284 475 c
closepath } bind def
/s56 {
362 795 m
287.33 822.33 232 861.33 196 912 c
160 962.67 142 1023.33 142 1094 c
142 1200.67 180.33 1290.33 257 1363 c
333.67 1435.67 435.67 1472 563 1472 c
691 1472 794 1434.83 872 1360.5 c
950 1286.17 989 1195.67 989 1089 c
989 1021 971.17 961.83 935.5 911.5 c
899.83 861.17 845.67 822.33 773 795 c
863 765.67 931.5 718.33 978.5 653 c
1025.5 587.67 1049 509.67 1049 419 c
1049 293.67 1004.67 188.33 916 103 c
827.33 17.67 710.67 -25 566 -25 c
421.33 -25 304.67 17.83 216 103.5 c
127.33 189.17 83 296 83 424 c
83 519.33 107.17 599.17 155.5 663.5 c
203.83 727.83 272.67 771.67 362 795 c
closepath 326 1100 m
326 1030.67 348.33 974 393 930 c
437.67 886 495.67 864 567 864 c
636.33 864 693.17 885.83 737.5 929.5 c
781.83 973.17 804 1026.67 804 1090 c
804 1156 781.17 1211.5 735.5 1256.5 c
689.83 1301.5 633 1324 565 1324 c
496.33 1324 439.33 1302 394 1258 c
348.67 1214 326 1161.33 326 1100 c
closepath 268 423 m
268 371.67 280.17 322 304.5 274 c
328.83 226 365 188.83 413 162.5 c
461 136.17 512.67 123 568 123 c
654 123 725 150.67 781 206 c
837 261.33 865 331.67 865 417 c
865 503.67 836.17 575.33 778.5 632 c
720.83 688.67 648.67 717 562 717 c
477.33 717 407.17 689 351.5 633 c
295.83 577 268 507 268 423 c
closepath } bind def
/s99 {
828 389 m
1005 366 828 389 1005 366 c
985.67 244 936.17 148.5 856.5 79.5 c
776.83 10.5 679 -24 563 -24 c
417.67 -24 300.83 23.5 212.5 118.5 c
124.17 213.5 80 349.67 80 527 c
80 641.67 99 742 137 828 c
175 914 232.83 978.5 310.5 1021.5 c
388.17 1064.5 472.67 1086 564 1086 c
679.33 1086 773.67 1056.83 847 998.5 c
920.33 940.17 967.33 857.33 988 750 c
813 723 988 750 813 723 c
796.33 794.33 766.83 848 724.5 884 c
682.17 920 631 938 571 938 c
480.33 938 406.67 905.5 350 840.5 c
293.33 775.5 265 672.67 265 532 c
265 389.33 292.33 285.67 347 221 c
401.67 156.33 473 124 561 124 c
631.67 124 690.67 145.67 738 189 c
785.33 232.33 815.33 299 828 389 c
closepath } bind def
/s100 {
824 0 m
824 134 824 0 824 134 c
756.67 28.67 657.67 -24 527 -24 c
442.33 -24 364.5 -0.67 293.5 46 c
222.5 92.67 167.5 157.83 128.5 241.5 c
89.5 325.17 70 421.33 70 530 c
70 636 87.67 732.17 123 818.5 c
158.33 904.83 211.33 971 282 1017 c
352.67 1063 431.67 1086 519 1086 c
583 1086 640 1072.5 690 1045.5 c
740 1018.5 780.67 983.33 812 940 c
812 1466 812 940 812 1466 c
991 1466 812 1466 991 1466 c
991 0 991 1466 991 0 c
824 0 991 0 824 0 c
closepath 255 530 m
255 394 283.67 292.33 341 225 c
398.33 157.67 466 124 544 124 c
622.67 124 689.5 156.17 744.5 220.5 c
799.5 284.83 827 383 827 515 c
827 660.33 799 767 743 835 c
687 903 618 937 536 937 c
456 937 389.17 904.33 335.5 839 c
281.83 773.67 255 670.67 255 530 c
closepath } bind def
/s102 {
178 0 m
178 922 178 0 178 922 c
19 922 178 922 19 922 c
19 1062 19 922 19 1062 c
178 1062 19 1062 178 1062 c
178 1175 178 1062 178 1175 c
178 1246.33 184.33 1299.33 197 1334 c
214.33 1380.67 244.83 1418.5 288.5 1447.5 c
332.17 1476.5 393.33 1491 472 1491 c
522.67 1491 578.67 1485 640 1473 c
613 1316 640 1473 613 1316 c
575.67 1322.67 540.33 1326 507 1326 c
452.33 1326 413.67 1314.33 391 1291 c
368.33 1267.67 357 1224 357 1160 c
357 1062 357 1160 357 1062 c
564 1062 357 1062 564 1062 c
564 922 564 1062 564 922 c
357 922 564 922 357 922 c
357 0 357 922 357 0 c
178 0 357 0 178 0 c
closepath } bind def
/s104 {
135 0 m
135 1466 135 0 135 1466 c
315 1466 135 1466 315 1466 c
315 940 315 1466 315 940 c
399 1037.33 505 1086 633 1086 c
711.67 1086 780 1070.5 838 1039.5 c
896 1008.5 937.5 965.67 962.5 911 c
987.5 856.33 1000 777 1000 673 c
1000 0 1000 673 1000 0 c
820 0 1000 0 820 0 c
820 673 820 0 820 673 c
820 763 800.5 828.5 761.5 869.5 c
722.5 910.5 667.33 931 596 931 c
542.67 931 492.5 917.17 445.5 889.5 c
398.5 861.83 365 824.33 345 777 c
325 729.67 315 664.33 315 581 c
315 0 315 581 315 0 c
135 0 315 0 135 0 c
closepath } bind def
/s105 {
136 1259 m
136 1466 136 1259 136 1466 c
316 1466 136 1466 316 1466 c
316 1259 316 1466 316 1259 c
136 1259 316 1259 136 1259 c
closepath 136 0 m
136 1062 136 0 136 1062 c
316 1062 136 1062 316 1062 c
316 0 316 1062 316 0 c
136 0 316 0 136 0 c
closepath } bind def
/s106 {
134 1257 m
134 1466 134 1257 134 1466 c
314 1466 134 1466 314 1466 c
314 1257 314 1466 314 1257 c
134 1257 314 1257 134 1257 c
closepath -94 -412 m
-60 -259 -94 -412 -60 -259 c
-24 -268.33 4.33 -273 25 -273 c
61.67 -273 89 -260.83 107 -236.5 c
125 -212.17 134 -151.33 134 -54 c
134 1062 134 -54 134 1062 c
314 1062 134 1062 314 1062 c
314 -58 314 1062 314 -58 c
314 -188.67 297 -279.67 263 -331 c
219.67 -397.67 147.67 -431 47 -431 c
-1.67 -431 -48.67 -424.67 -94 -412 c
closepath } bind def
/s109 {
135 0 m
135 1062 135 0 135 1062 c
296 1062 135 1062 296 1062 c
296 913 296 1062 296 913 c
329.33 965 373.67 1006.83 429 1038.5 c
484.33 1070.17 547.33 1086 618 1086 c
696.67 1086 761.17 1069.67 811.5 1037 c
861.83 1004.33 897.33 958.67 918 900 c
1002 1024 1111.33 1086 1246 1086 c
1351.33 1086 1432.33 1056.83 1489 998.5 c
1545.67 940.17 1574 850.33 1574 729 c
1574 0 1574 729 1574 0 c
1395 0 1574 0 1395 0 c
1395 669 1395 0 1395 669 c
1395 741 1389.17 792.83 1377.5 824.5 c
1365.83 856.17 1344.67 881.67 1314 901 c
1283.33 920.33 1247.33 930 1206 930 c
1131.33 930 1069.33 905.17 1020 855.5 c
970.67 805.83 946 726.33 946 617 c
946 0 946 617 946 0 c
766 0 946 0 766 0 c
766 690 766 0 766 690 c
766 770 751.33 830 722 870 c
692.67 910 644.67 930 578 930 c
527.33 930 480.5 916.67 437.5 890 c
394.5 863.33 363.33 824.33 344 773 c
324.67 721.67 315 647.67 315 551 c
315 0 315 551 315 0 c
135 0 315 0 135 0 c
closepath } bind def
/s110 {
135 0 m
135 1062 135 0 135 1062 c
297 1062 135 1062 297 1062 c
297 911 297 1062 297 911 c
375 1027.67 487.67 1086 635 1086 c
699 1086 757.83 1074.5 811.5 1051.5 c
865.17 1028.5 905.33 998.33 932 961 c
958.67 923.67 977.33 879.33 988 828 c
994.67 794.67 998 736.33 998 653 c
998 0 998 653 998 0 c
818 0 998 0 818 0 c
818 646 818 0 818 646 c
818 719.33 811 774.17 797 810.5 c
783 846.83 758.17 875.83 722.5 897.5 c
686.83 919.17 645 930 597 930 c
520.33 930 454.17 905.67 398.5 857 c
342.83 808.33 315 716 315 580 c
315 0 315 580 315 0 c
135 0 315 0 135 0 c
closepath } bind def
/s111 {
68 531 m
68 727.67 122.67 873.33 232 968 c
323.33 1046.67 434.67 1086 566 1086 c
712 1086 831.33 1038.17 924 942.5 c
1016.67 846.83 1063 714.67 1063 546 c
1063 409.33 1042.5 301.83 1001.5 223.5 c
960.5 145.17 900.83 84.33 822.5 41 c
744.17 -2.33 658.67 -24 566 -24 c
417.33 -24 297.17 23.67 205.5 119 c
113.83 214.33 68 351.67 68 531 c
closepath 253 531 m
253 395 282.67 293.17 342 225.5 c
401.33 157.83 476 124 566 124 c
655.33 124 729.67 158 789 226 c
848.33 294 878 397.67 878 537 c
878 668.33 848.17 767.83 788.5 835.5 c
728.83 903.17 654.67 937 566 937 c
476 937 401.33 903.33 342 836 c
282.67 768.67 253 667 253 531 c
closepath } bind def
/s112 {
135 -407 m
135 1062 135 -407 135 1062 c
299 1062 135 1062 299 1062 c
299 924 299 1062 299 924 c
337.67 978 381.33 1018.5 430 1045.5 c
478.67 1072.5 537.67 1086 607 1086 c
697.67 1086 777.67 1062.67 847 1016 c
916.33 969.33 968.67 903.5 1004 818.5 c
1039.33 733.5 1057 640.33 1057 539 c
1057 430.33 1037.5 332.5 998.5 245.5 c
959.5 158.5 902.83 91.83 828.5 45.5 c
754.17 -0.83 676 -24 594 -24 c
534 -24 480.17 -11.33 432.5 14 c
384.83 39.33 345.67 71.33 315 110 c
315 -407 315 110 315 -407 c
135 -407 315 -407 135 -407 c
closepath 298 525 m
298 388.33 325.67 287.33 381 222 c
436.33 156.67 503.33 124 582 124 c
662 124 730.5 157.83 787.5 225.5 c
844.5 293.17 873 398 873 540 c
873 675.33 845.17 776.67 789.5 844 c
733.83 911.33 667.33 945 590 945 c
513.33 945 445.5 909.17 386.5 837.5 c
327.5 765.83 298 661.67 298 525 c
closepath } bind def
/s114 {
133 0 m
133 1062 133 0 133 1062 c
295 1062 133 1062 295 1062 c
295 901 295 1062 295 901 c
336.33 976.33 374.5 1026 409.5 1050 c
444.5 1074 483 1086 525 1086 c
585.67 1086 647.33 1066.67 710 1028 c
648 861 710 1028 648 861 c
604 887 560 900 516 900 c
476.67 900 441.33 888.17 410 864.5 c
378.67 840.83 356.33 808 343 766 c
323 702 313 632 313 556 c
313 0 313 556 313 0 c
133 0 313 0 133 0 c
closepath } bind def
/s115 {
63 317 m
241 345 63 317 241 345 c
251 273.67 278.83 219 324.5 181 c
370.17 143 434 124 516 124 c
598.67 124 660 140.83 700 174.5 c
740 208.17 760 247.67 760 293 c
760 333.67 742.33 365.67 707 389 c
682.33 405 621 425.33 523 450 c
391 483.33 299.5 512.17 248.5 536.5 c
197.5 560.83 158.83 594.5 132.5 637.5 c
106.17 680.5 93 728 93 780 c
93 827.33 103.83 871.17 125.5 911.5 c
147.17 951.83 176.67 985.33 214 1012 c
242 1032.67 280.17 1050.17 328.5 1064.5 c
376.83 1078.83 428.67 1086 484 1086 c
567.33 1086 640.5 1074 703.5 1050 c
766.5 1026 813 993.5 843 952.5 c
873 911.5 893.67 856.67 905 788 c
729 764 905 788 729 764 c
721 818.67 697.83 861.33 659.5 892 c
621.17 922.67 567 938 497 938 c
414.33 938 355.33 924.33 320 897 c
284.67 869.67 267 837.67 267 801 c
267 777.67 274.33 756.67 289 738 c
303.67 718.67 326.67 702.67 358 690 c
376 683.33 429 668 517 644 c
644.33 610 733.17 582.17 783.5 560.5 c
833.83 538.83 873.33 507.33 902 466 c
930.67 424.67 945 373.33 945 312 c
945 252 927.5 195.5 892.5 142.5 c
857.5 89.5 807 48.5 741 19.5 c
675 -9.5 600.33 -24 517 -24 c
379 -24 273.83 4.67 201.5 62 c
129.17 119.33 83 204.33 63 317 c
closepath } bind def
/s117 {
831 0 m
831 156 831 0 831 156 c
748.33 36 636 -24 494 -24 c
431.33 -24 372.83 -12 318.5 12 c
264.17 36 223.83 66.17 197.5 102.5 c
171.17 138.83 152.67 183.33 142 236 c
134.67 271.33 131 327.33 131 404 c
131 1062 131 404 131 1062 c
311 1062 131 1062 311 1062 c
311 473 311 1062 311 473 c
311 379 314.67 315.67 322 283 c
333.33 235.67 357.33 198.5 394 171.5 c
430.67 144.5 476 131 530 131 c
584 131 634.67 144.83 682 172.5 c
729.33 200.17 762.83 237.83 782.5 285.5 c
802.17 333.17 812 402.33 812 493 c
812 1062 812 493 812 1062 c
992 1062 812 1062 992 1062 c
992 0 992 1062 992 0 c
831 0 992 0 831 0 c
closepath } bind def
/s120 {
15 0 m
403 552 15 0 403 552 c
44 1062 403 552 44 1062 c
269 1062 44 1062 269 1062 c
432 813 269 1062 432 813 c
462.67 765.67 487.33 726 506 694 c
535.33 738 562.33 777 587 811 c
766 1062 587 811 766 1062 c
981 1062 766 1062 981 1062 c
614 562 981 1062 614 562 c
1009 0 614 562 1009 0 c
788 0 1009 0 788 0 c
570 330 788 0 570 330 c
512 419 570 330 512 419 c
233 0 512 419 233 0 c
15 0 233 0 15 0 c
closepath } bind def
/s121 {
127 -409 m
107 -240 127 -409 107 -240 c
146.33 -250.67 180.67 -256 210 -256 c
250 -256 282 -249.33 306 -236 c
330 -222.67 349.67 -204 365 -180 c
376.33 -162 394.67 -117.33 420 -46 c
423.33 -36 428.67 -21.33 436 -2 c
33 1062 436 -2 33 1062 c
227 1062 33 1062 227 1062 c
448 447 227 1062 448 447 c
476.67 369 502.33 287 525 201 c
545.67 283.67 570.33 364.33 599 443 c
826 1062 599 443 826 1062 c
1006 1062 826 1062 1006 1062 c
602 -18 1006 1062 602 -18 c
558.67 -134.67 525 -215 501 -259 c
469 -318.33 432.33 -361.83 391 -389.5 c
349.67 -417.17 300.33 -431 243 -431 c
208.33 -431 169.67 -423.67 127 -409 c
closepath } bind def
end
/BuildGlyph {
 exch dup /Metrics get 2 index get 0 setcharwidth
/CharProcs get exch 2 copy known not{pop/.notdef}if get exec fill}bind def
/BuildChar {
1 index /Encoding get exch get
1 index /BuildGlyph get exec
} bind def
currentdict end /MC1_Arial exch definefont pop
%%EndFont
%%BeginFont: /MC2_Arial
12 dict begin
/FontInfo 8 dict dup begin
/ItalicAngle 0 def
/UnderlinePosition -217.00 def
/UnderlineThickness 150.00 def
/StrikeoutPosition 530.00 def
/StrikeoutThickness 102.00 def
/isFixedPitch false def
end readonly def
/FontName /MC2_Arial def
/FontType 3 def
/FontMatrix [1 2048 div 0 0 1 2048 div 0 0] def
/FontBBox [-1361 -665 4096 2060] def
/Encoding 256 array def 0 1 255{Encoding exch/.notdef put}for
Encoding 32/s32 put
Encoding 70/s70 put
Encoding 77/s77 put
Encoding 97/s97 put
Encoding 99/s99 put
Encoding 100/s100 put
Encoding 101/s101 put
Encoding 103/s103 put
Encoding 105/s105 put
Encoding 108/s108 put
Encoding 110/s110 put
Encoding 111/s111 put
Encoding 114/s114 put
Encoding 115/s115 put
Encoding 116/s116 put
/BoundingBoxes 16 dict def
BoundingBoxes begin
/s32 [0 -434 569 1854] def
/s70 [0 -434 1251 1854] def
/s77 [0 -434 1706 1854] def
/s97 [0 -434 1139 1854] def
/s99 [0 -434 1024 1854] def
/s100 [0 -434 1139 1854] def
/s101 [0 -434 1139 1854] def
/s103 [0 -434 1139 1854] def
/s105 [0 -434 455 1854] def
/s108 [0 -434 455 1854] def
/s110 [0 -434 1139 1854] def
/s111 [0 -434 1139 1854] def
/s114 [0 -434 682 1854] def
/s115 [0 -434 1024 1854] def
/s116 [0 -434 569 1854] def
end
/Metrics 16 dict def
 Metrics begin
/s32 569 def
/s70 1251 def
/s77 1706 def
/s97 1139 def
/s99 1024 def
/s100 1139 def
/s101 1139 def
/s103 1139 def
/s105 455 def
/s108 455 def
/s110 1139 def
/s111 1139 def
/s114 682 def
/s115 1024 def
/s116 569 def
end
/CharProcs 16 dict def
CharProcs begin
/.notdef {} def
/s70 {
168 0 m
168 1466 168 0 168 1466 c
1157 1466 168 1466 1157 1466 c
1157 1293 1157 1466 1157 1293 c
362 1293 1157 1293 362 1293 c
362 839 362 1293 362 839 c
1050 839 362 839 1050 839 c
1050 666 1050 839 1050 666 c
362 666 1050 666 362 666 c
362 0 362 666 362 0 c
168 0 362 0 168 0 c
closepath } bind def
/s77 {
152 0 m
152 1466 152 0 152 1466 c
444 1466 152 1466 444 1466 c
791 428 444 1466 791 428 c
823 331.33 846.33 259 861 211 c
877.67 264.33 903.67 342.67 939 446 c
1290 1466 939 446 1290 1466 c
1551 1466 1290 1466 1551 1466 c
1551 0 1551 1466 1551 0 c
1364 0 1551 0 1364 0 c
1364 1227 1364 0 1364 1227 c
938 0 1364 1227 938 0 c
763 0 938 0 763 0 c
339 1248 763 0 339 1248 c
339 0 339 1248 339 0 c
152 0 339 0 152 0 c
closepath } bind def
/s97 {
828 131 m
761.33 74.33 697.17 34.33 635.5 11 c
573.83 -12.33 507.67 -24 437 -24 c
320.33 -24 230.67 4.5 168 61.5 c
105.33 118.5 74 191.33 74 280 c
74 332 85.83 379.5 109.5 422.5 c
133.17 465.5 164.17 500 202.5 526 c
240.83 552 284 571.67 332 585 c
367.33 594.33 420.67 603.33 492 612 c
637.33 629.33 744.33 650 813 674 c
813.67 698.67 814 714.33 814 721 c
814 794.33 797 846 763 876 c
717 916.67 648.67 937 558 937 c
473.33 937 410.83 922.17 370.5 892.5 c
330.17 862.83 300.33 810.33 281 735 c
105 759 281 735 105 759 c
121 834.33 147.33 895.17 184 941.5 c
220.67 987.83 273.67 1023.5 343 1048.5 c
412.33 1073.5 492.67 1086 584 1086 c
674.67 1086 748.33 1075.33 805 1054 c
861.67 1032.67 903.33 1005.83 930 973.5 c
956.67 941.17 975.33 900.33 986 851 c
992 820.33 995 765 995 685 c
995 445 995 685 995 445 c
995 277.67 998.83 171.83 1006.5 127.5 c
1014.17 83.17 1029.33 40.67 1052 0 c
864 0 1052 0 864 0 c
845.33 37.33 833.33 81 828 131 c
closepath 813 533 m
747.67 506.33 649.67 483.67 519 465 c
445 454.33 392.67 442.33 362 429 c
331.33 415.67 307.67 396.17 291 370.5 c
274.33 344.83 266 316.33 266 285 c
266 237 284.17 197 320.5 165 c
356.83 133 410 117 480 117 c
549.33 117 611 132.17 665 162.5 c
719 192.83 758.67 234.33 784 287 c
803.33 327.67 813 387.67 813 467 c
813 533 813 467 813 533 c
closepath } bind def
/s99 {
828 389 m
1005 366 828 389 1005 366 c
985.67 244 936.17 148.5 856.5 79.5 c
776.83 10.5 679 -24 563 -24 c
417.67 -24 300.83 23.5 212.5 118.5 c
124.17 213.5 80 349.67 80 527 c
80 641.67 99 742 137 828 c
175 914 232.83 978.5 310.5 1021.5 c
388.17 1064.5 472.67 1086 564 1086 c
679.33 1086 773.67 1056.83 847 998.5 c
920.33 940.17 967.33 857.33 988 750 c
813 723 988 750 813 723 c
796.33 794.33 766.83 848 724.5 884 c
682.17 920 631 938 571 938 c
480.33 938 406.67 905.5 350 840.5 c
293.33 775.5 265 672.67 265 532 c
265 389.33 292.33 285.67 347 221 c
401.67 156.33 473 124 561 124 c
631.67 124 690.67 145.67 738 189 c
785.33 232.33 815.33 299 828 389 c
closepath } bind def
/s100 {
824 0 m
824 134 824 0 824 134 c
756.67 28.67 657.67 -24 527 -24 c
442.33 -24 364.5 -0.67 293.5 46 c
222.5 92.67 167.5 157.83 128.5 241.5 c
89.5 325.17 70 421.33 70 530 c
70 636 87.67 732.17 123 818.5 c
158.33 904.83 211.33 971 282 1017 c
352.67 1063 431.67 1086 519 1086 c
583 1086 640 1072.5 690 1045.5 c
740 1018.5 780.67 983.33 812 940 c
812 1466 812 940 812 1466 c
991 1466 812 1466 991 1466 c
991 0 991 1466 991 0 c
824 0 991 0 824 0 c
closepath 255 530 m
255 394 283.67 292.33 341 225 c
398.33 157.67 466 124 544 124 c
622.67 124 689.5 156.17 744.5 220.5 c
799.5 284.83 827 383 827 515 c
827 660.33 799 767 743 835 c
687 903 618 937 536 937 c
456 937 389.17 904.33 335.5 839 c
281.83 773.67 255 670.67 255 530 c
closepath } bind def
/s101 {
862 342 m
1048 319 862 342 1048 319 c
1018.67 210.33 964.33 126 885 66 c
805.67 6 704.33 -24 581 -24 c
425.67 -24 302.5 23.83 211.5 119.5 c
120.5 215.17 75 349.33 75 522 c
75 700.67 121 839.33 213 938 c
305 1036.67 424.33 1086 571 1086 c
713 1086 829 1037.67 919 941 c
1009 844.33 1054 708.33 1054 533 c
1054 522.33 1053.67 506.33 1053 485 c
261 485 1053 485 261 485 c
267.67 368.33 300.67 279 360 217 c
419.33 155 493.33 124 582 124 c
648 124 704.33 141.33 751 176 c
797.67 210.67 834.67 266 862 342 c
closepath 271 633 m
864 633 271 633 864 633 c
856 722.33 833.33 789.33 796 834 c
738.67 903.33 664.33 938 573 938 c
490.33 938 420.83 910.33 364.5 855 c
308.17 799.67 277 725.67 271 633 c
closepath } bind def
/s103 {
102 -88 m
277 -114 102 -88 277 -114 c
284.33 -168 304.67 -207.33 338 -232 c
382.67 -265.33 443.67 -282 521 -282 c
604.33 -282 668.67 -265.33 714 -232 c
759.33 -198.67 790 -152 806 -92 c
815.33 -55.33 819.67 21.67 819 139 c
740.33 46.33 642.33 0 525 0 c
379 0 266 52.67 186 158 c
106 263.33 66 389.67 66 537 c
66 638.33 84.33 731.83 121 817.5 c
157.67 903.17 210.83 969.33 280.5 1016 c
350.17 1062.67 432 1086 526 1086 c
651.33 1086 754.67 1035.33 836 934 c
836 1062 836 934 836 1062 c
1002 1062 836 1062 1002 1062 c
1002 144 1002 1062 1002 144 c
1002 -21.33 985.17 -138.5 951.5 -207.5 c
917.83 -276.5 864.5 -331 791.5 -371 c
718.5 -411 628.67 -431 522 -431 c
395.33 -431 293 -402.5 215 -345.5 c
137 -288.5 99.33 -202.67 102 -88 c
closepath 251 550 m
251 410.67 278.67 309 334 245 c
389.33 181 458.67 149 542 149 c
624.67 149 694 180.83 750 244.5 c
806 308.17 834 408 834 544 c
834 674 805.17 772 747.5 838 c
689.83 904 620.33 937 539 937 c
459 937 391 904.5 335 839.5 c
279 774.5 251 678 251 550 c
closepath } bind def
/s105 {
136 1259 m
136 1466 136 1259 136 1466 c
316 1466 136 1466 316 1466 c
316 1259 316 1466 316 1259 c
136 1259 316 1259 136 1259 c
closepath 136 0 m
136 1062 136 0 136 1062 c
316 1062 136 1062 316 1062 c
316 0 316 1062 316 0 c
136 0 316 0 136 0 c
closepath } bind def
/s108 {
131 0 m
131 1466 131 0 131 1466 c
311 1466 131 1466 311 1466 c
311 0 311 1466 311 0 c
131 0 311 0 131 0 c
closepath } bind def
/s110 {
135 0 m
135 1062 135 0 135 1062 c
297 1062 135 1062 297 1062 c
297 911 297 1062 297 911 c
375 1027.67 487.67 1086 635 1086 c
699 1086 757.83 1074.5 811.5 1051.5 c
865.17 1028.5 905.33 998.33 932 961 c
958.67 923.67 977.33 879.33 988 828 c
994.67 794.67 998 736.33 998 653 c
998 0 998 653 998 0 c
818 0 998 0 818 0 c
818 646 818 0 818 646 c
818 719.33 811 774.17 797 810.5 c
783 846.83 758.17 875.83 722.5 897.5 c
686.83 919.17 645 930 597 930 c
520.33 930 454.17 905.67 398.5 857 c
342.83 808.33 315 716 315 580 c
315 0 315 580 315 0 c
135 0 315 0 135 0 c
closepath } bind def
/s111 {
68 531 m
68 727.67 122.67 873.33 232 968 c
323.33 1046.67 434.67 1086 566 1086 c
712 1086 831.33 1038.17 924 942.5 c
1016.67 846.83 1063 714.67 1063 546 c
1063 409.33 1042.5 301.83 1001.5 223.5 c
960.5 145.17 900.83 84.33 822.5 41 c
744.17 -2.33 658.67 -24 566 -24 c
417.33 -24 297.17 23.67 205.5 119 c
113.83 214.33 68 351.67 68 531 c
closepath 253 531 m
253 395 282.67 293.17 342 225.5 c
401.33 157.83 476 124 566 124 c
655.33 124 729.67 158 789 226 c
848.33 294 878 397.67 878 537 c
878 668.33 848.17 767.83 788.5 835.5 c
728.83 903.17 654.67 937 566 937 c
476 937 401.33 903.33 342 836 c
282.67 768.67 253 667 253 531 c
closepath } bind def
/s114 {
133 0 m
133 1062 133 0 133 1062 c
295 1062 133 1062 295 1062 c
295 901 295 1062 295 901 c
336.33 976.33 374.5 1026 409.5 1050 c
444.5 1074 483 1086 525 1086 c
585.67 1086 647.33 1066.67 710 1028 c
648 861 710 1028 648 861 c
604 887 560 900 516 900 c
476.67 900 441.33 888.17 410 864.5 c
378.67 840.83 356.33 808 343 766 c
323 702 313 632 313 556 c
313 0 313 556 313 0 c
133 0 313 0 133 0 c
closepath } bind def
/s115 {
63 317 m
241 345 63 317 241 345 c
251 273.67 278.83 219 324.5 181 c
370.17 143 434 124 516 124 c
598.67 124 660 140.83 700 174.5 c
740 208.17 760 247.67 760 293 c
760 333.67 742.33 365.67 707 389 c
682.33 405 621 425.33 523 450 c
391 483.33 299.5 512.17 248.5 536.5 c
197.5 560.83 158.83 594.5 132.5 637.5 c
106.17 680.5 93 728 93 780 c
93 827.33 103.83 871.17 125.5 911.5 c
147.17 951.83 176.67 985.33 214 1012 c
242 1032.67 280.17 1050.17 328.5 1064.5 c
376.83 1078.83 428.67 1086 484 1086 c
567.33 1086 640.5 1074 703.5 1050 c
766.5 1026 813 993.5 843 952.5 c
873 911.5 893.67 856.67 905 788 c
729 764 905 788 729 764 c
721 818.67 697.83 861.33 659.5 892 c
621.17 922.67 567 938 497 938 c
414.33 938 355.33 924.33 320 897 c
284.67 869.67 267 837.67 267 801 c
267 777.67 274.33 756.67 289 738 c
303.67 718.67 326.67 702.67 358 690 c
376 683.33 429 668 517 644 c
644.33 610 733.17 582.17 783.5 560.5 c
833.83 538.83 873.33 507.33 902 466 c
930.67 424.67 945 373.33 945 312 c
945 252 927.5 195.5 892.5 142.5 c
857.5 89.5 807 48.5 741 19.5 c
675 -9.5 600.33 -24 517 -24 c
379 -24 273.83 4.67 201.5 62 c
129.17 119.33 83 204.33 63 317 c
closepath } bind def
/s116 {
528 161 m
554 2 528 161 554 2 c
503.33 -8.67 458 -14 418 -14 c
352.67 -14 302 -3.67 266 17 c
230 37.67 204.67 64.83 190 98.5 c
175.33 132.17 168 203 168 311 c
168 922 168 311 168 922 c
36 922 168 922 36 922 c
36 1062 36 922 36 1062 c
168 1062 36 1062 168 1062 c
168 1325 168 1062 168 1325 c
347 1433 168 1325 347 1433 c
347 1062 347 1433 347 1062 c
528 1062 347 1062 528 1062 c
528 922 528 1062 528 922 c
347 922 528 922 347 922 c
347 301 347 922 347 301 c
347 249.67 350.17 216.67 356.5 202 c
362.83 187.33 373.17 175.67 387.5 167 c
401.83 158.33 422.33 154 449 154 c
469 154 495.33 156.33 528 161 c
closepath } bind def
end
/BuildGlyph {
 exch dup /Metrics get 2 index get 0 setcharwidth
/CharProcs get exch 2 copy known not{pop/.notdef}if get exec fill}bind def
/BuildChar {
1 index /Encoding get exch get
1 index /BuildGlyph get exec
} bind def
currentdict end /MC2_Arial exch definefont pop
%%EndFont
%%BeginFont: /MC3_Arial
12 dict begin
/FontInfo 8 dict dup begin
/ItalicAngle 0 def
/UnderlinePosition -217.00 def
/UnderlineThickness 150.00 def
/StrikeoutPosition 530.00 def
/StrikeoutThickness 102.00 def
/isFixedPitch false def
end readonly def
/FontName /MC3_Arial def
/FontType 3 def
/FontMatrix [1 2048 div 0 0 1 2048 div 0 0] def
/FontBBox [-1361 -665 4096 2060] def
/Encoding 256 array def 0 1 255{Encoding exch/.notdef put}for
Encoding 32/s32 put
/BoundingBoxes 2 dict def
BoundingBoxes begin
/s32 [0 -434 569 1854] def
end
/Metrics 2 dict def
 Metrics begin
/s32 569 def
end
/CharProcs 2 dict def
CharProcs begin
/.notdef {} def
end
/BuildGlyph {
 exch dup /Metrics get 2 index get 0 setcharwidth
/CharProcs get exch 2 copy known not{pop/.notdef}if get exec fill}bind def
/BuildChar {
1 index /Encoding get exch get
1 index /BuildGlyph get exec
} bind def
currentdict end /MC3_Arial exch definefont pop
%%EndFont
%%BeginFont: /MC4_ArialBold
12 dict begin
/FontInfo 8 dict dup begin
/ItalicAngle 0 def
/UnderlinePosition -217.00 def
/UnderlineThickness 215.00 def
/StrikeoutPosition 530.00 def
/StrikeoutThickness 102.00 def
/isFixedPitch false def
end readonly def
/FontName /MC4_ArialBold def
/FontType 3 def
/FontMatrix [1 2048 div 0 0 1 2048 div 0 0] def
/FontBBox [-1286 -771 4096 2084] def
/Encoding 256 array def 0 1 255{Encoding exch/.notdef put}for
Encoding 32/s32 put
Encoding 65/s65 put
Encoding 66/s66 put
Encoding 83/s83 put
Encoding 100/s100 put
Encoding 101/s101 put
Encoding 104/s104 put
Encoding 105/s105 put
Encoding 111/s111 put
Encoding 114/s114 put
Encoding 115/s115 put
Encoding 116/s116 put
Encoding 122/s122 put
/BoundingBoxes 14 dict def
BoundingBoxes begin
/s32 [0 -434 569 1854] def
/s65 [0 -434 1479 1854] def
/s66 [0 -434 1479 1854] def
/s83 [0 -434 1366 1854] def
/s100 [0 -434 1251 1854] def
/s101 [0 -434 1139 1854] def
/s104 [0 -434 1251 1854] def
/s105 [0 -434 569 1854] def
/s111 [0 -434 1251 1854] def
/s114 [0 -434 797 1854] def
/s115 [0 -434 1139 1854] def
/s116 [0 -434 682 1854] def
/s122 [0 -434 1024 1854] def
end
/Metrics 14 dict def
 Metrics begin
/s32 569 def
/s65 1479 def
/s66 1479 def
/s83 1366 def
/s100 1251 def
/s101 1139 def
/s104 1251 def
/s105 569 def
/s111 1251 def
/s114 797 def
/s115 1139 def
/s116 682 def
/s122 1024 def
end
/CharProcs 14 dict def
CharProcs begin
/.notdef {} def
/s65 {
1471 0 m
1149 0 1471 0 1149 0 c
1021 333 1149 0 1021 333 c
435 333 1021 333 435 333 c
314 0 435 333 314 0 c
0 0 314 0 0 0 c
571 1466 0 0 571 1466 c
884 1466 571 1466 884 1466 c
1471 0 884 1466 1471 0 c
closepath 926 580 m
724 1124 926 580 724 1124 c
526 580 724 1124 526 580 c
926 580 526 580 926 580 c
closepath } bind def
/s66 {
150 1466 m
736 1466 150 1466 736 1466 c
852 1466 938.5 1461.17 995.5 1451.5 c
1052.5 1441.83 1103.5 1421.67 1148.5 1391 c
1193.5 1360.33 1231 1319.5 1261 1268.5 c
1291 1217.5 1306 1160.33 1306 1097 c
1306 1028.33 1287.5 965.33 1250.5 908 c
1213.5 850.67 1163.33 807.67 1100 779 c
1189.33 753 1258 708.67 1306 646 c
1354 583.33 1378 509.67 1378 425 c
1378 358.33 1362.5 293.5 1331.5 230.5 c
1300.5 167.5 1258.17 117.17 1204.5 79.5 c
1150.83 41.83 1084.67 18.67 1006 10 c
956.67 4.67 837.67 1.33 649 0 c
150 0 649 0 150 0 c
150 1466 150 0 150 1466 c
closepath 446 1222 m
446 883 446 1222 446 883 c
640 883 446 883 640 883 c
755.33 883 827 884.67 855 888 c
905.67 894 945.5 911.5 974.5 940.5 c
1003.5 969.5 1018 1007.67 1018 1055 c
1018 1100.33 1005.5 1137.17 980.5 1165.5 c
955.5 1193.83 918.33 1211 869 1217 c
839.67 1220.33 755.33 1222 616 1222 c
446 1222 616 1222 446 1222 c
closepath 446 639 m
446 247 446 639 446 247 c
720 247 446 247 720 247 c
826.67 247 894.33 250 923 256 c
967 264 1002.83 283.5 1030.5 314.5 c
1058.17 345.5 1072 387 1072 439 c
1072 483 1061.33 520.33 1040 551 c
1018.67 581.67 987.83 604 947.5 618 c
907.17 632 819.67 639 685 639 c
446 639 685 639 446 639 c
closepath } bind def
/s83 {
74 477 m
362 505 74 477 362 505 c
379.33 408.33 414.5 337.33 467.5 292 c
520.5 246.67 592 224 682 224 c
777.33 224 849.17 244.17 897.5 284.5 c
945.83 324.83 970 372 970 426 c
970 460.67 959.83 490.17 939.5 514.5 c
919.17 538.83 883.67 560 833 578 c
798.33 590 719.33 611.33 596 642 c
437.33 681.33 326 729.67 262 787 c
172 867.67 127 966 127 1082 c
127 1156.67 148.17 1226.5 190.5 1291.5 c
232.83 1356.5 293.83 1406 373.5 1440 c
453.17 1474 549.33 1491 662 1491 c
846 1491 984.5 1450.67 1077.5 1370 c
1170.5 1289.33 1219.33 1181.67 1224 1047 c
928 1034 1224 1047 928 1034 c
915.33 1109.33 888.17 1163.5 846.5 1196.5 c
804.83 1229.5 742.33 1246 659 1246 c
573 1246 505.67 1228.33 457 1193 c
425.67 1170.33 410 1140 410 1102 c
410 1067.33 424.67 1037.67 454 1013 c
491.33 981.67 582 949 726 915 c
870 881 976.5 845.83 1045.5 809.5 c
1114.5 773.17 1168.5 723.5 1207.5 660.5 c
1246.5 597.5 1266 519.67 1266 427 c
1266 343 1242.67 264.33 1196 191 c
1149.33 117.67 1083.33 63.17 998 27.5 c
912.67 -8.17 806.33 -26 679 -26 c
493.67 -26 351.33 16.83 252 102.5 c
152.67 188.17 93.33 313 74 477 c
closepath } bind def
/s100 {
1121 0 m
860 0 1121 0 860 0 c
860 156 860 0 860 156 c
816.67 95.33 765.5 50.17 706.5 20.5 c
647.5 -9.17 588 -24 528 -24 c
406 -24 301.5 25.17 214.5 123.5 c
127.5 221.83 84 359 84 535 c
84 715 126.33 851.83 211 945.5 c
295.67 1039.17 402.67 1086 532 1086 c
650.67 1086 753.33 1036.67 840 938 c
840 1466 840 938 840 1466 c
1121 1466 840 1466 1121 1466 c
1121 0 1121 1466 1121 0 c
closepath 371 554 m
371 440.67 386.67 358.67 418 308 c
463.33 234.67 526.67 198 608 198 c
672.67 198 727.67 225.5 773 280.5 c
818.33 335.5 841 417.67 841 527 c
841 649 819 736.83 775 790.5 c
731 844.17 674.67 871 606 871 c
539.33 871 483.5 844.5 438.5 791.5 c
393.5 738.5 371 659.33 371 554 c
closepath } bind def
/s101 {
762 338 m
1042 291 762 338 1042 291 c
1006 188.33 949.17 110.17 871.5 56.5 c
793.83 2.83 696.67 -24 580 -24 c
395.33 -24 258.67 36.33 170 157 c
100 253.67 65 375.67 65 523 c
65 699 111 836.83 203 936.5 c
295 1036.17 411.33 1086 552 1086 c
710 1086 834.67 1033.83 926 929.5 c
1017.33 825.17 1061 665.33 1057 450 c
353 450 1057 450 353 450 c
355 366.67 377.67 301.83 421 255.5 c
464.33 209.17 518.33 186 583 186 c
627 186 664 198 694 222 c
724 246 746.67 284.67 762 338 c
closepath 778 622 m
776 703.33 755 765.17 715 807.5 c
675 849.83 626.33 871 569 871 c
507.67 871 457 848.67 417 804 c
377 759.33 357.33 698.67 358 622 c
778 622 358 622 778 622 c
closepath } bind def
/s104 {
427 1466 m
427 927 427 1466 427 927 c
517.67 1033 626 1086 752 1086 c
816.67 1086 875 1074 927 1050 c
979 1026 1018.17 995.33 1044.5 958 c
1070.83 920.67 1088.83 879.33 1098.5 834 c
1108.17 788.67 1113 718.33 1113 623 c
1113 0 1113 623 1113 0 c
832 0 1113 0 832 0 c
832 561 832 0 832 561 c
832 672.33 826.67 743 816 773 c
805.33 803 786.5 826.83 759.5 844.5 c
732.5 862.17 698.67 871 658 871 c
611.33 871 569.67 859.67 533 837 c
496.33 814.33 469.5 780.17 452.5 734.5 c
435.5 688.83 427 621.33 427 532 c
427 0 427 532 427 0 c
146 0 427 0 146 0 c
146 1466 146 0 146 1466 c
427 1466 146 1466 427 1466 c
closepath } bind def
/s105 {
147 1206 m
147 1466 147 1206 147 1466 c
428 1466 147 1466 428 1466 c
428 1206 428 1466 428 1206 c
147 1206 428 1206 147 1206 c
closepath 147 0 m
147 1062 147 0 147 1062 c
428 1062 147 1062 428 1062 c
428 0 428 1062 428 0 c
147 0 428 0 147 0 c
closepath } bind def
/s111 {
82 546 m
82 639.33 105 729.67 151 817 c
197 904.33 262.17 971 346.5 1017 c
430.83 1063 525 1086 629 1086 c
789.67 1086 921.33 1033.83 1024 929.5 c
1126.67 825.17 1178 693.33 1178 534 c
1178 373.33 1126.17 240.17 1022.5 134.5 c
918.83 28.83 788.33 -24 631 -24 c
533.67 -24 440.83 -2 352.5 42 c
264.17 86 197 150.5 151 235.5 c
105 320.5 82 424 82 546 c
closepath 370 531 m
370 425.67 395 345 445 289 c
495 233 556.67 205 630 205 c
703.33 205 764.83 233 814.5 289 c
864.17 345 889 426.33 889 533 c
889 637 864.17 717 814.5 773 c
764.83 829 703.33 857 630 857 c
556.67 857 495 829 445 773 c
395 717 370 636.33 370 531 c
closepath } bind def
/s114 {
416 0 m
135 0 416 0 135 0 c
135 1062 135 0 135 1062 c
396 1062 135 1062 396 1062 c
396 911 396 1062 396 911 c
440.67 982.33 480.83 1029.33 516.5 1052 c
552.17 1074.67 592.67 1086 638 1086 c
702 1086 763.67 1068.33 823 1033 c
736 788 823 1033 736 788 c
688.67 818.67 644.67 834 604 834 c
564.67 834 531.33 823.17 504 801.5 c
476.67 779.83 455.17 740.67 439.5 684 c
423.83 627.33 416 508.67 416 328 c
416 0 416 328 416 0 c
closepath } bind def
/s115 {
48 303 m
330 346 48 303 330 346 c
342 291.33 366.33 249.83 403 221.5 c
439.67 193.17 491 179 557 179 c
629.67 179 684.33 192.33 721 219 c
745.67 237.67 758 262.67 758 294 c
758 315.33 751.33 333 738 347 c
724 360.33 692.67 372.67 644 384 c
417.33 434 273.67 479.67 213 521 c
129 578.33 87 658 87 760 c
87 852 123.33 929.33 196 992 c
268.67 1054.67 381.33 1086 534 1086 c
679.33 1086 787.33 1062.33 858 1015 c
928.67 967.67 977.33 897.67 1004 805 c
739 756 1004 805 739 756 c
727.67 797.33 706.17 829 674.5 851 c
642.83 873 597.67 884 539 884 c
465 884 412 873.67 380 853 c
358.67 838.33 348 819.33 348 796 c
348 776 357.33 759 376 745 c
401.33 726.33 488.83 700 638.5 666 c
788.17 632 892.67 590.33 952 541 c
1010.67 491 1040 421.33 1040 332 c
1040 234.67 999.33 151 918 81 c
836.67 11 716.33 -24 557 -24 c
412.33 -24 297.83 5.33 213.5 64 c
129.17 122.67 74 202.33 48 303 c
closepath } bind def
/s116 {
634 1062 m
634 838 634 1062 634 838 c
442 838 634 838 442 838 c
442 410 442 838 442 410 c
442 323.33 443.83 272.83 447.5 258.5 c
451.17 244.17 459.5 232.33 472.5 223 c
485.5 213.67 501.33 209 520 209 c
546 209 583.67 218 633 236 c
657 18 633 236 657 18 c
591.67 -10 517.67 -24 435 -24 c
384.33 -24 338.67 -15.5 298 1.5 c
257.33 18.5 227.5 40.5 208.5 67.5 c
189.5 94.5 176.33 131 169 177 c
163 209.67 160 275.67 160 375 c
160 838 160 375 160 838 c
31 838 160 838 31 838 c
31 1062 31 838 31 1062 c
160 1062 31 1062 160 1062 c
160 1273 160 1062 160 1273 c
442 1437 160 1273 442 1437 c
442 1062 442 1437 442 1062 c
634 1062 442 1062 634 1062 c
closepath } bind def
/s122 {
34 0 m
34 219 34 0 34 219 c
432 676 34 219 432 676 c
497.33 750.67 545.67 803.67 577 835 c
544.33 833 501.33 831.67 448 831 c
73 829 448 831 73 829 c
73 1062 73 829 73 1062 c
951 1062 73 1062 951 1062 c
951 863 951 1062 951 863 c
545 395 951 863 545 395 c
402 240 545 395 402 240 c
480 244.67 528.33 247 547 247 c
982 247 547 247 982 247 c
982 0 982 247 982 0 c
34 0 982 0 34 0 c
closepath } bind def
end
/BuildGlyph {
 exch dup /Metrics get 2 index get 0 setcharwidth
/CharProcs get exch 2 copy known not{pop/.notdef}if get exec fill}bind def
/BuildChar {
1 index /Encoding get exch get
1 index /BuildGlyph get exec
} bind def
currentdict end /MC4_ArialBold exch definefont pop
%%EndFont
/clipproc{clippath{[{/m cvx}{/l cvx}{/c cvx}{/cp cvx}pathforall}stopped
{cleartomark[pathbbox exch 3 i sub exch 2 i sub/rectpath cvx}if]np}bd
/iclmtx mtx cmtx def/iclpath clipproc xd/clinit{pathproc initclip np iclpath cl np exec}bd
/clmove{pathproc 3 1 roll clippath pathproc 2 i neg 2 i neg tr initclip np exec cl tr np exec}bd
/clrect[gs np iclpath{pathbbox}stopped{0 0 900 720 }if gr]def
/cloper{mtx cmtx iclmtx smtx exch exec smtx}bd
/cland{{exch cvx exec}cloper}bd
/clcopy{{exch clinit cvx exec}cloper}bd
/cldiff{{exch pathbbox 4 -1 roll clrect 0 get 2 copy gt{exch}if pop 4 1 roll
 3 -1 roll clrect 1 get 2 copy gt{exch}if pop 3 1 roll
 2 -1 roll clrect 2 get 2 copy lt{exch}if pop 2 1 roll
 1 -1 roll clrect 3 get 2 copy lt{exch}if pop 1 1 roll
 exch 3 i sub exch 2 i sub rectpath cvx exec}cloper}bd
/icl{{clinit}cloper}bd
0.239949 0.239942 sc

/initmtx mtx cmtx def
[1.00022 -0 0 -1.00025 0 3000.73] concat
gs
481 2436 m
489 2436 l
2 sw
0.753 0.753 0.753 rgb
1 sj
1 scap
st
499 2436 m
507 2436 l
st
517 2436 m
525 2436 l
st
535 2436 m
543 2436 l
st
553 2436 m
561 2436 l
st
571 2436 m
579 2436 l
st
589 2436 m
597 2436 l
st
607 2436 m
615 2436 l
st
625 2436 m
633 2436 l
st
643 2436 m
651 2436 l
st
661 2436 m
669 2436 l
st
679 2436 m
687 2436 l
st
697 2436 m
705 2436 l
st
715 2436 m
723 2436 l
st
733 2436 m
741 2436 l
st
751 2436 m
759 2436 l
st
769 2436 m
777 2436 l
st
787 2436 m
795 2436 l
st
805 2436 m
813 2436 l
st
823 2436 m
831 2436 l
st
841 2436 m
849 2436 l
st
859 2436 m
867 2436 l
st
877 2436 m
885 2436 l
st
895 2436 m
903 2436 l
st
913 2436 m
921 2436 l
st
931 2436 m
939 2436 l
st
949 2436 m
957 2436 l
st
967 2436 m
975 2436 l
st
985 2436 m
993 2436 l
st
1003 2436 m
1011 2436 l
st
1021 2436 m
1029 2436 l
st
1039 2436 m
1047 2436 l
st
1057 2436 m
1065 2436 l
st
1075 2436 m
1083 2436 l
st
1093 2436 m
1101 2436 l
st
1111 2436 m
1119 2436 l
st
1129 2436 m
1137 2436 l
st
1147 2436 m
1155 2436 l
st
1165 2436 m
1173 2436 l
st
1183 2436 m
1191 2436 l
st
1201 2436 m
1209 2436 l
st
1219 2436 m
1227 2436 l
st
1237 2436 m
1245 2436 l
st
1255 2436 m
1263 2436 l
st
1273 2436 m
1281 2436 l
st
1291 2436 m
1299 2436 l
st
1309 2436 m
1317 2436 l
st
1327 2436 m
1335 2436 l
st
1345 2436 m
1353 2436 l
st
1363 2436 m
1371 2436 l
st
1381 2436 m
1389 2436 l
st
1399 2436 m
1407 2436 l
st
1417 2436 m
1425 2436 l
st
1435 2436 m
1443 2436 l
st
1453 2436 m
1461 2436 l
st
1471 2436 m
1479 2436 l
st
1489 2436 m
1497 2436 l
st
1507 2436 m
1515 2436 l
st
1525 2436 m
1533 2436 l
st
1543 2436 m
1551 2436 l
st
1561 2436 m
1569 2436 l
st
1579 2436 m
1587 2436 l
st
1597 2436 m
1605 2436 l
st
1615 2436 m
1623 2436 l
st
1633 2436 m
1641 2436 l
st
1651 2436 m
1659 2436 l
st
1669 2436 m
1677 2436 l
st
1687 2436 m
1695 2436 l
st
1705 2436 m
1713 2436 l
st
1723 2436 m
1731 2436 l
st
1741 2436 m
1749 2436 l
st
1759 2436 m
1767 2436 l
st
1777 2436 m
1785 2436 l
st
1795 2436 m
1803 2436 l
st
1813 2436 m
1821 2436 l
st
1831 2436 m
1839 2436 l
st
1849 2436 m
1857 2436 l
st
1867 2436 m
1875 2436 l
st
1885 2436 m
1893 2436 l
st
1903 2436 m
1911 2436 l
st
1921 2436 m
1929 2436 l
st
1939 2436 m
1947 2436 l
st
1957 2436 m
1965 2436 l
st
1975 2436 m
1983 2436 l
st
1993 2436 m
2001 2436 l
st
2011 2436 m
2019 2436 l
st
2029 2436 m
2037 2436 l
st
2047 2436 m
2055 2436 l
st
2065 2436 m
2073 2436 l
st
2083 2436 m
2091 2436 l
st
2101 2436 m
2109 2436 l
st
2119 2436 m
2127 2436 l
st
2137 2436 m
2145 2436 l
st
2155 2436 m
2163 2436 l
st
2173 2436 m
2181 2436 l
st
2191 2436 m
2199 2436 l
st
2209 2436 m
2217 2436 l
st
2227 2436 m
2235 2436 l
st
2245 2436 m
2253 2436 l
st
2263 2436 m
2271 2436 l
st
2281 2436 m
2289 2436 l
st
2299 2436 m
2307 2436 l
st
2317 2436 m
2325 2436 l
st
2335 2436 m
2343 2436 l
st
2353 2436 m
2361 2436 l
st
2371 2436 m
2379 2436 l
st
2389 2436 m
2397 2436 l
st
2407 2436 m
2415 2436 l
st
2425 2436 m
2433 2436 l
st
2443 2436 m
2451 2436 l
st
2461 2436 m
2469 2436 l
st
2479 2436 m
2487 2436 l
st
2497 2436 m
2505 2436 l
st
2515 2436 m
2523 2436 l
st
2533 2436 m
2541 2436 l
st
2551 2436 m
2559 2436 l
st
2569 2436 m
2577 2436 l
st
2587 2436 m
2595 2436 l
st
2605 2436 m
2613 2436 l
st
2623 2436 m
2631 2436 l
st
2641 2436 m
2649 2436 l
st
2659 2436 m
2667 2436 l
st
2677 2436 m
2685 2436 l
st
2695 2436 m
2703 2436 l
st
2713 2436 m
2721 2436 l
st
2731 2436 m
2739 2436 l
st
2749 2436 m
2757 2436 l
st
2767 2436 m
2775 2436 l
st
2785 2436 m
2793 2436 l
st
2803 2436 m
2811 2436 l
st
2821 2436 m
2829 2436 l
st
2839 2436 m
2847 2436 l
st
2857 2436 m
2865 2436 l
st
2875 2436 m
2883 2436 l
st
2893 2436 m
2901 2436 l
st
2911 2436 m
2919 2436 l
st
2929 2436 m
2937 2436 l
st
2947 2436 m
2955 2436 l
st
2965 2436 m
2973 2436 l
st
2983 2436 m
2991 2436 l
st
3001 2436 m
3009 2436 l
st
3019 2436 m
3027 2436 l
st
3037 2436 m
3045 2436 l
st
3055 2436 m
3063 2436 l
st
3073 2436 m
3081 2436 l
st
3091 2436 m
3099 2436 l
st
3109 2436 m
3117 2436 l
st
3127 2436 m
3135 2436 l
st
3145 2436 m
3153 2436 l
st
3163 2436 m
3171 2436 l
st
3181 2436 m
3189 2436 l
st
3199 2436 m
3207 2436 l
st
3217 2436 m
3225 2436 l
st
3235 2436 m
3243 2436 l
st
3253 2436 m
3261 2436 l
st
3271 2436 m
3279 2436 l
st
3289 2436 m
3297 2436 l
st
3307 2436 m
3315 2436 l
st
3325 2436 m
3333 2436 l
st
3343 2436 m
3351 2436 l
st
3361 2436 m
3369 2436 l
st
3379 2436 m
3387 2436 l
st
3397 2436 m
3405 2436 l
st
3415 2436 m
3423 2436 l
st
3433 2436 m
3441 2436 l
st
3451 2436 m
3459 2436 l
st
3469 2436 m
3477 2436 l
st
3487 2436 m
3495 2436 l
st
3505 2436 m
3513 2436 l
st
3523 2436 m
3531 2436 l
st
3541 2436 m
3549 2436 l
st
3559 2436 m
3567 2436 l
st
3577 2436 m
3585 2436 l
st
3595 2436 m
3603 2436 l
st
3613 2436 m
3621 2436 l
st
3631 2436 m
3639 2436 l
st
3649 2436 m
3657 2436 l
st
3667 2436 m
3675 2436 l
st
3685 2436 m
3693 2436 l
st
3703 2436 m
3709 2436 l
st
481 1995 m
489 1995 l
st
499 1995 m
507 1995 l
st
517 1995 m
525 1995 l
st
535 1995 m
543 1995 l
st
553 1995 m
561 1995 l
st
571 1995 m
579 1995 l
st
589 1995 m
597 1995 l
st
607 1995 m
615 1995 l
st
625 1995 m
633 1995 l
st
643 1995 m
651 1995 l
st
661 1995 m
669 1995 l
st
679 1995 m
687 1995 l
st
697 1995 m
705 1995 l
st
715 1995 m
723 1995 l
st
733 1995 m
741 1995 l
st
751 1995 m
759 1995 l
st
769 1995 m
777 1995 l
st
787 1995 m
795 1995 l
st
805 1995 m
813 1995 l
st
823 1995 m
831 1995 l
st
841 1995 m
849 1995 l
st
859 1995 m
867 1995 l
st
877 1995 m
885 1995 l
st
895 1995 m
903 1995 l
st
913 1995 m
921 1995 l
st
931 1995 m
939 1995 l
st
949 1995 m
957 1995 l
st
967 1995 m
975 1995 l
st
985 1995 m
993 1995 l
st
1003 1995 m
1011 1995 l
st
1021 1995 m
1029 1995 l
st
1039 1995 m
1047 1995 l
st
1057 1995 m
1065 1995 l
st
1075 1995 m
1083 1995 l
st
1093 1995 m
1101 1995 l
st
1111 1995 m
1119 1995 l
st
1129 1995 m
1137 1995 l
st
1147 1995 m
1155 1995 l
st
1165 1995 m
1173 1995 l
st
1183 1995 m
1191 1995 l
st
1201 1995 m
1209 1995 l
st
1219 1995 m
1227 1995 l
st
1237 1995 m
1245 1995 l
st
1255 1995 m
1263 1995 l
st
1273 1995 m
1281 1995 l
st
1291 1995 m
1299 1995 l
st
1309 1995 m
1317 1995 l
st
1327 1995 m
1335 1995 l
st
1345 1995 m
1353 1995 l
st
1363 1995 m
1371 1995 l
st
1381 1995 m
1389 1995 l
st
1399 1995 m
1407 1995 l
st
1417 1995 m
1425 1995 l
st
1435 1995 m
1443 1995 l
st
1453 1995 m
1461 1995 l
st
1471 1995 m
1479 1995 l
st
1489 1995 m
1497 1995 l
st
1507 1995 m
1515 1995 l
st
1525 1995 m
1533 1995 l
st
1543 1995 m
1551 1995 l
st
1561 1995 m
1569 1995 l
st
1579 1995 m
1587 1995 l
st
1597 1995 m
1605 1995 l
st
1615 1995 m
1623 1995 l
st
1633 1995 m
1641 1995 l
st
1651 1995 m
1659 1995 l
st
1669 1995 m
1677 1995 l
st
1687 1995 m
1695 1995 l
st
1705 1995 m
1713 1995 l
st
1723 1995 m
1731 1995 l
st
1741 1995 m
1749 1995 l
st
1759 1995 m
1767 1995 l
st
1777 1995 m
1785 1995 l
st
1795 1995 m
1803 1995 l
st
1813 1995 m
1821 1995 l
st
1831 1995 m
1839 1995 l
st
1849 1995 m
1857 1995 l
st
1867 1995 m
1875 1995 l
st
1885 1995 m
1893 1995 l
st
1903 1995 m
1911 1995 l
st
1921 1995 m
1929 1995 l
st
1939 1995 m
1947 1995 l
st
1957 1995 m
1965 1995 l
st
1975 1995 m
1983 1995 l
st
1993 1995 m
2001 1995 l
st
2011 1995 m
2019 1995 l
st
2029 1995 m
2037 1995 l
st
2047 1995 m
2055 1995 l
st
2065 1995 m
2073 1995 l
st
2083 1995 m
2091 1995 l
st
2101 1995 m
2109 1995 l
st
2119 1995 m
2127 1995 l
st
2137 1995 m
2145 1995 l
st
2155 1995 m
2163 1995 l
st
2173 1995 m
2181 1995 l
st
2191 1995 m
2199 1995 l
st
2209 1995 m
2217 1995 l
st
2227 1995 m
2235 1995 l
st
2245 1995 m
2253 1995 l
st
2263 1995 m
2271 1995 l
st
2281 1995 m
2289 1995 l
st
2299 1995 m
2307 1995 l
st
2317 1995 m
2325 1995 l
st
2335 1995 m
2343 1995 l
st
2353 1995 m
2361 1995 l
st
2371 1995 m
2379 1995 l
st
2389 1995 m
2397 1995 l
st
2407 1995 m
2415 1995 l
st
2425 1995 m
2433 1995 l
st
2443 1995 m
2451 1995 l
st
2461 1995 m
2469 1995 l
st
2479 1995 m
2487 1995 l
st
2497 1995 m
2505 1995 l
st
2515 1995 m
2523 1995 l
st
2533 1995 m
2541 1995 l
st
2551 1995 m
2559 1995 l
st
2569 1995 m
2577 1995 l
st
2587 1995 m
2595 1995 l
st
2605 1995 m
2613 1995 l
st
2623 1995 m
2631 1995 l
st
2641 1995 m
2649 1995 l
st
2659 1995 m
2667 1995 l
st
2677 1995 m
2685 1995 l
st
2695 1995 m
2703 1995 l
st
2713 1995 m
2721 1995 l
st
2731 1995 m
2739 1995 l
st
2749 1995 m
2757 1995 l
st
2767 1995 m
2775 1995 l
st
2785 1995 m
2793 1995 l
st
2803 1995 m
2811 1995 l
st
2821 1995 m
2829 1995 l
st
2839 1995 m
2847 1995 l
st
2857 1995 m
2865 1995 l
st
2875 1995 m
2883 1995 l
st
2893 1995 m
2901 1995 l
st
2911 1995 m
2919 1995 l
st
2929 1995 m
2937 1995 l
st
2947 1995 m
2955 1995 l
st
2965 1995 m
2973 1995 l
st
2983 1995 m
2991 1995 l
st
3001 1995 m
3009 1995 l
st
3019 1995 m
3027 1995 l
st
3037 1995 m
3045 1995 l
st
3055 1995 m
3063 1995 l
st
3073 1995 m
3081 1995 l
st
3091 1995 m
3099 1995 l
st
3109 1995 m
3117 1995 l
st
3127 1995 m
3135 1995 l
st
3145 1995 m
3153 1995 l
st
3163 1995 m
3171 1995 l
st
3181 1995 m
3189 1995 l
st
3199 1995 m
3207 1995 l
st
3217 1995 m
3225 1995 l
st
3235 1995 m
3243 1995 l
st
3253 1995 m
3261 1995 l
st
3271 1995 m
3279 1995 l
st
3289 1995 m
3297 1995 l
st
3307 1995 m
3315 1995 l
st
3325 1995 m
3333 1995 l
st
3343 1995 m
3351 1995 l
st
3361 1995 m
3369 1995 l
st
3379 1995 m
3387 1995 l
st
3397 1995 m
3405 1995 l
st
3415 1995 m
3423 1995 l
st
3433 1995 m
3441 1995 l
st
3451 1995 m
3459 1995 l
st
3469 1995 m
3477 1995 l
st
3487 1995 m
3495 1995 l
st
3505 1995 m
3513 1995 l
st
3523 1995 m
3531 1995 l
st
3541 1995 m
3549 1995 l
st
3559 1995 m
3567 1995 l
st
3577 1995 m
3585 1995 l
st
3595 1995 m
3603 1995 l
st
3613 1995 m
3621 1995 l
st
3631 1995 m
3639 1995 l
st
3649 1995 m
3657 1995 l
st
3667 1995 m
3675 1995 l
st
3685 1995 m
3693 1995 l
st
3703 1995 m
3709 1995 l
st
481 1554 m
489 1554 l
st
499 1554 m
507 1554 l
st
517 1554 m
525 1554 l
st
535 1554 m
543 1554 l
st
553 1554 m
561 1554 l
st
571 1554 m
579 1554 l
st
589 1554 m
597 1554 l
st
607 1554 m
615 1554 l
st
625 1554 m
633 1554 l
st
643 1554 m
651 1554 l
st
661 1554 m
669 1554 l
st
679 1554 m
687 1554 l
st
697 1554 m
705 1554 l
st
715 1554 m
723 1554 l
st
733 1554 m
741 1554 l
st
751 1554 m
759 1554 l
st
769 1554 m
777 1554 l
st
787 1554 m
795 1554 l
st
805 1554 m
813 1554 l
st
823 1554 m
831 1554 l
st
841 1554 m
849 1554 l
st
859 1554 m
867 1554 l
st
877 1554 m
885 1554 l
st
895 1554 m
903 1554 l
st
913 1554 m
921 1554 l
st
931 1554 m
939 1554 l
st
949 1554 m
957 1554 l
st
967 1554 m
975 1554 l
st
985 1554 m
993 1554 l
st
1003 1554 m
1011 1554 l
st
1021 1554 m
1029 1554 l
st
1039 1554 m
1047 1554 l
st
1057 1554 m
1065 1554 l
st
1075 1554 m
1083 1554 l
st
1093 1554 m
1101 1554 l
st
1111 1554 m
1119 1554 l
st
1129 1554 m
1137 1554 l
st
1147 1554 m
1155 1554 l
st
1165 1554 m
1173 1554 l
st
1183 1554 m
1191 1554 l
st
1201 1554 m
1209 1554 l
st
1219 1554 m
1227 1554 l
st
1237 1554 m
1245 1554 l
st
1255 1554 m
1263 1554 l
st
1273 1554 m
1281 1554 l
st
1291 1554 m
1299 1554 l
st
1309 1554 m
1317 1554 l
st
1327 1554 m
1335 1554 l
st
1345 1554 m
1353 1554 l
st
1363 1554 m
1371 1554 l
st
1381 1554 m
1389 1554 l
st
1399 1554 m
1407 1554 l
st
1417 1554 m
1425 1554 l
st
1435 1554 m
1443 1554 l
st
1453 1554 m
1461 1554 l
st
1471 1554 m
1479 1554 l
st
1489 1554 m
1497 1554 l
st
1507 1554 m
1515 1554 l
st
1525 1554 m
1533 1554 l
st
1543 1554 m
1551 1554 l
st
1561 1554 m
1569 1554 l
st
1579 1554 m
1587 1554 l
st
1597 1554 m
1605 1554 l
st
1615 1554 m
1623 1554 l
st
1633 1554 m
1641 1554 l
st
1651 1554 m
1659 1554 l
st
1669 1554 m
1677 1554 l
st
1687 1554 m
1695 1554 l
st
1705 1554 m
1713 1554 l
st
1723 1554 m
1731 1554 l
st
1741 1554 m
1749 1554 l
st
1759 1554 m
1767 1554 l
st
1777 1554 m
1785 1554 l
st
1795 1554 m
1803 1554 l
st
1813 1554 m
1821 1554 l
st
1831 1554 m
1839 1554 l
st
1849 1554 m
1857 1554 l
st
1867 1554 m
1875 1554 l
st
1885 1554 m
1893 1554 l
st
1903 1554 m
1911 1554 l
st
1921 1554 m
1929 1554 l
st
1939 1554 m
1947 1554 l
st
1957 1554 m
1965 1554 l
st
1975 1554 m
1983 1554 l
st
1993 1554 m
2001 1554 l
st
2011 1554 m
2019 1554 l
st
2029 1554 m
2037 1554 l
st
2047 1554 m
2055 1554 l
st
2065 1554 m
2073 1554 l
st
2083 1554 m
2091 1554 l
st
2101 1554 m
2109 1554 l
st
2119 1554 m
2127 1554 l
st
2137 1554 m
2145 1554 l
st
2155 1554 m
2163 1554 l
st
2173 1554 m
2181 1554 l
st
2191 1554 m
2199 1554 l
st
2209 1554 m
2217 1554 l
st
2227 1554 m
2235 1554 l
st
2245 1554 m
2253 1554 l
st
2263 1554 m
2271 1554 l
st
2281 1554 m
2289 1554 l
st
2299 1554 m
2307 1554 l
st
2317 1554 m
2325 1554 l
st
2335 1554 m
2343 1554 l
st
2353 1554 m
2361 1554 l
st
2371 1554 m
2379 1554 l
st
2389 1554 m
2397 1554 l
st
2407 1554 m
2415 1554 l
st
2425 1554 m
2433 1554 l
st
2443 1554 m
2451 1554 l
st
2461 1554 m
2469 1554 l
st
2479 1554 m
2487 1554 l
st
2497 1554 m
2505 1554 l
st
2515 1554 m
2523 1554 l
st
2533 1554 m
2541 1554 l
st
2551 1554 m
2559 1554 l
st
2569 1554 m
2577 1554 l
st
2587 1554 m
2595 1554 l
st
2605 1554 m
2613 1554 l
st
2623 1554 m
2631 1554 l
st
2641 1554 m
2649 1554 l
st
2659 1554 m
2667 1554 l
st
2677 1554 m
2685 1554 l
st
2695 1554 m
2703 1554 l
st
2713 1554 m
2721 1554 l
st
2731 1554 m
2739 1554 l
st
2749 1554 m
2757 1554 l
st
2767 1554 m
2775 1554 l
st
2785 1554 m
2793 1554 l
st
2803 1554 m
2811 1554 l
st
2821 1554 m
2829 1554 l
st
2839 1554 m
2847 1554 l
st
2857 1554 m
2865 1554 l
st
2875 1554 m
2883 1554 l
st
2893 1554 m
2901 1554 l
st
2911 1554 m
2919 1554 l
st
2929 1554 m
2937 1554 l
st
2947 1554 m
2955 1554 l
st
2965 1554 m
2973 1554 l
st
2983 1554 m
2991 1554 l
st
3001 1554 m
3009 1554 l
st
3019 1554 m
3027 1554 l
st
3037 1554 m
3045 1554 l
st
3055 1554 m
3063 1554 l
st
3073 1554 m
3081 1554 l
st
3091 1554 m
3099 1554 l
st
3109 1554 m
3117 1554 l
st
3127 1554 m
3135 1554 l
st
3145 1554 m
3153 1554 l
st
3163 1554 m
3171 1554 l
st
3181 1554 m
3189 1554 l
st
3199 1554 m
3207 1554 l
st
3217 1554 m
3225 1554 l
st
3235 1554 m
3243 1554 l
st
3253 1554 m
3261 1554 l
st
3271 1554 m
3279 1554 l
st
3289 1554 m
3297 1554 l
st
3307 1554 m
3315 1554 l
st
3325 1554 m
3333 1554 l
st
3343 1554 m
3351 1554 l
st
3361 1554 m
3369 1554 l
st
3379 1554 m
3387 1554 l
st
3397 1554 m
3405 1554 l
st
3415 1554 m
3423 1554 l
st
3433 1554 m
3441 1554 l
st
3451 1554 m
3459 1554 l
st
3469 1554 m
3477 1554 l
st
3487 1554 m
3495 1554 l
st
3505 1554 m
3513 1554 l
st
3523 1554 m
3531 1554 l
st
3541 1554 m
3549 1554 l
st
3559 1554 m
3567 1554 l
st
3577 1554 m
3585 1554 l
st
3595 1554 m
3603 1554 l
st
3613 1554 m
3621 1554 l
st
3631 1554 m
3639 1554 l
st
3649 1554 m
3657 1554 l
st
3667 1554 m
3675 1554 l
st
3685 1554 m
3693 1554 l
st
3703 1554 m
3709 1554 l
st
481 1112 m
489 1112 l
st
499 1112 m
507 1112 l
st
517 1112 m
525 1112 l
st
535 1112 m
543 1112 l
st
553 1112 m
561 1112 l
st
571 1112 m
579 1112 l
st
589 1112 m
597 1112 l
st
607 1112 m
615 1112 l
st
625 1112 m
633 1112 l
st
643 1112 m
651 1112 l
st
661 1112 m
669 1112 l
st
679 1112 m
687 1112 l
st
697 1112 m
705 1112 l
st
715 1112 m
723 1112 l
st
733 1112 m
741 1112 l
st
751 1112 m
759 1112 l
st
769 1112 m
777 1112 l
st
787 1112 m
795 1112 l
st
805 1112 m
813 1112 l
st
823 1112 m
831 1112 l
st
841 1112 m
849 1112 l
st
859 1112 m
867 1112 l
st
877 1112 m
885 1112 l
st
895 1112 m
903 1112 l
st
913 1112 m
921 1112 l
st
931 1112 m
939 1112 l
st
949 1112 m
957 1112 l
st
967 1112 m
975 1112 l
st
985 1112 m
993 1112 l
st
1003 1112 m
1011 1112 l
st
1021 1112 m
1029 1112 l
st
1039 1112 m
1047 1112 l
st
1057 1112 m
1065 1112 l
st
1075 1112 m
1083 1112 l
st
1093 1112 m
1101 1112 l
st
1111 1112 m
1119 1112 l
st
1129 1112 m
1137 1112 l
st
1147 1112 m
1155 1112 l
st
1165 1112 m
1173 1112 l
st
1183 1112 m
1191 1112 l
st
1201 1112 m
1209 1112 l
st
1219 1112 m
1227 1112 l
st
1237 1112 m
1245 1112 l
st
1255 1112 m
1263 1112 l
st
1273 1112 m
1281 1112 l
st
1291 1112 m
1299 1112 l
st
1309 1112 m
1317 1112 l
st
1327 1112 m
1335 1112 l
st
1345 1112 m
1353 1112 l
st
1363 1112 m
1371 1112 l
st
1381 1112 m
1389 1112 l
st
1399 1112 m
1407 1112 l
st
1417 1112 m
1425 1112 l
st
1435 1112 m
1443 1112 l
st
1453 1112 m
1461 1112 l
st
1471 1112 m
1479 1112 l
st
1489 1112 m
1497 1112 l
st
1507 1112 m
1515 1112 l
st
1525 1112 m
1533 1112 l
st
1543 1112 m
1551 1112 l
st
1561 1112 m
1569 1112 l
st
1579 1112 m
1587 1112 l
st
1597 1112 m
1605 1112 l
st
1615 1112 m
1623 1112 l
st
1633 1112 m
1641 1112 l
st
1651 1112 m
1659 1112 l
st
1669 1112 m
1677 1112 l
st
1687 1112 m
1695 1112 l
st
1705 1112 m
1713 1112 l
st
1723 1112 m
1731 1112 l
st
1741 1112 m
1749 1112 l
st
1759 1112 m
1767 1112 l
st
1777 1112 m
1785 1112 l
st
1795 1112 m
1803 1112 l
st
1813 1112 m
1821 1112 l
st
1831 1112 m
1839 1112 l
st
1849 1112 m
1857 1112 l
st
1867 1112 m
1875 1112 l
st
1885 1112 m
1893 1112 l
st
1903 1112 m
1911 1112 l
st
1921 1112 m
1929 1112 l
st
1939 1112 m
1947 1112 l
st
1957 1112 m
1965 1112 l
st
1975 1112 m
1983 1112 l
st
1993 1112 m
2001 1112 l
st
2011 1112 m
2019 1112 l
st
2029 1112 m
2037 1112 l
st
2047 1112 m
2055 1112 l
st
2065 1112 m
2073 1112 l
st
2083 1112 m
2091 1112 l
st
2101 1112 m
2109 1112 l
st
2119 1112 m
2127 1112 l
st
2137 1112 m
2145 1112 l
st
2155 1112 m
2163 1112 l
st
2173 1112 m
2181 1112 l
st
2191 1112 m
2199 1112 l
st
2209 1112 m
2217 1112 l
st
2227 1112 m
2235 1112 l
st
2245 1112 m
2253 1112 l
st
2263 1112 m
2271 1112 l
st
2281 1112 m
2289 1112 l
st
2299 1112 m
2307 1112 l
st
2317 1112 m
2325 1112 l
st
2335 1112 m
2343 1112 l
st
2353 1112 m
2361 1112 l
st
2371 1112 m
2379 1112 l
st
2389 1112 m
2397 1112 l
st
2407 1112 m
2415 1112 l
st
2425 1112 m
2433 1112 l
st
2443 1112 m
2451 1112 l
st
2461 1112 m
2469 1112 l
st
2479 1112 m
2487 1112 l
st
2497 1112 m
2505 1112 l
st
2515 1112 m
2523 1112 l
st
2533 1112 m
2541 1112 l
st
2551 1112 m
2559 1112 l
st
2569 1112 m
2577 1112 l
st
2587 1112 m
2595 1112 l
st
2605 1112 m
2613 1112 l
st
2623 1112 m
2631 1112 l
st
2641 1112 m
2649 1112 l
st
2659 1112 m
2667 1112 l
st
2677 1112 m
2685 1112 l
st
2695 1112 m
2703 1112 l
st
2713 1112 m
2721 1112 l
st
2731 1112 m
2739 1112 l
st
2749 1112 m
2757 1112 l
st
2767 1112 m
2775 1112 l
st
2785 1112 m
2793 1112 l
st
2803 1112 m
2811 1112 l
st
2821 1112 m
2829 1112 l
st
2839 1112 m
2847 1112 l
st
2857 1112 m
2865 1112 l
st
2875 1112 m
2883 1112 l
st
2893 1112 m
2901 1112 l
st
2911 1112 m
2919 1112 l
st
2929 1112 m
2937 1112 l
st
2947 1112 m
2955 1112 l
st
2965 1112 m
2973 1112 l
st
2983 1112 m
2991 1112 l
st
3001 1112 m
3009 1112 l
st
3019 1112 m
3027 1112 l
st
3037 1112 m
3045 1112 l
st
3055 1112 m
3063 1112 l
st
3073 1112 m
3081 1112 l
st
3091 1112 m
3099 1112 l
st
3109 1112 m
3117 1112 l
st
3127 1112 m
3135 1112 l
st
3145 1112 m
3153 1112 l
st
3163 1112 m
3171 1112 l
st
3181 1112 m
3189 1112 l
st
3199 1112 m
3207 1112 l
st
3217 1112 m
3225 1112 l
st
3235 1112 m
3243 1112 l
st
3253 1112 m
3261 1112 l
st
3271 1112 m
3279 1112 l
st
3289 1112 m
3297 1112 l
st
3307 1112 m
3315 1112 l
st
3325 1112 m
3333 1112 l
st
3343 1112 m
3351 1112 l
st
3361 1112 m
3369 1112 l
st
3379 1112 m
3387 1112 l
st
3397 1112 m
3405 1112 l
st
3415 1112 m
3423 1112 l
st
3433 1112 m
3441 1112 l
st
3451 1112 m
3459 1112 l
st
3469 1112 m
3477 1112 l
st
3487 1112 m
3495 1112 l
st
3505 1112 m
3513 1112 l
st
3523 1112 m
3531 1112 l
st
3541 1112 m
3549 1112 l
st
3559 1112 m
3567 1112 l
st
3577 1112 m
3585 1112 l
st
3595 1112 m
3603 1112 l
st
3613 1112 m
3621 1112 l
st
3631 1112 m
3639 1112 l
st
3649 1112 m
3657 1112 l
st
3667 1112 m
3675 1112 l
st
3685 1112 m
3693 1112 l
st
3703 1112 m
3709 1112 l
st
481 671 m
489 671 l
st
499 671 m
507 671 l
st
517 671 m
525 671 l
st
535 671 m
543 671 l
st
553 671 m
561 671 l
st
571 671 m
579 671 l
st
589 671 m
597 671 l
st
607 671 m
615 671 l
st
625 671 m
633 671 l
st
643 671 m
651 671 l
st
661 671 m
669 671 l
st
679 671 m
687 671 l
st
697 671 m
705 671 l
st
715 671 m
723 671 l
st
733 671 m
741 671 l
st
751 671 m
759 671 l
st
769 671 m
777 671 l
st
787 671 m
795 671 l
st
805 671 m
813 671 l
st
823 671 m
831 671 l
st
841 671 m
849 671 l
st
859 671 m
867 671 l
st
877 671 m
885 671 l
st
895 671 m
903 671 l
st
913 671 m
921 671 l
st
931 671 m
939 671 l
st
949 671 m
957 671 l
st
967 671 m
975 671 l
st
985 671 m
993 671 l
st
1003 671 m
1011 671 l
st
1021 671 m
1029 671 l
st
1039 671 m
1047 671 l
st
1057 671 m
1065 671 l
st
1075 671 m
1083 671 l
st
1093 671 m
1101 671 l
st
1111 671 m
1119 671 l
st
1129 671 m
1137 671 l
st
1147 671 m
1155 671 l
st
1165 671 m
1173 671 l
st
1183 671 m
1191 671 l
st
1201 671 m
1209 671 l
st
1219 671 m
1227 671 l
st
1237 671 m
1245 671 l
st
1255 671 m
1263 671 l
st
1273 671 m
1281 671 l
st
1291 671 m
1299 671 l
st
1309 671 m
1317 671 l
st
1327 671 m
1335 671 l
st
1345 671 m
1353 671 l
st
1363 671 m
1371 671 l
st
1381 671 m
1389 671 l
st
1399 671 m
1407 671 l
st
1417 671 m
1425 671 l
st
1435 671 m
1443 671 l
st
1453 671 m
1461 671 l
st
1471 671 m
1479 671 l
st
1489 671 m
1497 671 l
st
1507 671 m
1515 671 l
st
1525 671 m
1533 671 l
st
1543 671 m
1551 671 l
st
1561 671 m
1569 671 l
st
1579 671 m
1587 671 l
st
1597 671 m
1605 671 l
st
1615 671 m
1623 671 l
st
1633 671 m
1641 671 l
st
1651 671 m
1659 671 l
st
1669 671 m
1677 671 l
st
1687 671 m
1695 671 l
st
1705 671 m
1713 671 l
st
1723 671 m
1731 671 l
st
1741 671 m
1749 671 l
st
1759 671 m
1767 671 l
st
1777 671 m
1785 671 l
st
1795 671 m
1803 671 l
st
1813 671 m
1821 671 l
st
1831 671 m
1839 671 l
st
1849 671 m
1857 671 l
st
1867 671 m
1875 671 l
st
1885 671 m
1893 671 l
st
1903 671 m
1911 671 l
st
1921 671 m
1929 671 l
st
1939 671 m
1947 671 l
st
1957 671 m
1965 671 l
st
1975 671 m
1983 671 l
st
1993 671 m
2001 671 l
st
2011 671 m
2019 671 l
st
2029 671 m
2037 671 l
st
2047 671 m
2055 671 l
st
2065 671 m
2073 671 l
st
2083 671 m
2091 671 l
st
2101 671 m
2109 671 l
st
2119 671 m
2127 671 l
st
2137 671 m
2145 671 l
st
2155 671 m
2163 671 l
st
2173 671 m
2181 671 l
st
2191 671 m
2199 671 l
st
2209 671 m
2217 671 l
st
2227 671 m
2235 671 l
st
2245 671 m
2253 671 l
st
2263 671 m
2271 671 l
st
2281 671 m
2289 671 l
st
2299 671 m
2307 671 l
st
2317 671 m
2325 671 l
st
2335 671 m
2343 671 l
st
2353 671 m
2361 671 l
st
2371 671 m
2379 671 l
st
2389 671 m
2397 671 l
st
2407 671 m
2415 671 l
st
2425 671 m
2433 671 l
st
2443 671 m
2451 671 l
st
2461 671 m
2469 671 l
st
2479 671 m
2487 671 l
st
2497 671 m
2505 671 l
st
2515 671 m
2523 671 l
st
2533 671 m
2541 671 l
st
2551 671 m
2559 671 l
st
2569 671 m
2577 671 l
st
2587 671 m
2595 671 l
st
2605 671 m
2613 671 l
st
2623 671 m
2631 671 l
st
2641 671 m
2649 671 l
st
2659 671 m
2667 671 l
st
2677 671 m
2685 671 l
st
2695 671 m
2703 671 l
st
2713 671 m
2721 671 l
st
2731 671 m
2739 671 l
st
2749 671 m
2757 671 l
st
2767 671 m
2775 671 l
st
2785 671 m
2793 671 l
st
2803 671 m
2811 671 l
st
2821 671 m
2829 671 l
st
2839 671 m
2847 671 l
st
2857 671 m
2865 671 l
st
2875 671 m
2883 671 l
st
2893 671 m
2901 671 l
st
2911 671 m
2919 671 l
st
2929 671 m
2937 671 l
st
2947 671 m
2955 671 l
st
2965 671 m
2973 671 l
st
2983 671 m
2991 671 l
st
3001 671 m
3009 671 l
st
3019 671 m
3027 671 l
st
3037 671 m
3045 671 l
st
3055 671 m
3063 671 l
st
3073 671 m
3081 671 l
st
3091 671 m
3099 671 l
st
3109 671 m
3117 671 l
st
3127 671 m
3135 671 l
st
3145 671 m
3153 671 l
st
3163 671 m
3171 671 l
st
3181 671 m
3189 671 l
st
3199 671 m
3207 671 l
st
3217 671 m
3225 671 l
st
3235 671 m
3243 671 l
st
3253 671 m
3261 671 l
st
3271 671 m
3279 671 l
st
3289 671 m
3297 671 l
st
3307 671 m
3315 671 l
st
3325 671 m
3333 671 l
st
3343 671 m
3351 671 l
st
3361 671 m
3369 671 l
st
3379 671 m
3387 671 l
st
3397 671 m
3405 671 l
st
3415 671 m
3423 671 l
st
3433 671 m
3441 671 l
st
3451 671 m
3459 671 l
st
3469 671 m
3477 671 l
st
3487 671 m
3495 671 l
st
3505 671 m
3513 671 l
st
3523 671 m
3531 671 l
st
3541 671 m
3549 671 l
st
3559 671 m
3567 671 l
st
3577 671 m
3585 671 l
st
3595 671 m
3603 671 l
st
3613 671 m
3621 671 l
st
3631 671 m
3639 671 l
st
3649 671 m
3657 671 l
st
3667 671 m
3675 671 l
st
3685 671 m
3693 671 l
st
3703 671 m
3709 671 l
st
481 2216 m
3710 2216 l
3 sw
0.502 0.502 0.502 rgb
st
481 1774 m
3710 1774 l
st
481 1333 m
3710 1333 l
st
481 891 m
3710 891 l
st
gs
pathproc 481 450 3230 2208 np rectpath
/eocl cland
np exec
836 831 m
1095 831 l
1095 2657 l
836 2657 l
cp
gs
0 0 0 rgb
eofi
gr
5 sw
0 0 0 rgb
st
836 831 m
1095 831 l
st
1095 831 m
1095 2657 l
st
836 2657 m
836 831 l
st
1159 1911 m
1417 1911 l
1417 2657 l
1159 2657 l
cp
gs
eofi
gr
st
1159 1911 m
1417 1911 l
st
1417 1911 m
1417 2657 l
st
1159 2657 m
1159 1911 l
st
1482 1890 m
1740 1890 l
1740 2657 l
1482 2657 l
cp
gs
eofi
gr
st
1482 1890 m
1740 1890 l
st
1740 1890 m
1740 2657 l
st
1482 2657 m
1482 1890 l
st
1805 819 m
2063 819 l
2063 2657 l
1805 2657 l
cp
gs
eofi
gr
st
1805 819 m
2063 819 l
st
2063 819 m
2063 2657 l
st
1805 2657 m
1805 819 l
st
2128 1140 m
2386 1140 l
2386 2657 l
2128 2657 l
cp
gs
eofi
gr
st
2128 1140 m
2386 1140 l
st
2386 1140 m
2386 2657 l
st
2128 2657 m
2128 1140 l
st
2451 1275 m
2709 1275 l
2709 2657 l
2451 2657 l
cp
gs
eofi
gr
st
2451 1275 m
2709 1275 l
st
2709 1275 m
2709 2657 l
st
2451 2657 m
2451 1275 l
st
2774 925 m
3032 925 l
3032 2657 l
2774 2657 l
cp
gs
eofi
gr
st
2774 925 m
3032 925 l
st
3032 925 m
3032 2657 l
st
2774 2657 m
2774 925 l
st
3096 2446 m
3355 2446 l
3355 2657 l
3096 2657 l
cp
gs
eofi
gr
st
3096 2446 m
3355 2446 l
st
3355 2446 m
3355 2657 l
st
3096 2657 m
3096 2446 l
st
3419 2634 m
3678 2634 l
3678 2657 l
3419 2657 l
cp
gs
eofi
gr
st
3419 2634 m
3678 2634 l
st
3678 2634 m
3678 2657 l
st
3419 2657 m
3419 2634 l
st
gr
gs
pathproc 481 450 3230 2208 np rectpath
/eocl cland
np exec
836 691 m
1095 691 l
1095 831 l
836 831 l
cp
gs
1 0 0 rgb
eofi
gr
5 sw
0 0 0 rgb
st
1159 1841 m
1417 1841 l
1417 1911 l
1159 1911 l
cp
gs
1 0 0 rgb
eofi
gr
st
1482 495 m
1740 495 l
1740 1890 l
1482 1890 l
cp
gs
1 0 0 rgb
eofi
gr
st
1805 819 m
2063 819 l
st
2128 1137 m
2386 1137 l
2386 1140 l
2128 1140 l
cp
gs
1 0 0 rgb
eofi
gr
st
2451 1227 m
2709 1227 l
2709 1275 l
2451 1275 l
cp
gs
1 0 0 rgb
eofi
gr
st
2774 450 m
3032 450 l
3032 925 l
2774 925 l
cp
gs
1 0 0 rgb
eofi
gr
1 0 0 rgb
st
3032 450 m
3032 925 l
0 0 0 rgb
st
3032 925 m
2774 925 l
st
2774 925 m
2774 450 l
st
3096 2095 m
3355 2095 l
3355 2446 l
3096 2446 l
cp
gs
1 0 0 rgb
eofi
gr
st
3419 450 m
3678 450 l
3678 2634 l
3419 2634 l
cp
gs
1 0 0 rgb
eofi
gr
1 0 0 rgb
st
3678 450 m
3678 2634 l
0 0 0 rgb
st
3678 2634 m
3419 2634 l
st
3419 2634 m
3419 450 l
st
gr
gs
pathproc 481 450 3230 2208 np rectpath
/eocl cland
np exec
513 450 m
772 450 l
772 2657 l
513 2657 l
cp
gs
0.753 0.753 0.753 rgb
eofi
gr
5 sw
0.753 0.753 0.753 rgb
st
772 450 m
772 2657 l
0 0 0 rgb
st
513 2657 m
513 450 l
st
836 450 m
1095 450 l
1095 691 l
836 691 l
cp
gs
0.753 0.753 0.753 rgb
eofi
gr
0.753 0.753 0.753 rgb
st
1095 450 m
1095 691 l
0 0 0 rgb
st
1095 691 m
836 691 l
st
836 691 m
836 450 l
st
1159 450 m
1417 450 l
1417 1841 l
1159 1841 l
cp
gs
0.753 0.753 0.753 rgb
eofi
gr
0.753 0.753 0.753 rgb
st
1417 450 m
1417 1841 l
0 0 0 rgb
st
1417 1841 m
1159 1841 l
st
1159 1841 m
1159 450 l
st
1482 450 m
1740 450 l
1740 495 l
1482 495 l
cp
gs
0.753 0.753 0.753 rgb
eofi
gr
0.753 0.753 0.753 rgb
st
1740 450 m
1740 495 l
0 0 0 rgb
st
1740 495 m
1482 495 l
st
1482 495 m
1482 450 l
st
1805 450 m
2063 450 l
2063 819 l
1805 819 l
cp
gs
0.753 0.753 0.753 rgb
eofi
gr
0.753 0.753 0.753 rgb
st
2063 450 m
2063 819 l
0 0 0 rgb
st
2063 819 m
1805 819 l
st
1805 819 m
1805 450 l
st
2128 450 m
2386 450 l
2386 1137 l
2128 1137 l
cp
gs
0.753 0.753 0.753 rgb
eofi
gr
0.753 0.753 0.753 rgb
st
2386 450 m
2386 1137 l
0 0 0 rgb
st
2386 1137 m
2128 1137 l
st
2128 1137 m
2128 450 l
st
2451 450 m
2709 450 l
2709 1227 l
2451 1227 l
cp
gs
0.753 0.753 0.753 rgb
eofi
gr
0.753 0.753 0.753 rgb
st
2709 450 m
2709 1227 l
0 0 0 rgb
st
2709 1227 m
2451 1227 l
st
2451 1227 m
2451 450 l
st
3096 450 m
3355 450 l
3355 2095 l
3096 2095 l
cp
gs
0.753 0.753 0.753 rgb
eofi
gr
0.753 0.753 0.753 rgb
st
3355 450 m
3355 2095 l
0 0 0 rgb
st
3355 2095 m
3096 2095 l
st
3096 2095 m
3096 450 l
st
gr
gs
gs
1 -1 sc
501 -2896 tr
30 ro
0 0 0 rgb
/MC1_Arial 150 self 0 0 m
(cfs)[75 42 75 ] xs
1 -1 sc
gr
gr
gs
gs
1 -1 sc
853 -2879 tr
30 ro
0 0 0 rgb
/MC1_Arial 150 self 0 0 m
(fin)[42 33 83 ] xs
1 -1 sc
gr
gr
gs
gs
1 -1 sc
1133 -2904 tr
30 ro
0 0 0 rgb
/MC1_Arial 150 self 0 0 m
(hm)[83 125 ] xs
1 -1 sc
gr
gr
gs
gs
1 -1 sc
1391 -2941 tr
30 ro
0 0 0 rgb
/MC1_Arial 150 self 0 0 m
(mds)[125 83 75 ] xs
1 -1 sc
gr
gr
gs
gs
1 -1 sc
1613 -3000 tr
30 ro
0 0 0 rgb
/MC1_Arial 150 self 0 0 m
(msnfs)[125 75 83 42 75 ] xs
1 -1 sc
gr
gr
gs
gs
1 -1 sc
2040 -2940 tr
30 ro
0 0 0 rgb
/MC1_Arial 150 self 0 0 m
(prxy)[83 50 74 73 ] xs
1 -1 sc
gr
gr
gs
gs
1 -1 sc
2418 -2908 tr
30 ro
0 0 0 rgb
/MC1_Arial 150 self 0 0 m
(prn)[83 50 83 ] xs
1 -1 sc
gr
gr
gs
gs
1 -1 sc
2713 -2924 tr
30 ro
0 0 0 rgb
/MC1_Arial 150 self 0 0 m
(proj)[83 50 83 33 ] xs
1 -1 sc
gr
gr
gs
gs
1 -1 sc
3071 -2904 tr
30 ro
0 0 0 rgb
/MC1_Arial 150 self 0 0 m
(usr)[83 75 50 ] xs
1 -1 sc
gr
gr
gs
gs
1 -1 sc
3330 -2941 tr
30 ro
0 0 0 rgb
/MC1_Arial 150 self 0 0 m
(hpio)[83 83 33 83 ] xs
1 -1 sc
gr
gr
gs
1 -1 sc
0 0 0 rgb
/MC1_Arial 150 self 216 -2702 m
(0.0)[83 42 83 ] xs
1 -1 sc
gr
gs
1 -1 sc
0 0 0 rgb
/MC1_Arial 150 self 216 -2261 m
(0.2)[83 42 83 ] xs
1 -1 sc
gr
gs
1 -1 sc
0 0 0 rgb
/MC1_Arial 150 self 216 -1819 m
(0.4)[83 42 83 ] xs
1 -1 sc
gr
gs
1 -1 sc
0 0 0 rgb
/MC1_Arial 150 self 216 -1378 m
(0.6)[83 42 83 ] xs
1 -1 sc
gr
gs
1 -1 sc
0 0 0 rgb
/MC1_Arial 150 self 216 -936 m
(0.8)[83 42 83 ] xs
1 -1 sc
gr
gs
1 -1 sc
0 0 0 rgb
/MC1_Arial 150 self 216 -495 m
(1.0)[83 42 83 ] xs
1 -1 sc
gr
481 2674 m
481 2657 l
13 sw
0 0 0 rgb
st
642 2691 m
642 2657 l
st
804 2674 m
804 2657 l
st
965 2691 m
965 2657 l
st
1127 2674 m
1127 2657 l
st
1288 2691 m
1288 2657 l
st
1450 2674 m
1450 2657 l
st
1611 2691 m
1611 2657 l
st
1773 2674 m
1773 2657 l
st
1934 2691 m
1934 2657 l
st
2096 2674 m
2096 2657 l
st
2257 2691 m
2257 2657 l
st
2418 2674 m
2418 2657 l
st
2580 2691 m
2580 2657 l
st
2741 2674 m
2741 2657 l
st
2903 2691 m
2903 2657 l
st
3064 2674 m
3064 2657 l
st
3226 2691 m
3226 2657 l
st
3387 2674 m
3387 2657 l
st
3549 2691 m
3549 2657 l
st
3710 2674 m
3710 2657 l
st
481 2657 m
3710 2657 l
st
447 2657 m
481 2657 l
st
464 2436 m
481 2436 l
st
447 2216 m
481 2216 l
st
464 1995 m
481 1995 l
st
447 1774 m
481 1774 l
st
464 1554 m
481 1554 l
st
447 1333 m
481 1333 l
st
464 1112 m
481 1112 l
st
447 891 m
481 891 l
st
464 671 m
481 671 l
st
447 450 m
481 450 l
st
481 2657 m
481 450 l
st
481 450 m
481 450 l
st
642 450 m
642 450 l
st
804 450 m
804 450 l
st
965 450 m
965 450 l
st
1127 450 m
1127 450 l
st
1288 450 m
1288 450 l
st
1450 450 m
1450 450 l
st
1611 450 m
1611 450 l
st
1773 450 m
1773 450 l
st
1934 450 m
1934 450 l
st
2096 450 m
2096 450 l
st
2257 450 m
2257 450 l
st
2418 450 m
2418 450 l
st
2580 450 m
2580 450 l
st
2741 450 m
2741 450 l
st
2903 450 m
2903 450 l
st
3064 450 m
3064 450 l
st
3226 450 m
3226 450 l
st
3387 450 m
3387 450 l
st
3549 450 m
3549 450 l
st
3710 450 m
3710 450 l
st
481 450 m
3710 450 l
st
3710 2657 m
3710 2657 l
st
3710 2436 m
3710 2436 l
st
3710 2216 m
3710 2216 l
st
3710 1995 m
3710 1995 l
st
3710 1774 m
3710 1774 l
st
3710 1554 m
3710 1554 l
st
3710 1333 m
3710 1333 l
st
3710 1112 m
3710 1112 l
st
3710 891 m
3710 891 l
st
3710 671 m
3710 671 l
st
3710 450 m
3710 450 l
st
3710 2657 m
3710 450 l
st
gs
gs
1 -1 sc
154 -2467 tr
90 ro
/MC2_Arial 200 self 0 0 m
(Misaligned Fraction)[167 44 100 111 44 44 111 111 111 111 56 122 67 111 100 56 44 111 111 ] xs
1 -1 sc
gr
gr
9 -8 m
3734 -8 l
3734 282 l
9 282 l
cp
gs
1 1 1 rgb
eofi
gr
3 sw
st
gs
1 -1 sc
/MC3_Arial 195 self 10 -201 m
(  )[54 54 ] xs
1 -1 sc
gs
gs
121 24 m
559 24 l
559 240 l
121 240 l
cp
gs
eofi
gr
5 sw
st
gr
gr
1 -1 sc
/MC4_ArialBold 195 self 562 -201 m
( )[54 ] xs
1 -1 sc
1 -1 sc
616 -201 m
(Both)[141 119 65 119 ] xs
1 -1 sc
1 -1 sc
1060 -201 m
(   )[54 54 54 ] xs
1 -1 sc
gs
gs
1225 24 m
1663 24 l
1663 240 l
1225 240 l
cp
gs
1 0 0 rgb
eofi
gr
5 sw
st
gr
gr
1 -1 sc
1666 -201 m
( )[54 ] xs
1 -1 sc
1 -1 sc
1720 -201 m
(Address)[141 119 119 76 108 108 108 ] xs
1 -1 sc
1 -1 sc
2499 -201 m
(   )[54 54 54 ] xs
1 -1 sc
gs
gs
2664 24 m
3102 24 l
3102 240 l
2664 240 l
cp
gs
0.753 0.753 0.753 rgb
eofi
gr
5 sw
st
gr
gr
1 -1 sc
3105 -201 m
( )[54 ] xs
1 -1 sc
1 -1 sc
3159 -201 m
(Size)[130 54 98 108 ] xs
1 -1 sc
gr
gr
Save0 restore end
showpage
%%EOF
